Version 4
SHEET 1 880 680
WIRE 288 -16 288 -32
WIRE 384 -16 288 -16
WIRE 288 0 288 -16
WIRE 384 0 384 -16
WIRE 144 112 64 112
WIRE 288 112 288 80
WIRE 288 112 224 112
WIRE 464 112 288 112
WIRE 544 112 528 112
WIRE 544 128 544 112
WIRE 64 144 64 112
FLAG 384 64 0
FLAG 544 208 0
FLAG 64 224 0
FLAG -80 224 0
FLAG -80 144 Vbias
FLAG 288 -32 Vbias
FLAG 288 112 rf_in
FLAG 544 112 rf_out
SYMBOL voltage -80 128 R0
SYMATTR InstName V1
SYMATTR Value 3.3
SYMBOL voltage 64 128 R0
WINDOW 123 24 124 Left 2
WINDOW 39 0 0 Left 0
SYMATTR InstName V2
SYMATTR Value 0
SYMATTR Value2 AC 1
SYMBOL res 240 96 R90
WINDOW 0 0 56 VBottom 2
WINDOW 3 32 56 VTop 2
SYMATTR InstName R1
SYMATTR Value 50
SYMBOL ind 272 -16 R0
SYMATTR InstName L1
SYMATTR Value 27n
SYMBOL cap 368 0 R0
SYMATTR InstName C1
SYMATTR Value 10n
SYMBOL cap 528 96 R90
WINDOW 0 0 32 VBottom 2
WINDOW 3 32 32 VTop 2
SYMATTR InstName C2
SYMATTR Value 47p
SYMBOL res 528 112 R0
SYMATTR InstName R2
SYMATTR Value 50
TEXT -114 248 Left 2 !.ac dec 101 1 100G
