EESchema Schematic File Version 4
EELAYER 30 0
EELAYER END
$Descr A4 11693 8268
encoding utf-8
Sheet 5 5
Title ""
Date ""
Rev ""
Comp ""
Comment1 ""
Comment2 ""
Comment3 ""
Comment4 ""
$EndDescr
$Comp
L LibreTimeBase:LM5156xH U?
U 1 1 61D13883
P 3900 2250
F 0 "U?" H 3900 2375 50  0000 C CNN
F 1 "LM5156xH" H 3900 2284 50  0000 C CNN
F 2 "Package_SO:HTSSOP-14-1EP_4.4x5mm_P0.65mm_EP3.4x5mm_Mask3x3.1mm_ThermalVias" H 3900 2250 50  0001 C CNN
F 3 "https://www.ti.com/lit/ds/symlink/lm5156h.pdf" H 3900 2250 50  0001 C CNN
	1    3900 2250
	-1   0    0    1   
$EndComp
$Comp
L Device:C C?
U 1 1 61D13889
P 3000 2550
F 0 "C?" H 3115 2596 50  0000 L CNN
F 1 "2.7uF" H 3115 2505 50  0000 L CNN
F 2 "Capacitor_SMD:C_1206_3216Metric" H 3038 2400 50  0001 C CNN
F 3 "~" H 3000 2550 50  0001 C CNN
	1    3000 2550
	1    0    0    -1  
$EndComp
$Comp
L Transistor_FET:CSD18537NQ5A Q?
U 1 1 61D1388F
P 6000 1850
F 0 "Q?" H 6205 1896 50  0000 L CNN
F 1 "CSD18537NQ5A" H 6205 1805 50  0000 L CNN
F 2 "Package_TO_SOT_SMD:TDSON-8-1" H 6200 1775 50  0001 L CIN
F 3 "http://www.ti.com/lit/gpn/csd18537nq5a" V 6000 1850 50  0001 L CNN
	1    6000 1850
	1    0    0    -1  
$EndComp
$Comp
L Device:R R?
U 1 1 61D13895
P 5700 2100
AR Path="/61D13895" Ref="R?"  Part="1" 
AR Path="/611B1C78/61D13895" Ref="R?"  Part="1" 
F 0 "R?" V 5493 2100 50  0000 C CNN
F 1 "CRCW0402100RFKED" V 5584 2100 50  0000 C CNN
F 2 "Resistor_SMD:R_0402_1005Metric" V 5630 2100 50  0001 C CNN
F 3 "~" H 5700 2100 50  0001 C CNN
	1    5700 2100
	0    1    -1   0   
$EndComp
Wire Wire Line
	5850 2100 6100 2100
$Comp
L Device:C C?
U 1 1 61D1389C
P 5200 2400
F 0 "C?" H 5315 2446 50  0000 L CNN
F 1 "CL21C101JBANNNC" H 5315 2355 50  0000 L CNN
F 2 "Capacitor_SMD:C_1206_3216Metric" H 5238 2250 50  0001 C CNN
F 3 "~" H 5200 2400 50  0001 C CNN
	1    5200 2400
	1    0    0    1   
$EndComp
Wire Wire Line
	5200 2250 5200 2100
$Comp
L Device:R RS?
U 1 1 61D138A3
P 6100 2350
AR Path="/61D138A3" Ref="RS?"  Part="1" 
AR Path="/611B1C78/61D138A3" Ref="RS?"  Part="1" 
F 0 "RS?" V 5893 2350 50  0000 C CNN
F 1 "CSR1206FK15L0" V 5984 2350 50  0000 C CNN
F 2 "Resistor_SMD:R_1206_3216Metric" V 6030 2350 50  0001 C CNN
F 3 "~" H 6100 2350 50  0001 C CNN
	1    6100 2350
	-1   0    0    1   
$EndComp
Wire Wire Line
	6100 2500 6100 2600
$Comp
L Device:Transformer_1P_1S T?
U 1 1 61D138AA
P 6550 1400
F 0 "T?" V 6504 1644 50  0000 L CNN
F 1 "Transformer_1P_1S" V 6595 1644 50  0000 L CNN
F 2 "" H 6550 1400 50  0001 C CNN
F 3 "~" H 6550 1400 50  0001 C CNN
	1    6550 1400
	-1   0    0    1   
$EndComp
Wire Wire Line
	7050 1600 6950 1600
Wire Wire Line
	7000 1250 7000 1200
$Comp
L Device:R R?
U 1 1 61D138B2
P 8700 2050
AR Path="/61D138B2" Ref="R?"  Part="1" 
AR Path="/611B1C78/61D138B2" Ref="R?"  Part="1" 
F 0 "R?" V 8493 2050 50  0000 C CNN
F 1 "RG1608P-3832-B-T5" V 8584 2050 50  0000 C CNN
F 2 "Resistor_SMD:R_0603_1608Metric" V 8630 2050 50  0001 C CNN
F 3 "~" H 8700 2050 50  0001 C CNN
	1    8700 2050
	-1   0    0    -1  
$EndComp
Wire Wire Line
	6100 2050 6100 2100
Wire Wire Line
	1650 1200 1650 1050
$Comp
L power:VDD #PWR?
U 1 1 61D138BA
P 1650 1050
F 0 "#PWR?" H 1650 900 50  0001 C CNN
F 1 "VDD" H 1665 1223 50  0000 C CNN
F 2 "" H 1650 1050 50  0001 C CNN
F 3 "" H 1650 1050 50  0001 C CNN
	1    1650 1050
	1    0    0    -1  
$EndComp
$Comp
L Device:C C?
U 1 1 61D138C0
P 2050 1400
F 0 "C?" H 2165 1446 50  0000 L CNN
F 1 "CKG57NX7S2A226M500JH" H 2165 1355 50  0000 L CNN
F 2 "Capacitor_SMD:C_2220_5650Metric" H 2088 1250 50  0001 C CNN
F 3 "~" H 2050 1400 50  0001 C CNN
	1    2050 1400
	1    0    0    -1  
$EndComp
Wire Wire Line
	2050 1250 2050 1200
Wire Wire Line
	2050 1550 2050 1600
$Comp
L power:GND #PWR?
U 1 1 61D138C8
P 7000 1250
F 0 "#PWR?" H 7000 1000 50  0001 C CNN
F 1 "GND" H 7005 1077 50  0000 C CNN
F 2 "" H 7000 1250 50  0001 C CNN
F 3 "" H 7000 1250 50  0001 C CNN
	1    7000 1250
	1    0    0    -1  
$EndComp
$Comp
L power:VDDA #PWR?
U 1 1 61D138CE
P 8700 1550
F 0 "#PWR?" H 8700 1400 50  0001 C CNN
F 1 "VDDA" H 8715 1723 50  0000 C CNN
F 2 "" H 8700 1550 50  0001 C CNN
F 3 "" H 8700 1550 50  0001 C CNN
	1    8700 1550
	1    0    0    -1  
$EndComp
Text Label 1950 2050 0    50   ~ 0
DCDC_PGOOD
Wire Wire Line
	2650 3050 2650 2950
Wire Wire Line
	2300 2350 2300 2150
Wire Wire Line
	2000 2550 1500 2550
Text Label 1500 2550 0    50   ~ 0
DCDC_PDN
$Comp
L Device:R R?
U 1 1 61D138D9
P 2650 2550
AR Path="/61D138D9" Ref="R?"  Part="1" 
AR Path="/611B1C78/61D138D9" Ref="R?"  Part="1" 
F 0 "R?" V 2443 2550 50  0000 C CNN
F 1 "3k" V 2534 2550 50  0000 C CNN
F 2 "Resistor_SMD:R_0603_1608Metric" V 2580 2550 50  0001 C CNN
F 3 "~" H 2650 2550 50  0001 C CNN
	1    2650 2550
	-1   0    0    -1  
$EndComp
Wire Wire Line
	2650 2700 2650 2950
$Comp
L Device:R R?
U 1 1 61D138E0
P 2650 1700
AR Path="/61D138E0" Ref="R?"  Part="1" 
AR Path="/611B1C78/61D138E0" Ref="R?"  Part="1" 
F 0 "R?" V 2443 1700 50  0000 C CNN
F 1 "22k" V 2534 1700 50  0000 C CNN
F 2 "Resistor_SMD:R_0603_1608Metric" V 2580 1700 50  0001 C CNN
F 3 "~" H 2650 1700 50  0001 C CNN
	1    2650 1700
	-1   0    0    -1  
$EndComp
Wire Wire Line
	2650 1550 2650 1200
$Comp
L Device:R R?
U 1 1 61D138E7
P 8700 2950
AR Path="/61D138E7" Ref="R?"  Part="1" 
AR Path="/611B1C78/61D138E7" Ref="R?"  Part="1" 
F 0 "R?" V 8493 2950 50  0000 C CNN
F 1 "RG1608P-472-B-T5" V 8584 2950 50  0000 C CNN
F 2 "Resistor_SMD:R_0603_1608Metric" V 8630 2950 50  0001 C CNN
F 3 "~" H 8700 2950 50  0001 C CNN
	1    8700 2950
	-1   0    0    -1  
$EndComp
Text Label 8700 2400 2    50   ~ 0
DCDC_FB
$Comp
L Device:C C?
U 1 1 61D138EE
P 4900 2600
F 0 "C?" H 5015 2646 50  0000 L CNN
F 1 "C0805C105K4RACTU" H 5015 2555 50  0000 L CNN
F 2 "Capacitor_SMD:C_0805_2012Metric" H 4938 2450 50  0001 C CNN
F 3 "~" H 4900 2600 50  0001 C CNN
	1    4900 2600
	1    0    0    -1  
$EndComp
Wire Wire Line
	1650 1600 2050 1600
$Comp
L Device:D_Schottky D?
U 1 1 61D138F5
P 7200 1600
F 0 "D?" V 7154 1680 50  0000 L CNN
F 1 "STPS20M100SG-TR" V 7245 1680 50  0000 L CNN
F 2 "Package_TO_SOT_SMD:TO-263-2" H 7200 1600 50  0001 C CNN
F 3 "https://www.st.com/resource/en/datasheet/stps20m100s.pdf" H 7200 1600 50  0001 C CNN
	1    7200 1600
	-1   0    0    1   
$EndComp
Wire Wire Line
	6100 1650 6100 1600
Wire Wire Line
	6100 1600 6150 1600
Wire Wire Line
	5200 2550 5200 2600
Connection ~ 6100 2100
Wire Wire Line
	6100 2100 6100 2200
Wire Wire Line
	6100 2600 5200 2600
$Comp
L Device:C C?
U 1 1 61D13901
P 1650 1400
F 0 "C?" H 1765 1446 50  0000 L CNN
F 1 "CKG57NX7S2A226M500JH" H 1765 1355 50  0000 L CNN
F 2 "Capacitor_SMD:C_2220_5650Metric" H 1688 1250 50  0001 C CNN
F 3 "~" H 1650 1400 50  0001 C CNN
	1    1650 1400
	-1   0    0    -1  
$EndComp
Wire Wire Line
	1650 1250 1650 1200
Wire Wire Line
	1650 1550 1650 1600
Connection ~ 2050 1200
Wire Wire Line
	2050 1200 2650 1200
Connection ~ 1650 1200
Wire Wire Line
	1650 1200 2050 1200
$Comp
L power:GND #PWR?
U 1 1 61D1390D
P 1650 1650
F 0 "#PWR?" H 1650 1400 50  0001 C CNN
F 1 "GND" H 1655 1477 50  0000 C CNN
F 2 "" H 1650 1650 50  0001 C CNN
F 3 "" H 1650 1650 50  0001 C CNN
	1    1650 1650
	1    0    0    -1  
$EndComp
Wire Wire Line
	1650 1600 1650 1650
Connection ~ 1650 1600
$Comp
L Device:C C?
U 1 1 61D13915
P 8350 1800
F 0 "C?" H 8465 1846 50  0000 L CNN
F 1 "C3225X7R1H106M250AC" H 8465 1755 50  0000 L CNN
F 2 "Capacitor_SMD:C_1210_3225Metric" H 8388 1650 50  0001 C CNN
F 3 "~" H 8350 1800 50  0001 C CNN
	1    8350 1800
	1    0    0    -1  
$EndComp
$Comp
L Device:C C?
U 1 1 61D1391B
P 7550 1800
F 0 "C?" H 7665 1846 50  0000 L CNN
F 1 "C3225X7R1H106M250AC" H 7665 1755 50  0000 L CNN
F 2 "Capacitor_SMD:C_1210_3225Metric" H 7588 1650 50  0001 C CNN
F 3 "~" H 7550 1800 50  0001 C CNN
	1    7550 1800
	1    0    0    -1  
$EndComp
Wire Wire Line
	8700 1550 8700 1600
Wire Wire Line
	7350 1600 7550 1600
Wire Wire Line
	7550 1650 7550 1600
Connection ~ 7550 1600
Wire Wire Line
	8350 1650 8350 1600
Wire Wire Line
	8700 1600 8700 1900
Connection ~ 8350 1600
Wire Wire Line
	7550 1950 7550 2000
Wire Wire Line
	8350 2000 8350 1950
Connection ~ 8350 2000
Wire Wire Line
	6950 1200 7000 1200
$Comp
L power:GND #PWR?
U 1 1 61D1392C
P 8700 3200
F 0 "#PWR?" H 8700 2950 50  0001 C CNN
F 1 "GND" H 8705 3027 50  0000 C CNN
F 2 "" H 8700 3200 50  0001 C CNN
F 3 "" H 8700 3200 50  0001 C CNN
	1    8700 3200
	1    0    0    -1  
$EndComp
Wire Wire Line
	8700 3200 8700 3150
$Comp
L power:GND #PWR?
U 1 1 61D13933
P 6100 2650
F 0 "#PWR?" H 6100 2400 50  0001 C CNN
F 1 "GND" H 6105 2477 50  0000 C CNN
F 2 "" H 6100 2650 50  0001 C CNN
F 3 "" H 6100 2650 50  0001 C CNN
	1    6100 2650
	1    0    0    -1  
$EndComp
Wire Wire Line
	6100 2650 6100 2600
Connection ~ 6100 2600
Wire Wire Line
	5800 1850 4450 1850
Wire Wire Line
	5200 2100 5550 2100
Wire Wire Line
	3900 1400 3900 1350
Wire Wire Line
	3900 1350 4500 1350
Wire Wire Line
	4500 1350 4500 1650
Wire Wire Line
	4500 1650 4450 1650
Wire Wire Line
	4450 1550 5200 1550
Wire Wire Line
	5200 1550 5200 2100
Connection ~ 5200 2100
Wire Wire Line
	4450 1750 4500 1750
Connection ~ 4500 1650
$Comp
L Device:C C?
U 1 1 61D13946
P 4600 1850
F 0 "C?" H 4715 1896 50  0000 L CNN
F 1 "C0805C105K4RACTU" H 4715 1805 50  0000 L CNN
F 2 "Capacitor_SMD:C_0805_2012Metric" H 4638 1700 50  0001 C CNN
F 3 "~" H 4600 1850 50  0001 C CNN
	1    4600 1850
	1    0    0    1   
$EndComp
Wire Wire Line
	4450 1950 4500 1950
Wire Wire Line
	4500 1950 4500 2000
Wire Wire Line
	4500 2000 4600 2000
Wire Wire Line
	4450 2150 4900 2150
Wire Wire Line
	4900 2150 4900 1200
Connection ~ 4900 1200
Wire Wire Line
	4900 1200 6150 1200
Wire Wire Line
	4900 2450 4900 2150
Connection ~ 4900 2150
$Comp
L power:GND #PWR?
U 1 1 61D13955
P 4900 2800
F 0 "#PWR?" H 4900 2550 50  0001 C CNN
F 1 "GND" H 4905 2627 50  0000 C CNN
F 2 "" H 4900 2800 50  0001 C CNN
F 3 "" H 4900 2800 50  0001 C CNN
	1    4900 2800
	1    0    0    -1  
$EndComp
Wire Wire Line
	4900 2800 4900 2750
NoConn ~ 4450 2050
Connection ~ 8700 2400
Wire Wire Line
	8700 2400 8700 2800
Wire Wire Line
	8700 2200 8700 2400
Wire Wire Line
	2650 2400 2650 2150
Connection ~ 2650 1200
Wire Wire Line
	2650 1200 4900 1200
Wire Wire Line
	2300 2150 2650 2150
Connection ~ 2650 2150
Wire Wire Line
	2650 2950 2300 2950
Wire Wire Line
	2300 2950 2300 2750
Connection ~ 2650 2950
$Comp
L power:GND #PWR?
U 1 1 61D13968
P 2650 3050
F 0 "#PWR?" H 2650 2800 50  0001 C CNN
F 1 "GND" H 2655 2877 50  0000 C CNN
F 2 "" H 2650 3050 50  0001 C CNN
F 3 "" H 2650 3050 50  0001 C CNN
	1    2650 3050
	1    0    0    -1  
$EndComp
Wire Wire Line
	3350 1950 3300 1950
Wire Wire Line
	3350 2150 2650 2150
Wire Wire Line
	2650 2150 2650 1850
Wire Wire Line
	3350 2050 1950 2050
Wire Wire Line
	2650 2950 3000 2950
Wire Wire Line
	3000 2400 3000 1850
Wire Wire Line
	3000 1850 3350 1850
Wire Wire Line
	3000 2700 3000 2950
Connection ~ 3000 2950
Wire Wire Line
	3000 2950 3300 2950
Wire Wire Line
	6950 2400 8700 2400
$Comp
L Device:R R?
U 1 1 61D13979
P 3300 2550
AR Path="/61D13979" Ref="R?"  Part="1" 
AR Path="/611B1C78/61D13979" Ref="R?"  Part="1" 
F 0 "R?" V 3093 2550 50  0000 C CNN
F 1 "RC0201FR-0718K7L" V 3184 2550 50  0000 C CNN
F 2 "Resistor_SMD:R_0603_1608Metric" V 3230 2550 50  0001 C CNN
F 3 "~" H 3300 2550 50  0001 C CNN
	1    3300 2550
	-1   0    0    -1  
$EndComp
Wire Wire Line
	3300 1950 3300 2400
Wire Wire Line
	3300 2700 3300 2950
Wire Wire Line
	8350 1600 8700 1600
Connection ~ 8700 1600
Wire Wire Line
	8350 3150 8700 3150
Wire Wire Line
	8350 2000 8350 3150
Connection ~ 8700 3150
Wire Wire Line
	8700 3150 8700 3100
Wire Wire Line
	6950 2400 6950 3100
Wire Wire Line
	6950 3100 3200 3100
Wire Wire Line
	3200 3100 3200 1750
Wire Wire Line
	3200 1750 3350 1750
Wire Wire Line
	3350 1650 3100 1650
Wire Wire Line
	3100 1650 3100 2300
Wire Wire Line
	3100 2300 4600 2300
Wire Wire Line
	4600 2300 4600 2000
Connection ~ 4600 2000
$Comp
L Device:C C?
U 1 1 61D13990
P 3000 3650
F 0 "C?" H 3115 3696 50  0000 L CNN
F 1 "C0603C123J3GACTU" H 3115 3605 50  0000 L CNN
F 2 "Capacitor_SMD:C_1206_3216Metric" H 3038 3500 50  0001 C CNN
F 3 "~" H 3000 3650 50  0001 C CNN
	1    3000 3650
	-1   0    0    -1  
$EndComp
$Comp
L Device:R R?
U 1 1 61D13996
P 3000 4200
AR Path="/61D13996" Ref="R?"  Part="1" 
AR Path="/611B1C78/61D13996" Ref="R?"  Part="1" 
F 0 "R?" V 2793 4200 50  0000 C CNN
F 1 "CRCW04026K65FKED" V 2884 4200 50  0000 C CNN
F 2 "Resistor_SMD:R_0402_1005Metric" V 2930 4200 50  0001 C CNN
F 3 "~" H 3000 4200 50  0001 C CNN
	1    3000 4200
	-1   0    0    -1  
$EndComp
$Comp
L Device:C C?
U 1 1 61D1399C
P 2600 3900
F 0 "C?" H 2715 3946 50  0000 L CNN
F 1 "CL05C681JB5NNNC" H 2715 3855 50  0000 L CNN
F 2 "Capacitor_SMD:C_0402_1005Metric" H 2638 3750 50  0001 C CNN
F 3 "~" H 2600 3900 50  0001 C CNN
	1    2600 3900
	-1   0    0    -1  
$EndComp
Wire Wire Line
	3000 3800 3000 4050
Wire Wire Line
	3000 3500 3000 3450
Wire Wire Line
	3000 3450 2800 3450
Wire Wire Line
	2600 3450 2600 3750
Wire Wire Line
	2600 4050 2600 4400
Wire Wire Line
	2600 4400 2800 4400
Wire Wire Line
	3000 4400 3000 4350
Wire Wire Line
	3350 1550 2800 1550
Wire Wire Line
	2800 1550 2800 3450
Connection ~ 2800 3450
Wire Wire Line
	2800 3450 2600 3450
Wire Wire Line
	2800 4450 2800 4400
$Comp
L power:GND #PWR?
U 1 1 61D139AE
P 2800 4450
F 0 "#PWR?" H 2800 4200 50  0001 C CNN
F 1 "GND" H 2805 4277 50  0000 C CNN
F 2 "" H 2800 4450 50  0001 C CNN
F 3 "" H 2800 4450 50  0001 C CNN
	1    2800 4450
	1    0    0    -1  
$EndComp
Connection ~ 2800 4400
Wire Wire Line
	2800 4400 3000 4400
Wire Wire Line
	7550 2000 8350 2000
Wire Wire Line
	4500 1650 4500 1750
Wire Wire Line
	4500 1650 4600 1650
Wire Wire Line
	4600 1650 4600 1700
Wire Wire Line
	7550 1600 8350 1600
$Comp
L Transistor_FET:2N7002 Q?
U 1 1 61D139BB
P 2200 2550
F 0 "Q?" H 2404 2596 50  0000 L CNN
F 1 "2N7002" H 2404 2505 50  0000 L CNN
F 2 "Package_TO_SOT_SMD:SOT-23" H 2400 2475 50  0001 L CIN
F 3 "https://www.onsemi.com/pub/Collateral/NDS7002A-D.PDF" H 2200 2550 50  0001 L CNN
	1    2200 2550
	1    0    0    -1  
$EndComp
$EndSCHEMATC
