(module Amphenol_10025026-10000TLF (layer F.Cu) (tedit 61460260)
  (descr "Amphenol PCI EXPRESS - 10025026-10000TLF")
  (tags "PCIe straddle")
  (attr virtual)
  (fp_text reference REF** (at -6.5 8.7) (layer F.SilkS)
    (effects (font (size 1 1) (thickness 0.15)))
  )
  (fp_text value BUS_PCIexpress_x1 (at 10.33 -8.01) (layer F.Fab)
    (effects (font (size 1 1) (thickness 0.15)))
  )
  (fp_line (start 1 0.4) (end 1.4 0) (layer Edge.Cuts) (width 0.1))
  (fp_line (start -1 0.4) (end -1.4 0) (layer Edge.Cuts) (width 0.1))
  (fp_line (start 1.4 0) (end 13.8 0) (layer Edge.Cuts) (width 0.1))
  (fp_line (start -17.8 0) (end -1.4 0) (layer Edge.Cuts) (width 0.1))
  (fp_line (start 1 6) (end 1 0.4) (layer Edge.Cuts) (width 0.1))
  (fp_line (start -1 6) (end -1 0.4) (layer Edge.Cuts) (width 0.1))
  (fp_line (start 15.8 -1.75) (end -19.8 -1.75) (layer B.CrtYd) (width 0.05))
  (fp_line (start 15.8 -1.75) (end 15.8 7.65) (layer B.CrtYd) (width 0.05))
  (fp_line (start -19.8 7.65) (end -19.8 -1.75) (layer B.CrtYd) (width 0.05))
  (fp_line (start -19.8 7.65) (end 15.8 7.65) (layer B.CrtYd) (width 0.05))
  (fp_arc (start 0 6) (end 1 6) (angle 180) (layer Edge.Cuts) (width 0.1))
  (fp_text user "PCB Thickness 1.57 mm" (at -6.5 1.4 -180) (layer Cmts.User)
    (effects (font (size 0.5 0.5) (thickness 0.1)))
  )
  (fp_text user %R (at 4.5 8.7) (layer F.Fab)
    (effects (font (size 1 1) (thickness 0.15)))
  )
  (fp_line (start -11.5 5.2) (end -12 6.2) (layer F.SilkS) (width 0.15))
  (fp_line (start -12 6.2) (end -11 6.2) (layer F.SilkS) (width 0.15))
  (fp_line (start -11 6.2) (end -11.5 5.2) (layer F.SilkS) (width 0.15))
  (fp_text user A1 (at -11.5 7.2) (layer F.SilkS)
    (effects (font (size 1 1) (thickness 0.15)))
  )
  (fp_line (start -11.5 5.2) (end -11 6.2) (layer B.SilkS) (width 0.15))
  (fp_line (start -11 6.2) (end -12 6.2) (layer B.SilkS) (width 0.15))
  (fp_line (start -12 6.2) (end -11.5 5.2) (layer B.SilkS) (width 0.15))
  (fp_text user B1 (at -11.5 7.2 180) (layer B.SilkS)
    (effects (font (size 1 1) (thickness 0.15)) (justify mirror))
  )
  (pad A13 connect rect (at 2.5 3.2) (size 0.7 3.6) (layers F.Cu F.Mask))
  (pad A12 connect rect (at 1.5 3.2) (size 0.7 3.6) (layers F.Cu F.Mask))
  (pad A18 connect rect (at 7.5 3.2) (size 0.7 3.6) (layers F.Cu F.Mask))
  (pad A17 connect rect (at 6.5 3.2) (size 0.7 3.6) (layers F.Cu F.Mask))
  (pad A16 connect rect (at 5.5 3.2) (size 0.7 3.6) (layers F.Cu F.Mask))
  (pad A15 connect rect (at 4.5 3.2) (size 0.7 3.6) (layers F.Cu F.Mask))
  (pad A14 connect rect (at 3.5 3.2) (size 0.7 3.6) (layers F.Cu F.Mask))
  (pad A11 connect rect (at -1.5 3.2) (size 0.7 3.6) (layers F.Cu F.Mask))
  (pad A10 connect rect (at -2.5 3.2) (size 0.7 3.6) (layers F.Cu F.Mask))
  (pad A9 connect rect (at -3.5 3.2) (size 0.7 3.6) (layers F.Cu F.Mask))
  (pad A8 connect rect (at -4.5 3.2) (size 0.7 3.6) (layers F.Cu F.Mask))
  (pad A7 connect rect (at -5.5 3.2) (size 0.7 3.6) (layers F.Cu F.Mask))
  (pad A6 connect rect (at -6.5 3.2) (size 0.7 3.6) (layers F.Cu F.Mask))
  (pad A5 connect rect (at -7.5 3.2) (size 0.7 3.6) (layers F.Cu F.Mask))
  (pad A4 connect rect (at -8.5 3.2) (size 0.7 3.6) (layers F.Cu F.Mask))
  (pad A3 connect rect (at -9.5 3.2) (size 0.7 3.6) (layers F.Cu F.Mask))
  (pad A2 connect rect (at -10.5 3.2) (size 0.7 3.6) (layers F.Cu F.Mask))
  (pad A1 connect rect (at -11.5 3.2) (size 0.7 3.6) (layers F.Cu F.Mask))
  (pad B13 connect rect (at 2.5 3.2) (size 0.7 3.6) (layers B.Cu B.Mask))
  (pad B12 connect rect (at 1.5 3.2) (size 0.7 3.6) (layers B.Cu B.Mask))
  (pad B18 connect rect (at 7.5 3.2) (size 0.7 3.6) (layers B.Cu B.Mask))
  (pad B17 connect rect (at 6.5 3.2) (size 0.7 3.6) (layers B.Cu B.Mask))
  (pad B16 connect rect (at 5.5 3.2) (size 0.7 3.6) (layers B.Cu B.Mask))
  (pad B15 connect rect (at 4.5 3.2) (size 0.7 3.6) (layers B.Cu B.Mask))
  (pad B14 connect rect (at 3.5 3.2) (size 0.7 3.6) (layers B.Cu B.Mask))
  (pad B11 connect rect (at -1.5 3.2) (size 0.7 3.6) (layers B.Cu B.Mask))
  (pad B10 connect rect (at -2.5 3.2) (size 0.7 3.6) (layers B.Cu B.Mask))
  (pad B9 connect rect (at -3.5 3.2) (size 0.7 3.6) (layers B.Cu B.Mask))
  (pad B8 connect rect (at -4.5 3.2) (size 0.7 3.6) (layers B.Cu B.Mask))
  (pad B7 connect rect (at -5.5 3.2) (size 0.7 3.6) (layers B.Cu B.Mask))
  (pad B6 connect rect (at -6.5 3.2) (size 0.7 3.6) (layers B.Cu B.Mask))
  (pad B5 connect rect (at -7.5 3.2) (size 0.7 3.6) (layers B.Cu B.Mask))
  (pad B4 connect rect (at -8.5 3.2) (size 0.7 3.6) (layers B.Cu B.Mask))
  (pad B3 connect rect (at -9.5 3.2) (size 0.7 3.6) (layers B.Cu B.Mask))
  (pad B2 connect rect (at -10.5 3.2) (size 0.7 3.6) (layers B.Cu B.Mask))
  (pad B1 connect rect (at -11.5 3.2) (size 0.7 3.6) (layers B.Cu B.Mask))
  (pad "" np_thru_hole circle (at -16.3 2.51) (size 2 2) (drill 2) (layers *.Cu *.Mask))
  (pad "" np_thru_hole circle (at 12.3 2.51 180) (size 2 2) (drill 2) (layers *.Cu *.Mask))
  (model C:/Users/xboxl/Documents/LibreTimeBase/pcb/libraries/s10025026-x0xx0c.stp
    (offset (xyz 13.5 0 -0.85))
    (scale (xyz 1 1 1))
    (rotate (xyz 0 0 0))
  )
)
