(footprint "SRS_PRS10" (version 20221018) (generator pcbnew)
  (layer "F.Cu")
  (fp_text reference "REF**" (at 52.07 0 90) (layer "F.Fab")
      (effects (font (size 1 1) (thickness 0.15)))
    (tstamp f8e163ea-3dd0-4c06-83a9-cd6369a6da83)
  )
  (fp_text value "SRS_PRS10" (at 49.53 -26.67 90) (layer "F.Fab")
      (effects (font (size 1 1) (thickness 0.15)))
    (tstamp 90031d44-bd4d-4025-b6fa-ec7553685644)
  )
  (fp_text user "PRS10" (at 41.91 30.48 90) (layer "B.SilkS")
      (effects (font (size 1 1) (thickness 0.15)) (justify left bottom mirror))
    (tstamp 25d8ce0f-0db8-4408-a742-172bc879ab2b)
  )
  (fp_text user "PRS10" (at -40.64 30.48 90) (layer "B.SilkS")
      (effects (font (size 1 1) (thickness 0.15)) (justify left bottom mirror))
    (tstamp 34db486a-e059-440f-931e-bc7eb90a22d2)
  )
  (fp_text user "PRS10 f adj" (at 39.37 -12.7 90) (layer "B.SilkS")
      (effects (font (size 1 1) (thickness 0.15)) (justify left bottom mirror))
    (tstamp 3ca7213e-d846-47af-bb0f-1b16cb52db4c)
  )
  (fp_text user "PRS10" (at -40.64 -35.56 -90) (layer "B.SilkS")
      (effects (font (size 1 1) (thickness 0.15)) (justify left bottom mirror))
    (tstamp 9f20f74d-041e-4b57-b98a-a4748970a920)
  )
  (fp_text user "PRS10" (at 41.91 -35.56 90) (layer "B.SilkS")
      (effects (font (size 1 1) (thickness 0.15)) (justify left bottom mirror))
    (tstamp bab1e4bd-b58e-4d51-b3e2-e14e50ef71ef)
  )
  (fp_line (start -51.2 -38.6) (end -51.2 -37)
    (stroke (width 0.25) (type solid)) (layer "F.SilkS") (tstamp 588eca9c-c482-42b2-a056-a81330c894b9))
  (fp_line (start -51.2 -38.6) (end -49.6 -38.6)
    (stroke (width 0.25) (type solid)) (layer "F.SilkS") (tstamp e7937068-e8eb-42dd-92a6-a6bb5b53b9be))
  (fp_line (start -51.2 38.6) (end -51.2 37)
    (stroke (width 0.25) (type solid)) (layer "F.SilkS") (tstamp 0f085087-3a08-4f30-baba-c5454cf99794))
  (fp_line (start -51.2 38.6) (end -49.6 38.6)
    (stroke (width 0.25) (type solid)) (layer "F.SilkS") (tstamp 3fb4a208-b646-4160-8d63-73358fa6b6af))
  (fp_line (start 51.2 -38.6) (end 49.6 -38.6)
    (stroke (width 0.25) (type solid)) (layer "F.SilkS") (tstamp 9f888c16-10d4-43dd-b25e-beeb3c989b99))
  (fp_line (start 51.2 -38.6) (end 51.2 -37)
    (stroke (width 0.25) (type solid)) (layer "F.SilkS") (tstamp 806df970-c600-4f9d-928e-cc556f8066d4))
  (fp_line (start 51.2 38.6) (end 49.6 38.6)
    (stroke (width 0.25) (type solid)) (layer "F.SilkS") (tstamp 06aa98b1-d060-4ebf-817a-8448e669d451))
  (fp_line (start 51.2 38.6) (end 51.2 37)
    (stroke (width 0.25) (type solid)) (layer "F.SilkS") (tstamp 216707e9-cc3e-4917-8192-69f1efe78e2d))
  (fp_line (start -50.8 -38.1) (end 50.8 -38.1)
    (stroke (width 0.12) (type solid)) (layer "Dwgs.User") (tstamp 127ba75f-8428-47be-9e20-c38533000a63))
  (fp_line (start -50.8 38.1) (end -50.8 -38.1)
    (stroke (width 0.12) (type solid)) (layer "Dwgs.User") (tstamp 40ec4a8c-5aba-4998-9bca-c0c6d9d98fd0))
  (fp_line (start 50.8 -38.1) (end 50.8 38.1)
    (stroke (width 0.12) (type solid)) (layer "Dwgs.User") (tstamp 2e5a12e6-9b1f-4f47-bd9b-b1524637b047))
  (fp_line (start 50.8 -30.48) (end 52.07 -30.48)
    (stroke (width 0.12) (type solid)) (layer "Dwgs.User") (tstamp 907586ee-1db7-47a8-b719-c951bcb7f184))
  (fp_line (start 50.8 38.1) (end -50.8 38.1)
    (stroke (width 0.12) (type solid)) (layer "Dwgs.User") (tstamp c0ee410b-7ec1-4583-b082-0f39d534cd40))
  (fp_line (start 52.07 -30.48) (end 52.07 -22.86)
    (stroke (width 0.12) (type solid)) (layer "Dwgs.User") (tstamp cbaa446e-5143-49dc-8914-99042fdbf356))
  (fp_line (start 52.07 -22.86) (end 50.8 -22.86)
    (stroke (width 0.12) (type solid)) (layer "Dwgs.User") (tstamp 7ebc5765-799f-454d-9ccc-15789626bc45))
  (fp_rect (start -51.2 -38.6) (end 51.2 38.6)
    (stroke (width 0.05) (type default)) (fill none) (layer "F.CrtYd") (tstamp 52bf6fa3-5ec1-4903-875a-1325f7fab661))
  (fp_circle (center -45.72 -33.02) (end -41.97 -33.02)
    (stroke (width 0.12) (type solid)) (fill none) (layer "F.CrtYd") (tstamp 02663217-e762-417d-8780-5a4dc13a24e4))
  (fp_circle (center -45.72 33.02) (end -41.97 33.02)
    (stroke (width 0.12) (type solid)) (fill none) (layer "F.CrtYd") (tstamp 53e86cec-5011-4f4e-ac25-921adca2ce7b))
  (fp_circle (center 45.72 -33.02) (end 49.47 -33.02)
    (stroke (width 0.12) (type solid)) (fill none) (layer "F.CrtYd") (tstamp c8e2d01d-60a2-402f-9ec6-9df4194cca76))
  (fp_circle (center 45.72 33.02) (end 49.47 33.02)
    (stroke (width 0.12) (type solid)) (fill none) (layer "F.CrtYd") (tstamp c818f636-4b5a-42fe-85dd-ebd07c3b6887))
  (fp_line (start -50.8 -38.1) (end 50.8 -38.1)
    (stroke (width 0.15) (type solid)) (layer "F.Fab") (tstamp 4daaa809-d57c-4e15-93ab-fb0b4a25116b))
  (fp_line (start -50.8 38.1) (end -50.8 -38.1)
    (stroke (width 0.15) (type solid)) (layer "F.Fab") (tstamp 4feea178-ff61-4fe6-ae8d-79bd83f9e310))
  (fp_line (start 50.8 -38.1) (end 50.8 38.1)
    (stroke (width 0.15) (type solid)) (layer "F.Fab") (tstamp fda39975-72c1-434a-bcb5-1560066df44a))
  (fp_line (start 50.8 -30.48) (end 52.07 -30.48)
    (stroke (width 0.15) (type solid)) (layer "F.Fab") (tstamp b4d3692a-c43e-4dd8-853a-b45e4fc9faf9))
  (fp_line (start 50.8 38.1) (end -50.8 38.1)
    (stroke (width 0.15) (type solid)) (layer "F.Fab") (tstamp a4437706-bb6a-45a4-b39d-34672963e411))
  (fp_line (start 52.07 -30.48) (end 52.07 -22.86)
    (stroke (width 0.15) (type solid)) (layer "F.Fab") (tstamp fe3e7455-4f0a-4f89-952d-ba69d8bcca67))
  (fp_line (start 52.07 -22.86) (end 50.8 -22.86)
    (stroke (width 0.15) (type solid)) (layer "F.Fab") (tstamp ee141cdf-f5f6-40ec-8ed9-fd6d414c094b))
  (pad "" np_thru_hole circle (at 42.037 -8.509) (size 4.572 4.572) (drill 0.762) (layers "*.Cu" "*.Mask") (tstamp 28574bd8-a786-4de1-a72a-6f0190019efc))
  (pad "MH" thru_hole circle (at -45.72 -33.02) (size 6.4 6.4) (drill 3) (layers "*.Cu" "*.Mask") (remove_unused_layers) (keep_end_layers)
    (clearance 0.5) (zone_connect 2) (tstamp b5e2312e-1aa4-4a3d-8830-074001340481))
  (pad "MH" thru_hole circle (at -45.72 33.02) (size 6.4 6.4) (drill 3) (layers "*.Cu" "*.Mask") (remove_unused_layers) (keep_end_layers)
    (clearance 0.5) (zone_connect 2) (tstamp dac67020-ccb9-4883-b01e-0b1daa126680))
  (pad "MH" thru_hole circle (at 45.72 -33.02) (size 6.4 6.4) (drill 3) (layers "*.Cu" "*.Mask") (remove_unused_layers) (keep_end_layers)
    (clearance 0.5) (zone_connect 2) (tstamp ab9ad3a3-717d-46e7-aa03-d59baf46eb23))
  (pad "MH" thru_hole circle (at 45.72 33.02) (size 6.4 6.4) (drill 3) (layers "*.Cu" "*.Mask") (remove_unused_layers) (keep_end_layers)
    (clearance 0.5) (zone_connect 2) (tstamp f6c71241-cb5c-4600-8304-97e2aa2caf80))
  (model "C:/Users/xboxl/Documents/LibreTimeBase/mech/PRS10.step"
    (offset (xyz 0 0 51.75))
    (scale (xyz 1 1 1))
    (rotate (xyz 180 0 0))
  )
)
