(footprint "Symmetricom_SA.3Xm" (version 20221018) (generator pcbnew)
  (layer "F.Cu")
  (descr "https://www.amtest-tm.com/download/quantum_mac_sa-31m-_sa-33m-_and_sa-35m_datasheet.pdf/pdf/")
  (tags "miniature rubidium atomic clock")
  (attr through_hole)
  (fp_text reference "REF**" (at 0 -26.92) (layer "F.SilkS")
      (effects (font (size 1 1) (thickness 0.15)))
    (tstamp 402b83f2-d2f9-4fa9-9c6e-8572cbb043a4)
  )
  (fp_text value "Symmetricom_SA.3Xm" (at 0 24.13) (layer "F.Fab")
      (effects (font (size 1 1) (thickness 0.15)))
    (tstamp a734336b-9931-4f06-9d8d-f232214d9baa)
  )
  (fp_text user "RF" (at -20.28 -22.225) (layer "B.SilkS")
      (effects (font (size 1 1) (thickness 0.15)) (justify mirror))
    (tstamp 0c4d62c0-5eaa-4728-b695-335bae8f58b5)
  )
  (fp_text user "GND" (at -20.32 22.225) (layer "B.SilkS")
      (effects (font (size 1 1) (thickness 0.15)) (justify mirror))
    (tstamp 18d2536e-1aa3-470c-a454-db31a3e51974)
  )
  (fp_text user "RX" (at -25.439762 12.192) (layer "B.SilkS")
      (effects (font (size 1 1) (thickness 0.15)) (justify mirror))
    (tstamp 5a65a6fa-fa21-44bd-bbb3-0599a0d7a9ca)
  )
  (fp_text user "TX" (at -25.320714 15.24) (layer "B.SilkS")
      (effects (font (size 1 1) (thickness 0.15)) (justify mirror))
    (tstamp 7b7ae0bf-bf90-4b8b-b1ad-b944334e2760)
  )
  (fp_text user "Earth" (at 0 -22.225) (layer "B.SilkS")
      (effects (font (size 1 1) (thickness 0.15)) (justify mirror))
    (tstamp 85e87c41-548f-4d18-9b38-43b601a45e52)
  )
  (fp_text user "EFC" (at 20.32 -22.225) (layer "B.SilkS")
      (effects (font (size 1 1) (thickness 0.15)) (justify mirror))
    (tstamp 8d8b0e8e-b8e7-4986-a731-bbd8be406db2)
  )
  (fp_text user "BITE" (at -26.035 18.288) (layer "B.SilkS")
      (effects (font (size 1 1) (thickness 0.15)) (justify mirror))
    (tstamp 9271aeb8-01ac-40b1-89a9-37314de9062a)
  )
  (fp_text user "VDD" (at 20.32 22.225 180) (layer "B.SilkS")
      (effects (font (size 1 1) (thickness 0.15)) (justify mirror))
    (tstamp a1f66a3d-c07f-43f2-9310-d713b34e8eef)
  )
  (fp_text user "${REFERENCE}" (at -22.86 5.08 90) (layer "F.Fab")
      (effects (font (size 1 1) (thickness 0.15)))
    (tstamp e3bcfb55-54a8-4d03-968c-29904e8b8143)
  )
  (fp_line (start -25.58 -25.72) (end -25.58 -24.32)
    (stroke (width 0.15) (type solid)) (layer "F.SilkS") (tstamp 63549560-f047-4bca-8463-a699d4983c95))
  (fp_line (start -25.58 -25.72) (end -24.18 -25.72)
    (stroke (width 0.15) (type solid)) (layer "F.SilkS") (tstamp d8d56b8f-9fa6-4fcc-a6de-402a2cdd5a7e))
  (fp_line (start -25.58 25.68) (end -25.58 24.28)
    (stroke (width 0.15) (type solid)) (layer "F.SilkS") (tstamp fab11221-05af-4ddf-b280-4f432e7bc570))
  (fp_line (start -25.58 25.68) (end -24.18 25.68)
    (stroke (width 0.15) (type solid)) (layer "F.SilkS") (tstamp f6ad5cc4-7916-4696-ac64-546f15e11658))
  (fp_line (start 25.62 -25.72) (end 24.22 -25.72)
    (stroke (width 0.15) (type solid)) (layer "F.SilkS") (tstamp 2f2d24f3-c7eb-4f06-a791-b7a33d489db6))
  (fp_line (start 25.62 -25.72) (end 25.62 -24.32)
    (stroke (width 0.15) (type solid)) (layer "F.SilkS") (tstamp af44bc64-9be5-4b95-b2f7-c4ea3c1a0296))
  (fp_line (start 25.62 25.68) (end 24.22 25.68)
    (stroke (width 0.15) (type solid)) (layer "F.SilkS") (tstamp 1ae0d91b-cc05-486b-86a9-343cac1d7510))
  (fp_line (start 25.62 25.68) (end 25.62 24.28)
    (stroke (width 0.15) (type solid)) (layer "F.SilkS") (tstamp d6e870b0-bcea-4413-a747-e8a400449acc))
  (fp_line (start -25.88 25.88) (end -25.88 -25.92)
    (stroke (width 0.05) (type solid)) (layer "F.CrtYd") (tstamp 29793a41-b9c6-4982-97ae-fba33ba2d956))
  (fp_line (start -25.88 25.88) (end 25.92 25.88)
    (stroke (width 0.05) (type solid)) (layer "F.CrtYd") (tstamp 693f0c82-e824-4365-a54d-e3f201e17fa9))
  (fp_line (start 25.92 -25.92) (end -25.88 -25.92)
    (stroke (width 0.05) (type solid)) (layer "F.CrtYd") (tstamp d8f41314-b196-4db8-b7eb-56952b128e7e))
  (fp_line (start 25.92 -25.92) (end 25.92 25.88)
    (stroke (width 0.05) (type solid)) (layer "F.CrtYd") (tstamp cab6ffed-13fb-4b96-81f0-2822f27c842b))
  (fp_line (start -25.38 -25.42) (end -25.38 25.38)
    (stroke (width 0.1) (type solid)) (layer "F.Fab") (tstamp 892379da-2b05-4b33-9f44-2eb73063cf3b))
  (fp_line (start -25.38 25.38) (end 25.42 25.38)
    (stroke (width 0.1) (type solid)) (layer "F.Fab") (tstamp 21bbaaad-21e9-4524-b036-64b94b0c73de))
  (fp_line (start 20.32 -24.42) (end 19.32 -25.42)
    (stroke (width 0.1) (type solid)) (layer "F.Fab") (tstamp d55baa17-bc47-4de1-a0ce-68d56ea75cf8))
  (fp_line (start 21.32 -25.42) (end 20.32 -24.42)
    (stroke (width 0.1) (type solid)) (layer "F.Fab") (tstamp a35815a0-ad7c-4f7e-a841-47e7fb9f22f4))
  (fp_line (start 25.42 -25.42) (end -25.38 -25.42)
    (stroke (width 0.1) (type solid)) (layer "F.Fab") (tstamp 31dd442f-7ddb-4804-94c3-071f48781d8e))
  (fp_line (start 25.42 25.38) (end 25.42 -25.42)
    (stroke (width 0.1) (type solid)) (layer "F.Fab") (tstamp 7cbc1503-b47c-4dd3-aa48-4192c6cc11b0))
  (pad "1" thru_hole rect (at 20.32 -20.32) (size 2.54 2.54) (drill 1.524) (layers "*.Cu" "*.Mask") (tstamp 7684714f-70f3-47f5-bc44-6211d3a063ab))
  (pad "2" thru_hole circle (at 0 -20.32) (size 2.54 2.54) (drill 1.524) (layers "*.Cu" "*.Mask") (tstamp 7d9f7ec1-1f44-4aef-bc4b-6ee14dfe46d2))
  (pad "3" thru_hole circle (at -20.32 -20.32) (size 2.54 2.54) (drill 1.524) (layers "*.Cu" "*.Mask") (tstamp 53fff7a5-c30e-4d8b-8cc8-f79f5a6825b5))
  (pad "4" thru_hole circle (at -20.32 20.32) (size 2.54 2.54) (drill 1.524) (layers "*.Cu" "*.Mask") (tstamp 65c30969-700c-46fb-b72d-9bc997247ea4))
  (pad "5" thru_hole circle (at 20.32 20.32) (size 2.54 2.54) (drill 1.524) (layers "*.Cu" "*.Mask") (tstamp e6d5e333-33d2-4826-9037-332069751e97))
  (pad "6" thru_hole circle (at -23.0124 18.2372) (size 2.032 2.032) (drill 1.27) (layers "*.Cu" "*.Mask") (tstamp 638aae68-39ea-4aa1-91e2-e17861a0b316))
  (pad "7" thru_hole circle (at -23.0124 15.2146) (size 2.032 2.032) (drill 1.27) (layers "*.Cu" "*.Mask") (tstamp e66c2435-cfd8-4032-9e12-bfb4d1c9ba12))
  (pad "8" thru_hole circle (at -23.0124 12.1666) (size 2.032 2.032) (drill 1.27) (layers "*.Cu" "*.Mask") (tstamp d06dc218-816e-4071-8a53-5d1dafc3941b))
  (pad "MH" thru_hole circle (at -18.2626 15.875) (size 4.4 4.4) (drill 2.2) (layers "*.Cu" "*.Mask")
    (clearance 0.5) (zone_connect 2) (tstamp 41992f15-e5f9-4c65-b5e2-6646aa2f4ae3))
  (pad "MH" thru_hole circle (at -17.9832 -15.875) (size 4.4 4.4) (drill 2.2) (layers "*.Cu" "*.Mask")
    (clearance 0.5) (zone_connect 2) (tstamp 621063fc-8890-46c7-9255-cfdd5386ebc7))
  (pad "MH" thru_hole circle (at 1.524 -1.524) (size 4.4 4.4) (drill 2.2) (layers "*.Cu" "*.Mask")
    (clearance 0.5) (zone_connect 2) (tstamp b56079f9-3b3a-4a80-8d7c-73be29a1945d))
  (pad "MH" thru_hole circle (at 18.2626 15.875) (size 4.4 4.4) (drill 2.2) (layers "*.Cu" "*.Mask")
    (clearance 0.5) (zone_connect 2) (tstamp 3d592d70-6000-4c3c-83de-7f50361e2b24))
  (pad "MH" thru_hole circle (at 21.336 -15.24) (size 4.4 4.4) (drill 2.2) (layers "*.Cu" "*.Mask")
    (clearance 0.5) (zone_connect 2) (tstamp 0bf18cad-f396-4a48-b82a-8acaa97d312e))
  (model "${KISYS3DMOD}/Oscillator.3dshapes/Oscillator_OCXO_Morion_MV267.wrl"
    (offset (xyz 0 0 0))
    (scale (xyz 1 1 1))
    (rotate (xyz 0 0 0))
  )
)
