(module USB_C_Receptacle_GCT_4105 (layer F.Cu) (tedit 61AC9B6C)
  (descr https://www.mouser.at/datasheet/2/837/USB4105_spec-2327646.pdf)
  (tags "USB C Type-C Receptacle USB2.0")
  (attr smd)
  (fp_text reference REF** (at 0 -4.58) (layer F.SilkS)
    (effects (font (size 1 1) (thickness 0.15)))
  )
  (fp_text value USB_C_Receptacle_GCT_4105 (at 0 6.24) (layer F.Fab)
    (effects (font (size 1 1) (thickness 0.15)))
  )
  (fp_line (start 4.47 4.84) (end -4.47 4.84) (layer F.SilkS) (width 0.12))
  (fp_line (start 4.47 -0.67) (end 4.47 1.13) (layer F.SilkS) (width 0.12))
  (fp_line (start 4.47 4.84) (end 4.47 3.38) (layer F.SilkS) (width 0.12))
  (fp_line (start -4.47 4.84) (end -4.47 3.38) (layer F.SilkS) (width 0.12))
  (fp_line (start -4.47 -0.67) (end -4.47 1.13) (layer F.SilkS) (width 0.12))
  (fp_line (start -4.47 4.85) (end 4.47 4.85) (layer Dwgs.User) (width 0.1))
  (fp_line (start 5.27 5.34) (end 5.27 -3.59) (layer F.CrtYd) (width 0.05))
  (fp_line (start 5.27 -3.59) (end -5.27 -3.59) (layer F.CrtYd) (width 0.05))
  (fp_line (start -5.27 -3.59) (end -5.27 5.34) (layer F.CrtYd) (width 0.05))
  (fp_line (start -5.27 5.34) (end 5.27 5.34) (layer F.CrtYd) (width 0.05))
  (fp_line (start -4.47 -2.48) (end -4.47 4.84) (layer F.Fab) (width 0.1))
  (fp_line (start 4.47 4.84) (end -4.47 4.84) (layer F.Fab) (width 0.1))
  (fp_line (start 4.47 -2.48) (end 4.47 4.84) (layer F.Fab) (width 0.1))
  (fp_line (start -4.47 -2.48) (end 4.47 -2.48) (layer F.Fab) (width 0.1))
  (fp_text user "PCB Edge" (at 0 3.85) (layer Dwgs.User)
    (effects (font (size 1 1) (thickness 0.15)))
  )
  (fp_text user %R (at 0 1.18) (layer F.Fab)
    (effects (font (size 1 1) (thickness 0.15)))
  )
  (pad A12 smd rect (at 3.2 -2.51) (size 0.6 1.16) (layers F.Cu F.Paste F.Mask))
  (pad A9 smd rect (at 2.4 -2.51) (size 0.6 1.16) (layers F.Cu F.Paste F.Mask))
  (pad B1 smd rect (at 3.2 -2.51) (size 0.6 1.16) (layers F.Cu F.Paste F.Mask))
  (pad B4 smd rect (at 2.4 -2.51) (size 0.6 1.16) (layers F.Cu F.Paste F.Mask))
  (pad B12 smd rect (at -3.2 -2.51) (size 0.6 1.16) (layers F.Cu F.Paste F.Mask))
  (pad A1 smd rect (at -3.2 -2.51) (size 0.6 1.16) (layers F.Cu F.Paste F.Mask))
  (pad B9 smd rect (at -2.4 -2.51) (size 0.6 1.16) (layers F.Cu F.Paste F.Mask))
  (pad A4 smd rect (at -2.4 -2.51) (size 0.6 1.16) (layers F.Cu F.Paste F.Mask))
  (pad "" np_thru_hole circle (at -2.89 -1.43 180) (size 0.6 0.6) (drill 0.6) (layers *.Cu *.Mask))
  (pad "" np_thru_hole circle (at 2.89 -1.43 180) (size 0.6 0.6) (drill 0.6) (layers *.Cu *.Mask))
  (pad B5 smd rect (at 1.75 -2.51 180) (size 0.3 1.16) (layers F.Cu F.Paste F.Mask))
  (pad B6 smd rect (at 0.75 -2.51 180) (size 0.3 1.16) (layers F.Cu F.Paste F.Mask))
  (pad A8 smd rect (at 1.25 -2.51 180) (size 0.3 1.16) (layers F.Cu F.Paste F.Mask))
  (pad A5 smd rect (at -1.25 -2.51 180) (size 0.3 1.16) (layers F.Cu F.Paste F.Mask))
  (pad B8 smd rect (at -1.75 -2.51 180) (size 0.3 1.16) (layers F.Cu F.Paste F.Mask))
  (pad A7 smd rect (at 0.25 -2.51 180) (size 0.3 1.16) (layers F.Cu F.Paste F.Mask))
  (pad A6 smd rect (at -0.25 -2.51 180) (size 0.3 1.16) (layers F.Cu F.Paste F.Mask))
  (pad B7 smd rect (at -0.75 -2.51 180) (size 0.3 1.16) (layers F.Cu F.Paste F.Mask))
  (pad S1 thru_hole oval (at 4.31 2.25 90) (size 1.8 1) (drill oval 1.4 0.6) (layers *.Cu *.Mask))
  (pad S1 thru_hole oval (at -4.32 2.25 90) (size 1.8 1) (drill oval 1.4 0.6) (layers *.Cu *.Mask))
  (pad S1 thru_hole oval (at 4.32 -1.93 90) (size 2.1 1) (drill oval 1.7 0.6) (layers *.Cu *.Mask))
  (pad S1 thru_hole oval (at -4.32 -1.93 90) (size 2.1 1) (drill oval 1.7 0.6) (layers *.Cu *.Mask))
  (model C:/Users/xboxl/Documents/LibreTimeBase/pcb/libraries/USB4105--3DModel-STEP-56544.STEP
    (offset (xyz 0 -2.25 0))
    (scale (xyz 1 1 1))
    (rotate (xyz -90 0 0))
  )
)
