(kicad_sch
	(version 20231120)
	(generator "eeschema")
	(generator_version "8.0")
	(uuid "f7ab4b9e-e91e-4b9a-b33a-4d142488718e")
	(paper "A4")
	(lib_symbols
		(symbol "Connector:Conn_Coaxial"
			(pin_names
				(offset 1.016) hide)
			(exclude_from_sim no)
			(in_bom yes)
			(on_board yes)
			(property "Reference" "J"
				(at 0.254 3.048 0)
				(effects
					(font
						(size 1.27 1.27)
					)
				)
			)
			(property "Value" "Conn_Coaxial"
				(at 2.921 0 90)
				(effects
					(font
						(size 1.27 1.27)
					)
				)
			)
			(property "Footprint" ""
				(at 0 0 0)
				(effects
					(font
						(size 1.27 1.27)
					)
					(hide yes)
				)
			)
			(property "Datasheet" " ~"
				(at 0 0 0)
				(effects
					(font
						(size 1.27 1.27)
					)
					(hide yes)
				)
			)
			(property "Description" "coaxial connector (BNC, SMA, SMB, SMC, Cinch/RCA, LEMO, ...)"
				(at 0 0 0)
				(effects
					(font
						(size 1.27 1.27)
					)
					(hide yes)
				)
			)
			(property "ki_keywords" "BNC SMA SMB SMC LEMO coaxial connector CINCH RCA"
				(at 0 0 0)
				(effects
					(font
						(size 1.27 1.27)
					)
					(hide yes)
				)
			)
			(property "ki_fp_filters" "*BNC* *SMA* *SMB* *SMC* *Cinch* *LEMO*"
				(at 0 0 0)
				(effects
					(font
						(size 1.27 1.27)
					)
					(hide yes)
				)
			)
			(symbol "Conn_Coaxial_0_1"
				(arc
					(start -1.778 -0.508)
					(mid 0.2311 -1.8066)
					(end 1.778 0)
					(stroke
						(width 0.254)
						(type default)
					)
					(fill
						(type none)
					)
				)
				(polyline
					(pts
						(xy -2.54 0) (xy -0.508 0)
					)
					(stroke
						(width 0)
						(type default)
					)
					(fill
						(type none)
					)
				)
				(polyline
					(pts
						(xy 0 -2.54) (xy 0 -1.778)
					)
					(stroke
						(width 0)
						(type default)
					)
					(fill
						(type none)
					)
				)
				(circle
					(center 0 0)
					(radius 0.508)
					(stroke
						(width 0.2032)
						(type default)
					)
					(fill
						(type none)
					)
				)
				(arc
					(start 1.778 0)
					(mid 0.2099 1.8101)
					(end -1.778 0.508)
					(stroke
						(width 0.254)
						(type default)
					)
					(fill
						(type none)
					)
				)
			)
			(symbol "Conn_Coaxial_1_1"
				(pin passive line
					(at -5.08 0 0)
					(length 2.54)
					(name "In"
						(effects
							(font
								(size 1.27 1.27)
							)
						)
					)
					(number "1"
						(effects
							(font
								(size 1.27 1.27)
							)
						)
					)
				)
				(pin passive line
					(at 0 -5.08 90)
					(length 2.54)
					(name "Ext"
						(effects
							(font
								(size 1.27 1.27)
							)
						)
					)
					(number "2"
						(effects
							(font
								(size 1.27 1.27)
							)
						)
					)
				)
			)
		)
		(symbol "Connector_Generic:Conn_02x20_Odd_Even"
			(pin_names
				(offset 1.016) hide)
			(exclude_from_sim no)
			(in_bom yes)
			(on_board yes)
			(property "Reference" "J"
				(at 1.27 25.4 0)
				(effects
					(font
						(size 1.27 1.27)
					)
				)
			)
			(property "Value" "Conn_02x20_Odd_Even"
				(at 1.27 -27.94 0)
				(effects
					(font
						(size 1.27 1.27)
					)
				)
			)
			(property "Footprint" ""
				(at 0 0 0)
				(effects
					(font
						(size 1.27 1.27)
					)
					(hide yes)
				)
			)
			(property "Datasheet" "~"
				(at 0 0 0)
				(effects
					(font
						(size 1.27 1.27)
					)
					(hide yes)
				)
			)
			(property "Description" "Generic connector, double row, 02x20, odd/even pin numbering scheme (row 1 odd numbers, row 2 even numbers), script generated (kicad-library-utils/schlib/autogen/connector/)"
				(at 0 0 0)
				(effects
					(font
						(size 1.27 1.27)
					)
					(hide yes)
				)
			)
			(property "ki_keywords" "connector"
				(at 0 0 0)
				(effects
					(font
						(size 1.27 1.27)
					)
					(hide yes)
				)
			)
			(property "ki_fp_filters" "Connector*:*_2x??_*"
				(at 0 0 0)
				(effects
					(font
						(size 1.27 1.27)
					)
					(hide yes)
				)
			)
			(symbol "Conn_02x20_Odd_Even_1_1"
				(rectangle
					(start -1.27 -25.273)
					(end 0 -25.527)
					(stroke
						(width 0.1524)
						(type default)
					)
					(fill
						(type none)
					)
				)
				(rectangle
					(start -1.27 -22.733)
					(end 0 -22.987)
					(stroke
						(width 0.1524)
						(type default)
					)
					(fill
						(type none)
					)
				)
				(rectangle
					(start -1.27 -20.193)
					(end 0 -20.447)
					(stroke
						(width 0.1524)
						(type default)
					)
					(fill
						(type none)
					)
				)
				(rectangle
					(start -1.27 -17.653)
					(end 0 -17.907)
					(stroke
						(width 0.1524)
						(type default)
					)
					(fill
						(type none)
					)
				)
				(rectangle
					(start -1.27 -15.113)
					(end 0 -15.367)
					(stroke
						(width 0.1524)
						(type default)
					)
					(fill
						(type none)
					)
				)
				(rectangle
					(start -1.27 -12.573)
					(end 0 -12.827)
					(stroke
						(width 0.1524)
						(type default)
					)
					(fill
						(type none)
					)
				)
				(rectangle
					(start -1.27 -10.033)
					(end 0 -10.287)
					(stroke
						(width 0.1524)
						(type default)
					)
					(fill
						(type none)
					)
				)
				(rectangle
					(start -1.27 -7.493)
					(end 0 -7.747)
					(stroke
						(width 0.1524)
						(type default)
					)
					(fill
						(type none)
					)
				)
				(rectangle
					(start -1.27 -4.953)
					(end 0 -5.207)
					(stroke
						(width 0.1524)
						(type default)
					)
					(fill
						(type none)
					)
				)
				(rectangle
					(start -1.27 -2.413)
					(end 0 -2.667)
					(stroke
						(width 0.1524)
						(type default)
					)
					(fill
						(type none)
					)
				)
				(rectangle
					(start -1.27 0.127)
					(end 0 -0.127)
					(stroke
						(width 0.1524)
						(type default)
					)
					(fill
						(type none)
					)
				)
				(rectangle
					(start -1.27 2.667)
					(end 0 2.413)
					(stroke
						(width 0.1524)
						(type default)
					)
					(fill
						(type none)
					)
				)
				(rectangle
					(start -1.27 5.207)
					(end 0 4.953)
					(stroke
						(width 0.1524)
						(type default)
					)
					(fill
						(type none)
					)
				)
				(rectangle
					(start -1.27 7.747)
					(end 0 7.493)
					(stroke
						(width 0.1524)
						(type default)
					)
					(fill
						(type none)
					)
				)
				(rectangle
					(start -1.27 10.287)
					(end 0 10.033)
					(stroke
						(width 0.1524)
						(type default)
					)
					(fill
						(type none)
					)
				)
				(rectangle
					(start -1.27 12.827)
					(end 0 12.573)
					(stroke
						(width 0.1524)
						(type default)
					)
					(fill
						(type none)
					)
				)
				(rectangle
					(start -1.27 15.367)
					(end 0 15.113)
					(stroke
						(width 0.1524)
						(type default)
					)
					(fill
						(type none)
					)
				)
				(rectangle
					(start -1.27 17.907)
					(end 0 17.653)
					(stroke
						(width 0.1524)
						(type default)
					)
					(fill
						(type none)
					)
				)
				(rectangle
					(start -1.27 20.447)
					(end 0 20.193)
					(stroke
						(width 0.1524)
						(type default)
					)
					(fill
						(type none)
					)
				)
				(rectangle
					(start -1.27 22.987)
					(end 0 22.733)
					(stroke
						(width 0.1524)
						(type default)
					)
					(fill
						(type none)
					)
				)
				(rectangle
					(start -1.27 24.13)
					(end 3.81 -26.67)
					(stroke
						(width 0.254)
						(type default)
					)
					(fill
						(type background)
					)
				)
				(rectangle
					(start 3.81 -25.273)
					(end 2.54 -25.527)
					(stroke
						(width 0.1524)
						(type default)
					)
					(fill
						(type none)
					)
				)
				(rectangle
					(start 3.81 -22.733)
					(end 2.54 -22.987)
					(stroke
						(width 0.1524)
						(type default)
					)
					(fill
						(type none)
					)
				)
				(rectangle
					(start 3.81 -20.193)
					(end 2.54 -20.447)
					(stroke
						(width 0.1524)
						(type default)
					)
					(fill
						(type none)
					)
				)
				(rectangle
					(start 3.81 -17.653)
					(end 2.54 -17.907)
					(stroke
						(width 0.1524)
						(type default)
					)
					(fill
						(type none)
					)
				)
				(rectangle
					(start 3.81 -15.113)
					(end 2.54 -15.367)
					(stroke
						(width 0.1524)
						(type default)
					)
					(fill
						(type none)
					)
				)
				(rectangle
					(start 3.81 -12.573)
					(end 2.54 -12.827)
					(stroke
						(width 0.1524)
						(type default)
					)
					(fill
						(type none)
					)
				)
				(rectangle
					(start 3.81 -10.033)
					(end 2.54 -10.287)
					(stroke
						(width 0.1524)
						(type default)
					)
					(fill
						(type none)
					)
				)
				(rectangle
					(start 3.81 -7.493)
					(end 2.54 -7.747)
					(stroke
						(width 0.1524)
						(type default)
					)
					(fill
						(type none)
					)
				)
				(rectangle
					(start 3.81 -4.953)
					(end 2.54 -5.207)
					(stroke
						(width 0.1524)
						(type default)
					)
					(fill
						(type none)
					)
				)
				(rectangle
					(start 3.81 -2.413)
					(end 2.54 -2.667)
					(stroke
						(width 0.1524)
						(type default)
					)
					(fill
						(type none)
					)
				)
				(rectangle
					(start 3.81 0.127)
					(end 2.54 -0.127)
					(stroke
						(width 0.1524)
						(type default)
					)
					(fill
						(type none)
					)
				)
				(rectangle
					(start 3.81 2.667)
					(end 2.54 2.413)
					(stroke
						(width 0.1524)
						(type default)
					)
					(fill
						(type none)
					)
				)
				(rectangle
					(start 3.81 5.207)
					(end 2.54 4.953)
					(stroke
						(width 0.1524)
						(type default)
					)
					(fill
						(type none)
					)
				)
				(rectangle
					(start 3.81 7.747)
					(end 2.54 7.493)
					(stroke
						(width 0.1524)
						(type default)
					)
					(fill
						(type none)
					)
				)
				(rectangle
					(start 3.81 10.287)
					(end 2.54 10.033)
					(stroke
						(width 0.1524)
						(type default)
					)
					(fill
						(type none)
					)
				)
				(rectangle
					(start 3.81 12.827)
					(end 2.54 12.573)
					(stroke
						(width 0.1524)
						(type default)
					)
					(fill
						(type none)
					)
				)
				(rectangle
					(start 3.81 15.367)
					(end 2.54 15.113)
					(stroke
						(width 0.1524)
						(type default)
					)
					(fill
						(type none)
					)
				)
				(rectangle
					(start 3.81 17.907)
					(end 2.54 17.653)
					(stroke
						(width 0.1524)
						(type default)
					)
					(fill
						(type none)
					)
				)
				(rectangle
					(start 3.81 20.447)
					(end 2.54 20.193)
					(stroke
						(width 0.1524)
						(type default)
					)
					(fill
						(type none)
					)
				)
				(rectangle
					(start 3.81 22.987)
					(end 2.54 22.733)
					(stroke
						(width 0.1524)
						(type default)
					)
					(fill
						(type none)
					)
				)
				(pin passive line
					(at -5.08 22.86 0)
					(length 3.81)
					(name "Pin_1"
						(effects
							(font
								(size 1.27 1.27)
							)
						)
					)
					(number "1"
						(effects
							(font
								(size 1.27 1.27)
							)
						)
					)
				)
				(pin passive line
					(at 7.62 12.7 180)
					(length 3.81)
					(name "Pin_10"
						(effects
							(font
								(size 1.27 1.27)
							)
						)
					)
					(number "10"
						(effects
							(font
								(size 1.27 1.27)
							)
						)
					)
				)
				(pin passive line
					(at -5.08 10.16 0)
					(length 3.81)
					(name "Pin_11"
						(effects
							(font
								(size 1.27 1.27)
							)
						)
					)
					(number "11"
						(effects
							(font
								(size 1.27 1.27)
							)
						)
					)
				)
				(pin passive line
					(at 7.62 10.16 180)
					(length 3.81)
					(name "Pin_12"
						(effects
							(font
								(size 1.27 1.27)
							)
						)
					)
					(number "12"
						(effects
							(font
								(size 1.27 1.27)
							)
						)
					)
				)
				(pin passive line
					(at -5.08 7.62 0)
					(length 3.81)
					(name "Pin_13"
						(effects
							(font
								(size 1.27 1.27)
							)
						)
					)
					(number "13"
						(effects
							(font
								(size 1.27 1.27)
							)
						)
					)
				)
				(pin passive line
					(at 7.62 7.62 180)
					(length 3.81)
					(name "Pin_14"
						(effects
							(font
								(size 1.27 1.27)
							)
						)
					)
					(number "14"
						(effects
							(font
								(size 1.27 1.27)
							)
						)
					)
				)
				(pin passive line
					(at -5.08 5.08 0)
					(length 3.81)
					(name "Pin_15"
						(effects
							(font
								(size 1.27 1.27)
							)
						)
					)
					(number "15"
						(effects
							(font
								(size 1.27 1.27)
							)
						)
					)
				)
				(pin passive line
					(at 7.62 5.08 180)
					(length 3.81)
					(name "Pin_16"
						(effects
							(font
								(size 1.27 1.27)
							)
						)
					)
					(number "16"
						(effects
							(font
								(size 1.27 1.27)
							)
						)
					)
				)
				(pin passive line
					(at -5.08 2.54 0)
					(length 3.81)
					(name "Pin_17"
						(effects
							(font
								(size 1.27 1.27)
							)
						)
					)
					(number "17"
						(effects
							(font
								(size 1.27 1.27)
							)
						)
					)
				)
				(pin passive line
					(at 7.62 2.54 180)
					(length 3.81)
					(name "Pin_18"
						(effects
							(font
								(size 1.27 1.27)
							)
						)
					)
					(number "18"
						(effects
							(font
								(size 1.27 1.27)
							)
						)
					)
				)
				(pin passive line
					(at -5.08 0 0)
					(length 3.81)
					(name "Pin_19"
						(effects
							(font
								(size 1.27 1.27)
							)
						)
					)
					(number "19"
						(effects
							(font
								(size 1.27 1.27)
							)
						)
					)
				)
				(pin passive line
					(at 7.62 22.86 180)
					(length 3.81)
					(name "Pin_2"
						(effects
							(font
								(size 1.27 1.27)
							)
						)
					)
					(number "2"
						(effects
							(font
								(size 1.27 1.27)
							)
						)
					)
				)
				(pin passive line
					(at 7.62 0 180)
					(length 3.81)
					(name "Pin_20"
						(effects
							(font
								(size 1.27 1.27)
							)
						)
					)
					(number "20"
						(effects
							(font
								(size 1.27 1.27)
							)
						)
					)
				)
				(pin passive line
					(at -5.08 -2.54 0)
					(length 3.81)
					(name "Pin_21"
						(effects
							(font
								(size 1.27 1.27)
							)
						)
					)
					(number "21"
						(effects
							(font
								(size 1.27 1.27)
							)
						)
					)
				)
				(pin passive line
					(at 7.62 -2.54 180)
					(length 3.81)
					(name "Pin_22"
						(effects
							(font
								(size 1.27 1.27)
							)
						)
					)
					(number "22"
						(effects
							(font
								(size 1.27 1.27)
							)
						)
					)
				)
				(pin passive line
					(at -5.08 -5.08 0)
					(length 3.81)
					(name "Pin_23"
						(effects
							(font
								(size 1.27 1.27)
							)
						)
					)
					(number "23"
						(effects
							(font
								(size 1.27 1.27)
							)
						)
					)
				)
				(pin passive line
					(at 7.62 -5.08 180)
					(length 3.81)
					(name "Pin_24"
						(effects
							(font
								(size 1.27 1.27)
							)
						)
					)
					(number "24"
						(effects
							(font
								(size 1.27 1.27)
							)
						)
					)
				)
				(pin passive line
					(at -5.08 -7.62 0)
					(length 3.81)
					(name "Pin_25"
						(effects
							(font
								(size 1.27 1.27)
							)
						)
					)
					(number "25"
						(effects
							(font
								(size 1.27 1.27)
							)
						)
					)
				)
				(pin passive line
					(at 7.62 -7.62 180)
					(length 3.81)
					(name "Pin_26"
						(effects
							(font
								(size 1.27 1.27)
							)
						)
					)
					(number "26"
						(effects
							(font
								(size 1.27 1.27)
							)
						)
					)
				)
				(pin passive line
					(at -5.08 -10.16 0)
					(length 3.81)
					(name "Pin_27"
						(effects
							(font
								(size 1.27 1.27)
							)
						)
					)
					(number "27"
						(effects
							(font
								(size 1.27 1.27)
							)
						)
					)
				)
				(pin passive line
					(at 7.62 -10.16 180)
					(length 3.81)
					(name "Pin_28"
						(effects
							(font
								(size 1.27 1.27)
							)
						)
					)
					(number "28"
						(effects
							(font
								(size 1.27 1.27)
							)
						)
					)
				)
				(pin passive line
					(at -5.08 -12.7 0)
					(length 3.81)
					(name "Pin_29"
						(effects
							(font
								(size 1.27 1.27)
							)
						)
					)
					(number "29"
						(effects
							(font
								(size 1.27 1.27)
							)
						)
					)
				)
				(pin passive line
					(at -5.08 20.32 0)
					(length 3.81)
					(name "Pin_3"
						(effects
							(font
								(size 1.27 1.27)
							)
						)
					)
					(number "3"
						(effects
							(font
								(size 1.27 1.27)
							)
						)
					)
				)
				(pin passive line
					(at 7.62 -12.7 180)
					(length 3.81)
					(name "Pin_30"
						(effects
							(font
								(size 1.27 1.27)
							)
						)
					)
					(number "30"
						(effects
							(font
								(size 1.27 1.27)
							)
						)
					)
				)
				(pin passive line
					(at -5.08 -15.24 0)
					(length 3.81)
					(name "Pin_31"
						(effects
							(font
								(size 1.27 1.27)
							)
						)
					)
					(number "31"
						(effects
							(font
								(size 1.27 1.27)
							)
						)
					)
				)
				(pin passive line
					(at 7.62 -15.24 180)
					(length 3.81)
					(name "Pin_32"
						(effects
							(font
								(size 1.27 1.27)
							)
						)
					)
					(number "32"
						(effects
							(font
								(size 1.27 1.27)
							)
						)
					)
				)
				(pin passive line
					(at -5.08 -17.78 0)
					(length 3.81)
					(name "Pin_33"
						(effects
							(font
								(size 1.27 1.27)
							)
						)
					)
					(number "33"
						(effects
							(font
								(size 1.27 1.27)
							)
						)
					)
				)
				(pin passive line
					(at 7.62 -17.78 180)
					(length 3.81)
					(name "Pin_34"
						(effects
							(font
								(size 1.27 1.27)
							)
						)
					)
					(number "34"
						(effects
							(font
								(size 1.27 1.27)
							)
						)
					)
				)
				(pin passive line
					(at -5.08 -20.32 0)
					(length 3.81)
					(name "Pin_35"
						(effects
							(font
								(size 1.27 1.27)
							)
						)
					)
					(number "35"
						(effects
							(font
								(size 1.27 1.27)
							)
						)
					)
				)
				(pin passive line
					(at 7.62 -20.32 180)
					(length 3.81)
					(name "Pin_36"
						(effects
							(font
								(size 1.27 1.27)
							)
						)
					)
					(number "36"
						(effects
							(font
								(size 1.27 1.27)
							)
						)
					)
				)
				(pin passive line
					(at -5.08 -22.86 0)
					(length 3.81)
					(name "Pin_37"
						(effects
							(font
								(size 1.27 1.27)
							)
						)
					)
					(number "37"
						(effects
							(font
								(size 1.27 1.27)
							)
						)
					)
				)
				(pin passive line
					(at 7.62 -22.86 180)
					(length 3.81)
					(name "Pin_38"
						(effects
							(font
								(size 1.27 1.27)
							)
						)
					)
					(number "38"
						(effects
							(font
								(size 1.27 1.27)
							)
						)
					)
				)
				(pin passive line
					(at -5.08 -25.4 0)
					(length 3.81)
					(name "Pin_39"
						(effects
							(font
								(size 1.27 1.27)
							)
						)
					)
					(number "39"
						(effects
							(font
								(size 1.27 1.27)
							)
						)
					)
				)
				(pin passive line
					(at 7.62 20.32 180)
					(length 3.81)
					(name "Pin_4"
						(effects
							(font
								(size 1.27 1.27)
							)
						)
					)
					(number "4"
						(effects
							(font
								(size 1.27 1.27)
							)
						)
					)
				)
				(pin passive line
					(at 7.62 -25.4 180)
					(length 3.81)
					(name "Pin_40"
						(effects
							(font
								(size 1.27 1.27)
							)
						)
					)
					(number "40"
						(effects
							(font
								(size 1.27 1.27)
							)
						)
					)
				)
				(pin passive line
					(at -5.08 17.78 0)
					(length 3.81)
					(name "Pin_5"
						(effects
							(font
								(size 1.27 1.27)
							)
						)
					)
					(number "5"
						(effects
							(font
								(size 1.27 1.27)
							)
						)
					)
				)
				(pin passive line
					(at 7.62 17.78 180)
					(length 3.81)
					(name "Pin_6"
						(effects
							(font
								(size 1.27 1.27)
							)
						)
					)
					(number "6"
						(effects
							(font
								(size 1.27 1.27)
							)
						)
					)
				)
				(pin passive line
					(at -5.08 15.24 0)
					(length 3.81)
					(name "Pin_7"
						(effects
							(font
								(size 1.27 1.27)
							)
						)
					)
					(number "7"
						(effects
							(font
								(size 1.27 1.27)
							)
						)
					)
				)
				(pin passive line
					(at 7.62 15.24 180)
					(length 3.81)
					(name "Pin_8"
						(effects
							(font
								(size 1.27 1.27)
							)
						)
					)
					(number "8"
						(effects
							(font
								(size 1.27 1.27)
							)
						)
					)
				)
				(pin passive line
					(at -5.08 12.7 0)
					(length 3.81)
					(name "Pin_9"
						(effects
							(font
								(size 1.27 1.27)
							)
						)
					)
					(number "9"
						(effects
							(font
								(size 1.27 1.27)
							)
						)
					)
				)
			)
		)
		(symbol "Device:R"
			(pin_numbers hide)
			(pin_names
				(offset 0)
			)
			(exclude_from_sim no)
			(in_bom yes)
			(on_board yes)
			(property "Reference" "R"
				(at 2.032 0 90)
				(effects
					(font
						(size 1.27 1.27)
					)
				)
			)
			(property "Value" "R"
				(at 0 0 90)
				(effects
					(font
						(size 1.27 1.27)
					)
				)
			)
			(property "Footprint" ""
				(at -1.778 0 90)
				(effects
					(font
						(size 1.27 1.27)
					)
					(hide yes)
				)
			)
			(property "Datasheet" "~"
				(at 0 0 0)
				(effects
					(font
						(size 1.27 1.27)
					)
					(hide yes)
				)
			)
			(property "Description" "Resistor"
				(at 0 0 0)
				(effects
					(font
						(size 1.27 1.27)
					)
					(hide yes)
				)
			)
			(property "ki_keywords" "R res resistor"
				(at 0 0 0)
				(effects
					(font
						(size 1.27 1.27)
					)
					(hide yes)
				)
			)
			(property "ki_fp_filters" "R_*"
				(at 0 0 0)
				(effects
					(font
						(size 1.27 1.27)
					)
					(hide yes)
				)
			)
			(symbol "R_0_1"
				(rectangle
					(start -1.016 -2.54)
					(end 1.016 2.54)
					(stroke
						(width 0.254)
						(type default)
					)
					(fill
						(type none)
					)
				)
			)
			(symbol "R_1_1"
				(pin passive line
					(at 0 3.81 270)
					(length 1.27)
					(name "~"
						(effects
							(font
								(size 1.27 1.27)
							)
						)
					)
					(number "1"
						(effects
							(font
								(size 1.27 1.27)
							)
						)
					)
				)
				(pin passive line
					(at 0 -3.81 90)
					(length 1.27)
					(name "~"
						(effects
							(font
								(size 1.27 1.27)
							)
						)
					)
					(number "2"
						(effects
							(font
								(size 1.27 1.27)
							)
						)
					)
				)
			)
		)
		(symbol "RF:PAT1220-C-6DB"
			(exclude_from_sim no)
			(in_bom yes)
			(on_board yes)
			(property "Reference" "U"
				(at -6.35 6.35 0)
				(effects
					(font
						(size 1.27 1.27)
					)
				)
			)
			(property "Value" "PAT1220-C-6DB"
				(at 5.08 6.35 0)
				(effects
					(font
						(size 1.27 1.27)
					)
				)
			)
			(property "Footprint" "RF_Converter:RF_Attenuator_Susumu_PAT1220"
				(at 0 0 0)
				(effects
					(font
						(size 1.27 1.27)
					)
					(hide yes)
				)
			)
			(property "Datasheet" "https://www.susumu.co.jp/common/pdf/n_catalog_partition16_en.pdf"
				(at -6.35 6.35 0)
				(effects
					(font
						(size 1.27 1.27)
					)
					(hide yes)
				)
			)
			(property "Description" "10GHz RF Attenuator, 50ohm Matched Impedance, 6dB Attenuation, PAT1220"
				(at 0 0 0)
				(effects
					(font
						(size 1.27 1.27)
					)
					(hide yes)
				)
			)
			(property "ki_keywords" "RF attenuator"
				(at 0 0 0)
				(effects
					(font
						(size 1.27 1.27)
					)
					(hide yes)
				)
			)
			(property "ki_fp_filters" "RF*Attenuator*Susumu*PAT1220*"
				(at 0 0 0)
				(effects
					(font
						(size 1.27 1.27)
					)
					(hide yes)
				)
			)
			(symbol "PAT1220-C-6DB_0_1"
				(rectangle
					(start -7.62 5.08)
					(end 7.62 -5.08)
					(stroke
						(width 0.254)
						(type default)
					)
					(fill
						(type background)
					)
				)
				(polyline
					(pts
						(xy -3.937 -3.048) (xy 3.937 -3.048)
					)
					(stroke
						(width 0)
						(type default)
					)
					(fill
						(type none)
					)
				)
				(polyline
					(pts
						(xy -3.937 1.27) (xy -3.937 2.54)
					)
					(stroke
						(width 0)
						(type default)
					)
					(fill
						(type none)
					)
				)
				(polyline
					(pts
						(xy -1.524 2.54) (xy -7.62 2.54)
					)
					(stroke
						(width 0)
						(type default)
					)
					(fill
						(type none)
					)
				)
				(polyline
					(pts
						(xy 0 -5.08) (xy 0 -3.048)
					)
					(stroke
						(width 0)
						(type default)
					)
					(fill
						(type none)
					)
				)
				(polyline
					(pts
						(xy 3.937 1.27) (xy 3.937 2.54)
					)
					(stroke
						(width 0)
						(type default)
					)
					(fill
						(type none)
					)
				)
				(pin passive line
					(at 0 -7.62 90)
					(length 2.54)
					(name "~"
						(effects
							(font
								(size 1.27 1.27)
							)
						)
					)
					(number "3"
						(effects
							(font
								(size 1.27 1.27)
							)
						)
					)
				)
			)
			(symbol "PAT1220-C-6DB_1_1"
				(rectangle
					(start -4.572 -1.778)
					(end -3.302 1.27)
					(stroke
						(width 0)
						(type default)
					)
					(fill
						(type none)
					)
				)
				(rectangle
					(start -1.524 3.175)
					(end 1.524 1.905)
					(stroke
						(width 0)
						(type default)
					)
					(fill
						(type none)
					)
				)
				(polyline
					(pts
						(xy -3.937 -3.048) (xy -3.937 -1.778)
					)
					(stroke
						(width 0)
						(type default)
					)
					(fill
						(type none)
					)
				)
				(polyline
					(pts
						(xy 3.937 -3.048) (xy 3.937 -1.778)
					)
					(stroke
						(width 0)
						(type default)
					)
					(fill
						(type none)
					)
				)
				(polyline
					(pts
						(xy 7.62 2.54) (xy 1.524 2.54)
					)
					(stroke
						(width 0)
						(type default)
					)
					(fill
						(type none)
					)
				)
				(rectangle
					(start 3.302 -1.778)
					(end 4.572 1.27)
					(stroke
						(width 0)
						(type default)
					)
					(fill
						(type none)
					)
				)
				(pin passive line
					(at -10.16 2.54 0)
					(length 2.54)
					(name "~"
						(effects
							(font
								(size 1.27 1.27)
							)
						)
					)
					(number "1"
						(effects
							(font
								(size 1.27 1.27)
							)
						)
					)
				)
				(pin passive line
					(at 10.16 2.54 180)
					(length 2.54)
					(name "~"
						(effects
							(font
								(size 1.27 1.27)
							)
						)
					)
					(number "2"
						(effects
							(font
								(size 1.27 1.27)
							)
						)
					)
				)
			)
		)
		(symbol "power:Earth"
			(power)
			(pin_names
				(offset 0)
			)
			(exclude_from_sim no)
			(in_bom yes)
			(on_board yes)
			(property "Reference" "#PWR"
				(at 0 -6.35 0)
				(effects
					(font
						(size 1.27 1.27)
					)
					(hide yes)
				)
			)
			(property "Value" "Earth"
				(at 0 -3.81 0)
				(effects
					(font
						(size 1.27 1.27)
					)
					(hide yes)
				)
			)
			(property "Footprint" ""
				(at 0 0 0)
				(effects
					(font
						(size 1.27 1.27)
					)
					(hide yes)
				)
			)
			(property "Datasheet" "~"
				(at 0 0 0)
				(effects
					(font
						(size 1.27 1.27)
					)
					(hide yes)
				)
			)
			(property "Description" "Power symbol creates a global label with name \"Earth\""
				(at 0 0 0)
				(effects
					(font
						(size 1.27 1.27)
					)
					(hide yes)
				)
			)
			(property "ki_keywords" "global ground gnd"
				(at 0 0 0)
				(effects
					(font
						(size 1.27 1.27)
					)
					(hide yes)
				)
			)
			(symbol "Earth_0_1"
				(polyline
					(pts
						(xy -0.635 -1.905) (xy 0.635 -1.905)
					)
					(stroke
						(width 0)
						(type default)
					)
					(fill
						(type none)
					)
				)
				(polyline
					(pts
						(xy -0.127 -2.54) (xy 0.127 -2.54)
					)
					(stroke
						(width 0)
						(type default)
					)
					(fill
						(type none)
					)
				)
				(polyline
					(pts
						(xy 0 -1.27) (xy 0 0)
					)
					(stroke
						(width 0)
						(type default)
					)
					(fill
						(type none)
					)
				)
				(polyline
					(pts
						(xy 1.27 -1.27) (xy -1.27 -1.27)
					)
					(stroke
						(width 0)
						(type default)
					)
					(fill
						(type none)
					)
				)
			)
			(symbol "Earth_1_1"
				(pin power_in line
					(at 0 0 270)
					(length 0) hide
					(name "Earth"
						(effects
							(font
								(size 1.27 1.27)
							)
						)
					)
					(number "1"
						(effects
							(font
								(size 1.27 1.27)
							)
						)
					)
				)
			)
		)
		(symbol "power:GND"
			(power)
			(pin_names
				(offset 0)
			)
			(exclude_from_sim no)
			(in_bom yes)
			(on_board yes)
			(property "Reference" "#PWR"
				(at 0 -6.35 0)
				(effects
					(font
						(size 1.27 1.27)
					)
					(hide yes)
				)
			)
			(property "Value" "GND"
				(at 0 -3.81 0)
				(effects
					(font
						(size 1.27 1.27)
					)
				)
			)
			(property "Footprint" ""
				(at 0 0 0)
				(effects
					(font
						(size 1.27 1.27)
					)
					(hide yes)
				)
			)
			(property "Datasheet" ""
				(at 0 0 0)
				(effects
					(font
						(size 1.27 1.27)
					)
					(hide yes)
				)
			)
			(property "Description" "Power symbol creates a global label with name \"GND\" , ground"
				(at 0 0 0)
				(effects
					(font
						(size 1.27 1.27)
					)
					(hide yes)
				)
			)
			(property "ki_keywords" "global power"
				(at 0 0 0)
				(effects
					(font
						(size 1.27 1.27)
					)
					(hide yes)
				)
			)
			(symbol "GND_0_1"
				(polyline
					(pts
						(xy 0 0) (xy 0 -1.27) (xy 1.27 -1.27) (xy 0 -2.54) (xy -1.27 -1.27) (xy 0 -1.27)
					)
					(stroke
						(width 0)
						(type default)
					)
					(fill
						(type none)
					)
				)
			)
			(symbol "GND_1_1"
				(pin power_in line
					(at 0 0 270)
					(length 0) hide
					(name "GND"
						(effects
							(font
								(size 1.27 1.27)
							)
						)
					)
					(number "1"
						(effects
							(font
								(size 1.27 1.27)
							)
						)
					)
				)
			)
		)
		(symbol "rfs_adapters-rescue:DB9_Female_MountingHoles-Connector"
			(pin_names
				(offset 1.016) hide)
			(exclude_from_sim no)
			(in_bom yes)
			(on_board yes)
			(property "Reference" "J"
				(at 0 16.51 0)
				(effects
					(font
						(size 1.27 1.27)
					)
				)
			)
			(property "Value" "Connector_DB9_Female_MountingHoles"
				(at 0 14.605 0)
				(effects
					(font
						(size 1.27 1.27)
					)
				)
			)
			(property "Footprint" ""
				(at 0 0 0)
				(effects
					(font
						(size 1.27 1.27)
					)
					(hide yes)
				)
			)
			(property "Datasheet" ""
				(at 0 0 0)
				(effects
					(font
						(size 1.27 1.27)
					)
					(hide yes)
				)
			)
			(property "Description" ""
				(at 0 0 0)
				(effects
					(font
						(size 1.27 1.27)
					)
					(hide yes)
				)
			)
			(property "ki_fp_filters" "DSUB*Female*"
				(at 0 0 0)
				(effects
					(font
						(size 1.27 1.27)
					)
					(hide yes)
				)
			)
			(symbol "DB9_Female_MountingHoles-Connector_0_1"
				(circle
					(center -1.778 -10.16)
					(radius 0.762)
					(stroke
						(width 0)
						(type solid)
					)
					(fill
						(type none)
					)
				)
				(circle
					(center -1.778 -5.08)
					(radius 0.762)
					(stroke
						(width 0)
						(type solid)
					)
					(fill
						(type none)
					)
				)
				(circle
					(center -1.778 0)
					(radius 0.762)
					(stroke
						(width 0)
						(type solid)
					)
					(fill
						(type none)
					)
				)
				(circle
					(center -1.778 5.08)
					(radius 0.762)
					(stroke
						(width 0)
						(type solid)
					)
					(fill
						(type none)
					)
				)
				(circle
					(center -1.778 10.16)
					(radius 0.762)
					(stroke
						(width 0)
						(type solid)
					)
					(fill
						(type none)
					)
				)
				(polyline
					(pts
						(xy -3.81 -10.16) (xy -2.54 -10.16)
					)
					(stroke
						(width 0)
						(type solid)
					)
					(fill
						(type none)
					)
				)
				(polyline
					(pts
						(xy -3.81 -7.62) (xy 0.508 -7.62)
					)
					(stroke
						(width 0)
						(type solid)
					)
					(fill
						(type none)
					)
				)
				(polyline
					(pts
						(xy -3.81 -5.08) (xy -2.54 -5.08)
					)
					(stroke
						(width 0)
						(type solid)
					)
					(fill
						(type none)
					)
				)
				(polyline
					(pts
						(xy -3.81 -2.54) (xy 0.508 -2.54)
					)
					(stroke
						(width 0)
						(type solid)
					)
					(fill
						(type none)
					)
				)
				(polyline
					(pts
						(xy -3.81 0) (xy -2.54 0)
					)
					(stroke
						(width 0)
						(type solid)
					)
					(fill
						(type none)
					)
				)
				(polyline
					(pts
						(xy -3.81 2.54) (xy 0.508 2.54)
					)
					(stroke
						(width 0)
						(type solid)
					)
					(fill
						(type none)
					)
				)
				(polyline
					(pts
						(xy -3.81 5.08) (xy -2.54 5.08)
					)
					(stroke
						(width 0)
						(type solid)
					)
					(fill
						(type none)
					)
				)
				(polyline
					(pts
						(xy -3.81 7.62) (xy 0.508 7.62)
					)
					(stroke
						(width 0)
						(type solid)
					)
					(fill
						(type none)
					)
				)
				(polyline
					(pts
						(xy -3.81 10.16) (xy -2.54 10.16)
					)
					(stroke
						(width 0)
						(type solid)
					)
					(fill
						(type none)
					)
				)
				(polyline
					(pts
						(xy -3.81 13.335) (xy -3.81 -13.335) (xy 3.81 -9.525) (xy 3.81 9.525) (xy -3.81 13.335)
					)
					(stroke
						(width 0.254)
						(type solid)
					)
					(fill
						(type background)
					)
				)
				(circle
					(center 1.27 -7.62)
					(radius 0.762)
					(stroke
						(width 0)
						(type solid)
					)
					(fill
						(type none)
					)
				)
				(circle
					(center 1.27 -2.54)
					(radius 0.762)
					(stroke
						(width 0)
						(type solid)
					)
					(fill
						(type none)
					)
				)
				(circle
					(center 1.27 2.54)
					(radius 0.762)
					(stroke
						(width 0)
						(type solid)
					)
					(fill
						(type none)
					)
				)
				(circle
					(center 1.27 7.62)
					(radius 0.762)
					(stroke
						(width 0)
						(type solid)
					)
					(fill
						(type none)
					)
				)
			)
			(symbol "DB9_Female_MountingHoles-Connector_1_1"
				(pin passive line
					(at 0 -15.24 90)
					(length 3.81)
					(name "PAD"
						(effects
							(font
								(size 1.27 1.27)
							)
						)
					)
					(number "0"
						(effects
							(font
								(size 1.27 1.27)
							)
						)
					)
				)
				(pin passive line
					(at -7.62 10.16 0)
					(length 3.81)
					(name "1"
						(effects
							(font
								(size 1.27 1.27)
							)
						)
					)
					(number "1"
						(effects
							(font
								(size 1.27 1.27)
							)
						)
					)
				)
				(pin passive line
					(at -7.62 5.08 0)
					(length 3.81)
					(name "2"
						(effects
							(font
								(size 1.27 1.27)
							)
						)
					)
					(number "2"
						(effects
							(font
								(size 1.27 1.27)
							)
						)
					)
				)
				(pin passive line
					(at -7.62 0 0)
					(length 3.81)
					(name "3"
						(effects
							(font
								(size 1.27 1.27)
							)
						)
					)
					(number "3"
						(effects
							(font
								(size 1.27 1.27)
							)
						)
					)
				)
				(pin passive line
					(at -7.62 -5.08 0)
					(length 3.81)
					(name "4"
						(effects
							(font
								(size 1.27 1.27)
							)
						)
					)
					(number "4"
						(effects
							(font
								(size 1.27 1.27)
							)
						)
					)
				)
				(pin passive line
					(at -7.62 -10.16 0)
					(length 3.81)
					(name "5"
						(effects
							(font
								(size 1.27 1.27)
							)
						)
					)
					(number "5"
						(effects
							(font
								(size 1.27 1.27)
							)
						)
					)
				)
				(pin passive line
					(at -7.62 7.62 0)
					(length 3.81)
					(name "6"
						(effects
							(font
								(size 1.27 1.27)
							)
						)
					)
					(number "6"
						(effects
							(font
								(size 1.27 1.27)
							)
						)
					)
				)
				(pin passive line
					(at -7.62 2.54 0)
					(length 3.81)
					(name "7"
						(effects
							(font
								(size 1.27 1.27)
							)
						)
					)
					(number "7"
						(effects
							(font
								(size 1.27 1.27)
							)
						)
					)
				)
				(pin passive line
					(at -7.62 -2.54 0)
					(length 3.81)
					(name "8"
						(effects
							(font
								(size 1.27 1.27)
							)
						)
					)
					(number "8"
						(effects
							(font
								(size 1.27 1.27)
							)
						)
					)
				)
				(pin passive line
					(at -7.62 -7.62 0)
					(length 3.81)
					(name "9"
						(effects
							(font
								(size 1.27 1.27)
							)
						)
					)
					(number "9"
						(effects
							(font
								(size 1.27 1.27)
							)
						)
					)
				)
			)
		)
	)
	(junction
		(at 48.26 166.37)
		(diameter 0)
		(color 0 0 0 0)
		(uuid "2c2fbeb4-e17f-49a8-ae65-a2ede5ad700f")
	)
	(junction
		(at 48.26 138.43)
		(diameter 0)
		(color 0 0 0 0)
		(uuid "2c331ca6-0bcf-49eb-b0f1-7af6521dee8f")
	)
	(junction
		(at 48.26 173.99)
		(diameter 0)
		(color 0 0 0 0)
		(uuid "2d1e136e-f776-4797-a802-5c7735e3b7b1")
	)
	(junction
		(at 48.26 168.91)
		(diameter 0)
		(color 0 0 0 0)
		(uuid "3659dbf6-20ed-4227-96d3-76fdb0a3a9bc")
	)
	(junction
		(at 33.02 146.05)
		(diameter 0)
		(color 0 0 0 0)
		(uuid "4c7d037a-136f-4bbb-be18-6e3a1223542f")
	)
	(junction
		(at 48.26 158.75)
		(diameter 0)
		(color 0 0 0 0)
		(uuid "5ea07b02-4aee-411e-b1a1-4f7cee5dced9")
	)
	(junction
		(at 33.02 184.15)
		(diameter 0)
		(color 0 0 0 0)
		(uuid "6d3e4c89-4f88-417d-ba83-da4fbb9eb5e8")
	)
	(junction
		(at 48.26 184.15)
		(diameter 0)
		(color 0 0 0 0)
		(uuid "abf5ad3d-e289-4394-93c7-708c58315712")
	)
	(junction
		(at 48.26 140.97)
		(diameter 0)
		(color 0 0 0 0)
		(uuid "ae82b59c-c6c0-41ea-8ec2-c9d3f9ecbb65")
	)
	(junction
		(at 33.02 186.69)
		(diameter 0)
		(color 0 0 0 0)
		(uuid "af9024e6-42ec-4de7-ba2a-d4ba81437ef8")
	)
	(junction
		(at 48.26 186.69)
		(diameter 0)
		(color 0 0 0 0)
		(uuid "bed6952b-1433-4ae7-8ee9-59784e8da350")
	)
	(junction
		(at 33.02 158.75)
		(diameter 0)
		(color 0 0 0 0)
		(uuid "c1df1797-dca2-4f73-b324-685b9029cb83")
	)
	(junction
		(at 50.8 148.59)
		(diameter 0)
		(color 0 0 0 0)
		(uuid "d1762b7b-57a3-43e4-b600-49012aa38b23")
	)
	(junction
		(at 33.02 151.13)
		(diameter 0)
		(color 0 0 0 0)
		(uuid "dbec4d7b-00a2-4b73-8a7a-23b4e8eb73a3")
	)
	(junction
		(at 33.02 140.97)
		(diameter 0)
		(color 0 0 0 0)
		(uuid "df4cf2ec-c9b7-41e1-983b-2f3b69fd8f0f")
	)
	(junction
		(at 48.26 179.07)
		(diameter 0)
		(color 0 0 0 0)
		(uuid "e249e073-479f-4faa-b759-487cee6120c4")
	)
	(junction
		(at 33.02 138.43)
		(diameter 0)
		(color 0 0 0 0)
		(uuid "f6848eb6-0d4a-4d94-b579-7d54194993be")
	)
	(no_connect
		(at 36.83 59.69)
		(uuid "08300030-6103-4dc6-9474-224d9ba6ebeb")
	)
	(no_connect
		(at 46.99 171.45)
		(uuid "12cb8ee1-1a75-4499-8b8f-117631347314")
	)
	(no_connect
		(at 36.83 46.99)
		(uuid "1a3fef5e-2d2d-4b43-a8dc-c47e8e60cb65")
	)
	(no_connect
		(at 34.29 179.07)
		(uuid "1ca8b77c-0a7d-4505-8697-006f4320217f")
	)
	(no_connect
		(at 34.29 161.29)
		(uuid "2a548f74-590a-49da-9e0a-b14b3a36572c")
	)
	(no_connect
		(at 46.99 163.83)
		(uuid "5b0d15c1-a0a4-4b30-bd59-398377ea9473")
	)
	(no_connect
		(at 34.29 176.53)
		(uuid "62dfaeec-4806-49fa-a796-e0bb6d70bf0a")
	)
	(no_connect
		(at 34.29 171.45)
		(uuid "a6676af4-e254-49c3-9577-97ebe9d8093d")
	)
	(no_connect
		(at 34.29 148.59)
		(uuid "aa694b6d-f697-463c-85f6-fe32a30d578d")
	)
	(no_connect
		(at 34.29 168.91)
		(uuid "c21068c9-4063-4a36-8c8b-56022f35a7b8")
	)
	(no_connect
		(at 46.99 156.21)
		(uuid "ec42ea05-d1aa-4422-a1ce-60f07abc8eef")
	)
	(no_connect
		(at 46.99 161.29)
		(uuid "f0349530-e817-4795-a6db-b9a1b9c1fdb7")
	)
	(no_connect
		(at 34.29 163.83)
		(uuid "f5cfad60-2445-456a-bfa2-0bc90ab01ecb")
	)
	(no_connect
		(at 46.99 151.13)
		(uuid "fc39de1a-e8f6-4c23-a76b-c71a7d089716")
	)
	(wire
		(pts
			(xy 33.02 158.75) (xy 33.02 151.13)
		)
		(stroke
			(width 0)
			(type default)
		)
		(uuid "000f001e-0960-4e65-95ba-670f8d680fd5")
	)
	(wire
		(pts
			(xy 48.26 184.15) (xy 48.26 179.07)
		)
		(stroke
			(width 0)
			(type default)
		)
		(uuid "00f8ccc4-ef4b-48ca-88a4-b456ace09e14")
	)
	(wire
		(pts
			(xy 13.97 57.15) (xy 36.83 57.15)
		)
		(stroke
			(width 0)
			(type default)
		)
		(uuid "0dd5c688-be74-4ae2-a167-b0e177ed32bc")
	)
	(wire
		(pts
			(xy 48.26 158.75) (xy 48.26 153.67)
		)
		(stroke
			(width 0)
			(type default)
		)
		(uuid "0eded025-ea50-440e-af3d-008f18bd2ddc")
	)
	(wire
		(pts
			(xy 34.29 153.67) (xy 13.97 153.67)
		)
		(stroke
			(width 0)
			(type default)
		)
		(uuid "12618867-2621-4777-9784-60e4b2e02899")
	)
	(wire
		(pts
			(xy 34.29 146.05) (xy 33.02 146.05)
		)
		(stroke
			(width 0)
			(type default)
		)
		(uuid "12aee418-80e3-4d52-8338-572e62c8fb58")
	)
	(wire
		(pts
			(xy 46.99 184.15) (xy 48.26 184.15)
		)
		(stroke
			(width 0)
			(type default)
		)
		(uuid "1357c362-1834-428f-9608-93af6dca3ec9")
	)
	(wire
		(pts
			(xy 66.04 138.43) (xy 48.26 138.43)
		)
		(stroke
			(width 0)
			(type default)
		)
		(uuid "13890d86-c8e2-4379-b1a5-d3edee1095c1")
	)
	(wire
		(pts
			(xy 149.86 20.32) (xy 133.35 20.32)
		)
		(stroke
			(width 0)
			(type default)
		)
		(uuid "1735457d-9dc6-4bba-a52c-e7121a3692e3")
	)
	(wire
		(pts
			(xy 36.83 54.61) (xy 13.97 54.61)
		)
		(stroke
			(width 0)
			(type default)
		)
		(uuid "1d3d9b8c-cc0f-4de7-8e0b-457d92c7c8c0")
	)
	(wire
		(pts
			(xy 99.06 20.32) (xy 113.03 20.32)
		)
		(stroke
			(width 0)
			(type default)
		)
		(uuid "1d431248-fa6b-48e8-990f-53c32a85eed5")
	)
	(polyline
		(pts
			(xy 251.46 162.56) (xy 246.38 162.56)
		)
		(stroke
			(width 0)
			(type default)
		)
		(uuid "29164316-782f-4a74-9e24-be1acbfea5ee")
	)
	(wire
		(pts
			(xy 46.99 179.07) (xy 48.26 179.07)
		)
		(stroke
			(width 0)
			(type default)
		)
		(uuid "2b2cd8c6-c54b-4d9e-950a-3d0c331007bb")
	)
	(polyline
		(pts
			(xy 251.46 162.56) (xy 251.46 113.03)
		)
		(stroke
			(width 0)
			(type default)
		)
		(uuid "3364cc4b-acc0-4c6d-9e61-430f1354e4f2")
	)
	(wire
		(pts
			(xy 48.26 153.67) (xy 46.99 153.67)
		)
		(stroke
			(width 0)
			(type default)
		)
		(uuid "34f8f169-4b51-4a84-b143-2db4710067c2")
	)
	(wire
		(pts
			(xy 46.99 186.69) (xy 48.26 186.69)
		)
		(stroke
			(width 0)
			(type default)
		)
		(uuid "3c60d06c-e65e-47a2-8b40-010697779097")
	)
	(wire
		(pts
			(xy 33.02 181.61) (xy 33.02 184.15)
		)
		(stroke
			(width 0)
			(type default)
		)
		(uuid "3ddec33d-5f3a-4833-a3a3-290d3bc10275")
	)
	(wire
		(pts
			(xy 34.29 186.69) (xy 33.02 186.69)
		)
		(stroke
			(width 0)
			(type default)
		)
		(uuid "41ca3604-649f-4077-a89d-728dcc453ad6")
	)
	(wire
		(pts
			(xy 46.99 166.37) (xy 48.26 166.37)
		)
		(stroke
			(width 0)
			(type default)
		)
		(uuid "4634eb7d-92be-4ae0-b4a2-49ad4bf083e1")
	)
	(wire
		(pts
			(xy 33.02 138.43) (xy 33.02 133.35)
		)
		(stroke
			(width 0)
			(type default)
		)
		(uuid "47a4575c-e3c9-44fd-b61c-d1afe70ef729")
	)
	(wire
		(pts
			(xy 48.26 140.97) (xy 48.26 138.43)
		)
		(stroke
			(width 0)
			(type default)
		)
		(uuid "47eff058-d0fd-4a80-ba1b-b0e9733769b6")
	)
	(wire
		(pts
			(xy 46.99 158.75) (xy 48.26 158.75)
		)
		(stroke
			(width 0)
			(type default)
		)
		(uuid "48130dd9-ff20-4955-a753-e67ce2d95126")
	)
	(wire
		(pts
			(xy 48.26 179.07) (xy 48.26 173.99)
		)
		(stroke
			(width 0)
			(type default)
		)
		(uuid "4b486aed-31be-41de-83db-c6bf2a6c763d")
	)
	(wire
		(pts
			(xy 34.29 140.97) (xy 33.02 140.97)
		)
		(stroke
			(width 0)
			(type default)
		)
		(uuid "4b4ab567-2b90-4e85-940d-e836c8d30e77")
	)
	(wire
		(pts
			(xy 33.02 146.05) (xy 33.02 140.97)
		)
		(stroke
			(width 0)
			(type default)
		)
		(uuid "4bc6a03b-4c68-4119-8343-5cc9402a01a9")
	)
	(wire
		(pts
			(xy 34.29 138.43) (xy 33.02 138.43)
		)
		(stroke
			(width 0)
			(type default)
		)
		(uuid "4da4c84b-d998-42c4-9656-2f8e801c2891")
	)
	(wire
		(pts
			(xy 50.8 158.75) (xy 48.26 158.75)
		)
		(stroke
			(width 0)
			(type default)
		)
		(uuid "4e271713-d891-4961-9ebb-323ee05190ab")
	)
	(polyline
		(pts
			(xy 246.38 162.56) (xy 246.38 113.03)
		)
		(stroke
			(width 0)
			(type default)
		)
		(uuid "4fcf4121-614b-4490-918c-b5182f674cc1")
	)
	(wire
		(pts
			(xy 33.02 151.13) (xy 33.02 146.05)
		)
		(stroke
			(width 0)
			(type default)
		)
		(uuid "5ad13355-de3b-4286-8a27-00b785fd0a52")
	)
	(wire
		(pts
			(xy 52.07 191.77) (xy 52.07 181.61)
		)
		(stroke
			(width 0)
			(type default)
		)
		(uuid "65c24c79-648f-4855-b24b-ff13f82eac57")
	)
	(wire
		(pts
			(xy 46.99 148.59) (xy 50.8 148.59)
		)
		(stroke
			(width 0)
			(type default)
		)
		(uuid "6a603fcc-b287-4deb-849b-4b8f85ee652c")
	)
	(wire
		(pts
			(xy 34.29 184.15) (xy 33.02 184.15)
		)
		(stroke
			(width 0)
			(type default)
		)
		(uuid "6c3ea788-6378-4f20-a231-e749eea7a72e")
	)
	(wire
		(pts
			(xy 123.19 30.48) (xy 123.19 31.75)
		)
		(stroke
			(width 0)
			(type default)
		)
		(uuid "700fcbe3-ebfd-4bad-9126-0c0a25d8619c")
	)
	(wire
		(pts
			(xy 36.83 52.07) (xy 13.97 52.07)
		)
		(stroke
			(width 0)
			(type default)
		)
		(uuid "74abac1b-e522-4ec2-ae1f-b02f889d1a09")
	)
	(wire
		(pts
			(xy 33.02 166.37) (xy 33.02 158.75)
		)
		(stroke
			(width 0)
			(type default)
		)
		(uuid "788e3a10-9c2e-4653-ba0a-c74fe5cb3d87")
	)
	(wire
		(pts
			(xy 48.26 191.77) (xy 48.26 186.69)
		)
		(stroke
			(width 0)
			(type default)
		)
		(uuid "7ae0f81e-8887-4d50-b9c5-49de9eb7dda8")
	)
	(wire
		(pts
			(xy 33.02 186.69) (xy 13.97 186.69)
		)
		(stroke
			(width 0)
			(type default)
		)
		(uuid "811dfbba-76fc-4c22-a882-1fada62521e1")
	)
	(wire
		(pts
			(xy 36.83 44.45) (xy 34.29 44.45)
		)
		(stroke
			(width 0)
			(type default)
		)
		(uuid "864fdaea-1c6f-4c3a-b9cc-6da61d139577")
	)
	(wire
		(pts
			(xy 34.29 44.45) (xy 34.29 64.77)
		)
		(stroke
			(width 0)
			(type default)
		)
		(uuid "86d86b91-3e2f-4ac1-ba11-e4bed280d453")
	)
	(wire
		(pts
			(xy 46.99 168.91) (xy 48.26 168.91)
		)
		(stroke
			(width 0)
			(type default)
		)
		(uuid "8a3eae77-e461-4c21-a09b-981cc3c4c127")
	)
	(wire
		(pts
			(xy 46.99 176.53) (xy 66.04 176.53)
		)
		(stroke
			(width 0)
			(type default)
		)
		(uuid "8b261fdd-cb50-4c0c-8c83-419c0909b6ff")
	)
	(wire
		(pts
			(xy 34.29 143.51) (xy 29.21 143.51)
		)
		(stroke
			(width 0)
			(type default)
		)
		(uuid "8e918bbe-a861-468b-a913-c41d52f81cdc")
	)
	(wire
		(pts
			(xy 34.29 158.75) (xy 33.02 158.75)
		)
		(stroke
			(width 0)
			(type default)
		)
		(uuid "8eede0a9-04e6-4110-acaf-d6a68015ad8b")
	)
	(wire
		(pts
			(xy 34.29 166.37) (xy 33.02 166.37)
		)
		(stroke
			(width 0)
			(type default)
		)
		(uuid "9317f88d-68ce-4318-b792-6b6ce748afd4")
	)
	(wire
		(pts
			(xy 34.29 156.21) (xy 13.97 156.21)
		)
		(stroke
			(width 0)
			(type default)
		)
		(uuid "964cb1f2-d2c8-49ff-a798-94421cb84138")
	)
	(wire
		(pts
			(xy 46.99 143.51) (xy 48.26 143.51)
		)
		(stroke
			(width 0)
			(type default)
		)
		(uuid "9ab71459-559f-4d6e-ad29-45283c23f1b1")
	)
	(wire
		(pts
			(xy 50.8 148.59) (xy 66.04 148.59)
		)
		(stroke
			(width 0)
			(type default)
		)
		(uuid "a78a65b5-9f56-4706-beb3-65cab597aaea")
	)
	(wire
		(pts
			(xy 48.26 168.91) (xy 48.26 166.37)
		)
		(stroke
			(width 0)
			(type default)
		)
		(uuid "ad60e894-f361-41c1-ab1a-a17d28789fa1")
	)
	(wire
		(pts
			(xy 36.83 39.37) (xy 13.97 39.37)
		)
		(stroke
			(width 0)
			(type default)
		)
		(uuid "b1a8ea02-9d26-401c-bf3a-aa0710baa398")
	)
	(wire
		(pts
			(xy 66.04 146.05) (xy 46.99 146.05)
		)
		(stroke
			(width 0)
			(type default)
		)
		(uuid "b79dcba7-7db4-4207-a86f-6a94cc053901")
	)
	(wire
		(pts
			(xy 48.26 184.15) (xy 48.26 186.69)
		)
		(stroke
			(width 0)
			(type default)
		)
		(uuid "c063f01f-354e-4e47-9bf7-8d0c12979e9c")
	)
	(polyline
		(pts
			(xy 251.46 113.03) (xy 246.38 113.03)
		)
		(stroke
			(width 0)
			(type default)
		)
		(uuid "c647e8c7-4d0d-4ff7-baaf-db58b068e0bb")
	)
	(wire
		(pts
			(xy 46.99 140.97) (xy 48.26 140.97)
		)
		(stroke
			(width 0)
			(type default)
		)
		(uuid "c816d491-320c-48f0-9ff3-038c513fcdaf")
	)
	(wire
		(pts
			(xy 33.02 140.97) (xy 33.02 138.43)
		)
		(stroke
			(width 0)
			(type default)
		)
		(uuid "c9a752ee-57fa-4834-9780-70b5f5b445d4")
	)
	(wire
		(pts
			(xy 48.26 168.91) (xy 48.26 173.99)
		)
		(stroke
			(width 0)
			(type default)
		)
		(uuid "cb55f489-9552-4f24-9690-c567466eeae0")
	)
	(wire
		(pts
			(xy 34.29 151.13) (xy 33.02 151.13)
		)
		(stroke
			(width 0)
			(type default)
		)
		(uuid "d0c6afd9-2456-4d2b-a392-8e022f09365c")
	)
	(wire
		(pts
			(xy 36.83 41.91) (xy 13.97 41.91)
		)
		(stroke
			(width 0)
			(type default)
		)
		(uuid "d0e12d81-bb51-46a7-9d46-3676bb5ef26f")
	)
	(wire
		(pts
			(xy 46.99 181.61) (xy 52.07 181.61)
		)
		(stroke
			(width 0)
			(type default)
		)
		(uuid "d5dfdf3c-4a2d-454e-9730-89d162af5ec0")
	)
	(wire
		(pts
			(xy 34.29 173.99) (xy 13.97 173.99)
		)
		(stroke
			(width 0)
			(type default)
		)
		(uuid "d66ca9c1-79c7-44ac-8162-ce4a2852de56")
	)
	(wire
		(pts
			(xy 50.8 148.59) (xy 50.8 149.86)
		)
		(stroke
			(width 0)
			(type default)
		)
		(uuid "d6965cfe-05d4-4afb-922b-177d47627a89")
	)
	(wire
		(pts
			(xy 36.83 49.53) (xy 13.97 49.53)
		)
		(stroke
			(width 0)
			(type default)
		)
		(uuid "df3ed7cc-3f26-4e5c-bfaf-79760587a241")
	)
	(wire
		(pts
			(xy 48.26 138.43) (xy 46.99 138.43)
		)
		(stroke
			(width 0)
			(type default)
		)
		(uuid "df856945-3898-4442-a7d5-a70762e487bb")
	)
	(wire
		(pts
			(xy 48.26 166.37) (xy 48.26 158.75)
		)
		(stroke
			(width 0)
			(type default)
		)
		(uuid "e2b08052-5a7c-443a-ba80-8a94c4fea605")
	)
	(wire
		(pts
			(xy 50.8 157.48) (xy 50.8 158.75)
		)
		(stroke
			(width 0)
			(type default)
		)
		(uuid "e8bf5c51-08da-488f-8c3e-36cc4735aa6d")
	)
	(wire
		(pts
			(xy 33.02 184.15) (xy 33.02 186.69)
		)
		(stroke
			(width 0)
			(type default)
		)
		(uuid "e9f736f8-749f-473a-abe0-960d5d46683e")
	)
	(wire
		(pts
			(xy 48.26 173.99) (xy 46.99 173.99)
		)
		(stroke
			(width 0)
			(type default)
		)
		(uuid "f30d47ff-2938-4d3d-94f7-de07ed6beab5")
	)
	(wire
		(pts
			(xy 34.29 181.61) (xy 33.02 181.61)
		)
		(stroke
			(width 0)
			(type default)
		)
		(uuid "f4c6c69b-3c3e-4b2d-ba0e-f47bdbefd10e")
	)
	(wire
		(pts
			(xy 29.21 133.35) (xy 29.21 143.51)
		)
		(stroke
			(width 0)
			(type default)
		)
		(uuid "f7697e02-dc67-4b5d-9833-ec67ddf218fd")
	)
	(wire
		(pts
			(xy 48.26 143.51) (xy 48.26 140.97)
		)
		(stroke
			(width 0)
			(type default)
		)
		(uuid "fc5cff81-3fee-493e-9b1f-8c01c2414795")
	)
	(text "EARTH"
		(exclude_from_sim no)
		(at 252.73 157.48 0)
		(effects
			(font
				(size 1.27 1.27)
			)
			(justify left bottom)
		)
		(uuid "01f797c2-e677-4b63-a567-42d1ffe6f04e")
	)
	(text "uC_UART_Rx"
		(exclude_from_sim no)
		(at 245.11 147.32 0)
		(effects
			(font
				(size 1.27 1.27)
			)
			(justify right bottom)
		)
		(uuid "05e7fca2-ef35-4a86-805f-dc606f69225a")
	)
	(text "GND"
		(exclude_from_sim no)
		(at 252.73 149.86 0)
		(effects
			(font
				(size 1.27 1.27)
			)
			(justify left bottom)
		)
		(uuid "17dd9989-c299-41aa-aadd-09a5c253a495")
	)
	(text "GND"
		(exclude_from_sim no)
		(at 245.11 134.62 0)
		(effects
			(font
				(size 1.27 1.27)
			)
			(justify right bottom)
		)
		(uuid "183c690d-5c04-4693-b98d-58352c2c505a")
	)
	(text "GND"
		(exclude_from_sim no)
		(at 245.11 121.92 0)
		(effects
			(font
				(size 1.27 1.27)
			)
			(justify right bottom)
		)
		(uuid "1ac2f297-f97a-44c9-90d7-8168c7a6a654")
	)
	(text "GND"
		(exclude_from_sim no)
		(at 252.73 154.94 0)
		(effects
			(font
				(size 1.27 1.27)
			)
			(justify left bottom)
		)
		(uuid "1d67ec47-b674-417b-bc12-af34a350ef97")
	)
	(text "uC_UART_Tx"
		(exclude_from_sim no)
		(at 245.11 144.78 0)
		(effects
			(font
				(size 1.27 1.27)
			)
			(justify right bottom)
		)
		(uuid "1fb1879b-c4a0-487e-bf7f-6b9678c68e22")
	)
	(text "NC"
		(exclude_from_sim no)
		(at 245.11 152.4 0)
		(effects
			(font
				(size 1.27 1.27)
			)
			(justify right bottom)
		)
		(uuid "2533363c-d7ba-477f-91bc-7e3150fc1d21")
	)
	(text "VDD1"
		(exclude_from_sim no)
		(at 245.11 162.56 0)
		(effects
			(font
				(size 1.27 1.27)
			)
			(justify right bottom)
		)
		(uuid "342b02f0-9108-4c06-a451-9f25c4839566")
	)
	(text "uC_UART_Tx_RS232"
		(exclude_from_sim no)
		(at 245.11 129.54 0)
		(effects
			(font
				(size 1.27 1.27)
			)
			(justify right bottom)
		)
		(uuid "345c7969-3126-4966-b08f-51eb3c98bbd9")
	)
	(text "VDD1"
		(exclude_from_sim no)
		(at 245.11 160.02 0)
		(effects
			(font
				(size 1.27 1.27)
			)
			(justify right bottom)
		)
		(uuid "34ef43ae-505c-45b9-9bee-481528122002")
	)
	(text "GND"
		(exclude_from_sim no)
		(at 245.11 114.3 0)
		(effects
			(font
				(size 1.27 1.27)
			)
			(justify right bottom)
		)
		(uuid "3e3db729-ca7c-4246-9edc-ef8e0d24a92f")
	)
	(text "GND"
		(exclude_from_sim no)
		(at 252.73 129.54 0)
		(effects
			(font
				(size 1.27 1.27)
			)
			(justify left bottom)
		)
		(uuid "406a693a-a02c-4f62-bf0a-facc217f580a")
	)
	(text "reverse protection"
		(exclude_from_sim no)
		(at 46.99 190.5 0)
		(effects
			(font
				(size 1.27 1.27)
			)
			(justify right bottom)
		)
		(uuid "44839542-d44f-43ee-bf39-949624f245b0")
	)
	(text "GND"
		(exclude_from_sim no)
		(at 252.73 142.24 0)
		(effects
			(font
				(size 1.27 1.27)
			)
			(justify left bottom)
		)
		(uuid "46fe0a36-b48a-4416-bb0f-ca75390c287f")
	)
	(text "GND"
		(exclude_from_sim no)
		(at 245.11 116.84 0)
		(effects
			(font
				(size 1.27 1.27)
			)
			(justify right bottom)
		)
		(uuid "4ff5d235-c7f8-491b-b9e8-65750f30781f")
	)
	(text "GND"
		(exclude_from_sim no)
		(at 245.11 142.24 0)
		(effects
			(font
				(size 1.27 1.27)
			)
			(justify right bottom)
		)
		(uuid "58a1b25c-7902-4084-98ca-4dce6ae8bd51")
	)
	(text "EARTH"
		(exclude_from_sim no)
		(at 245.11 119.38 0)
		(effects
			(font
				(size 1.27 1.27)
			)
			(justify right bottom)
		)
		(uuid "612a30fa-b901-4a32-a1b8-016f3a02c661")
	)
	(text "RFS_OUT"
		(exclude_from_sim no)
		(at 252.73 152.4 0)
		(effects
			(font
				(size 1.27 1.27)
			)
			(justify left bottom)
		)
		(uuid "62edd018-5482-4eb4-b419-c4279bdda914")
	)
	(text "LOCK_INDICATOR"
		(exclude_from_sim no)
		(at 252.73 121.92 0)
		(effects
			(font
				(size 1.27 1.27)
			)
			(justify left bottom)
		)
		(uuid "657ac53d-f9ba-446b-938f-5006c2455f52")
	)
	(text "VREF_1"
		(exclude_from_sim no)
		(at 252.73 139.7 0)
		(effects
			(font
				(size 1.27 1.27)
			)
			(justify left bottom)
		)
		(uuid "6bb1a472-0cff-4e13-8438-ace3ef82b61a")
	)
	(text "RFS_OUT max 10dBm"
		(exclude_from_sim no)
		(at 262.89 163.83 0)
		(effects
			(font
				(size 1.27 1.27)
			)
			(justify left bottom)
		)
		(uuid "6faa4579-34fa-4cf0-9c23-40515612de8e")
	)
	(text "VDD0"
		(exclude_from_sim no)
		(at 252.73 114.3 0)
		(effects
			(font
				(size 1.27 1.27)
			)
			(justify left bottom)
		)
		(uuid "6fe7d662-90c8-43fb-b847-799cf12cff23")
	)
	(text "1PPS_OUT"
		(exclude_from_sim no)
		(at 252.73 124.46 0)
		(effects
			(font
				(size 1.27 1.27)
			)
			(justify left bottom)
		)
		(uuid "70bb976a-aa75-406a-9c6c-fc69c8344df0")
	)
	(text "GND"
		(exclude_from_sim no)
		(at 252.73 144.78 0)
		(effects
			(font
				(size 1.27 1.27)
			)
			(justify left bottom)
		)
		(uuid "848611f5-5ec5-4d48-9d88-7e3a35ef3351")
	)
	(text "ADCCUBEAT AR133:\n1    +15 V or +12 V\n2    GND\n3    LOCK (BIT)\n4    1PPS in\n5    AUX out\n6    TxD\n7    Factory Use\n8    1PPS out\n9    RxD"
		(exclude_from_sim no)
		(at 20.32 33.02 0)
		(effects
			(font
				(size 1.27 1.27)
			)
			(justify left bottom)
		)
		(uuid "85191b41-5dcc-4373-bc22-3022d536e751")
	)
	(text "uC_UART_Rx_RS232"
		(exclude_from_sim no)
		(at 245.11 132.08 0)
		(effects
			(font
				(size 1.27 1.27)
			)
			(justify right bottom)
		)
		(uuid "89b493d6-c50e-4992-9af1-08634c66c429")
	)
	(text "NC"
		(exclude_from_sim no)
		(at 252.73 132.08 0)
		(effects
			(font
				(size 1.27 1.27)
			)
			(justify left bottom)
		)
		(uuid "9252aaa0-c928-4d10-8408-fed3275fb258")
	)
	(text "NC"
		(exclude_from_sim no)
		(at 245.11 124.46 0)
		(effects
			(font
				(size 1.27 1.27)
			)
			(justify right bottom)
		)
		(uuid "94b53584-ba30-4e38-8f2c-b72a0cb44ca5")
	)
	(text "1PPS_IN"
		(exclude_from_sim no)
		(at 245.11 149.86 0)
		(effects
			(font
				(size 1.27 1.27)
			)
			(justify right bottom)
		)
		(uuid "a234824a-9aa8-41cf-b01a-537b0caf6783")
	)
	(text "RFU"
		(exclude_from_sim no)
		(at 241.3 139.7 0)
		(effects
			(font
				(size 1.27 1.27)
			)
			(justify left bottom)
		)
		(uuid "a26be00f-3cf2-4c18-b90f-7933cfcab970")
	)
	(text "GND"
		(exclude_from_sim no)
		(at 245.11 127 0)
		(effects
			(font
				(size 1.27 1.27)
			)
			(justify right bottom)
		)
		(uuid "a4896fc0-9491-4a43-8300-313af18d3535")
	)
	(text "VDD1"
		(exclude_from_sim no)
		(at 245.11 157.48 0)
		(effects
			(font
				(size 1.27 1.27)
			)
			(justify right bottom)
		)
		(uuid "a6768203-6736-4584-99e9-acbaaf217527")
	)
	(text "GND"
		(exclude_from_sim no)
		(at 252.73 160.02 0)
		(effects
			(font
				(size 1.27 1.27)
			)
			(justify left bottom)
		)
		(uuid "ad920b18-42b0-4fed-a793-754a3b925c19")
	)
	(text "EFC_IN"
		(exclude_from_sim no)
		(at 252.73 137.16 0)
		(effects
			(font
				(size 1.27 1.27)
			)
			(justify left bottom)
		)
		(uuid "b1604b41-7e19-41e5-88f8-3c0dc2b31802")
	)
	(text "GND"
		(exclude_from_sim no)
		(at 252.73 134.62 0)
		(effects
			(font
				(size 1.27 1.27)
			)
			(justify left bottom)
		)
		(uuid "b827dda2-303c-477e-8ae1-a5fd6896a1c0")
	)
	(text "NC"
		(exclude_from_sim no)
		(at 245.11 154.94 0)
		(effects
			(font
				(size 1.27 1.27)
			)
			(justify right bottom)
		)
		(uuid "ca42fff1-3957-4233-84ee-fdd81acddc6d")
	)
	(text "VREF_0"
		(exclude_from_sim no)
		(at 245.11 137.16 0)
		(effects
			(font
				(size 1.27 1.27)
			)
			(justify right bottom)
		)
		(uuid "d7eb7f01-c7aa-400b-ad91-b8424a576f89")
	)
	(text "NC"
		(exclude_from_sim no)
		(at 252.73 127 0)
		(effects
			(font
				(size 1.27 1.27)
			)
			(justify left bottom)
		)
		(uuid "dea73ae6-8f0a-461d-92b2-874c85ae1f86")
	)
	(text "NC"
		(exclude_from_sim no)
		(at 252.73 147.32 0)
		(effects
			(font
				(size 1.27 1.27)
			)
			(justify left bottom)
		)
		(uuid "eeee46f4-3a4d-4266-89ec-5914f480a797")
	)
	(text "VDD0"
		(exclude_from_sim no)
		(at 252.73 116.84 0)
		(effects
			(font
				(size 1.27 1.27)
			)
			(justify left bottom)
		)
		(uuid "f2aeab2f-aca2-49f8-829f-e860b5adad99")
	)
	(text "VDD0"
		(exclude_from_sim no)
		(at 252.73 119.38 0)
		(effects
			(font
				(size 1.27 1.27)
			)
			(justify left bottom)
		)
		(uuid "f900ed20-4041-4020-a7b1-990e3c2821ba")
	)
	(text "GND"
		(exclude_from_sim no)
		(at 252.73 162.56 0)
		(effects
			(font
				(size 1.27 1.27)
			)
			(justify left bottom)
		)
		(uuid "f9247565-07e9-441f-a694-aa0a9330f0a2")
	)
	(label "AR133_1PPS_out"
		(at 13.97 52.07 0)
		(fields_autoplaced yes)
		(effects
			(font
				(size 1.27 1.27)
			)
			(justify left bottom)
		)
		(uuid "0a0ac44d-6e06-4e06-ad52-fe9aceb2876b")
	)
	(label "AR133_1PPS_in"
		(at 13.97 54.61 0)
		(fields_autoplaced yes)
		(effects
			(font
				(size 1.27 1.27)
			)
			(justify left bottom)
		)
		(uuid "4d0c2af5-3692-4c56-89b2-eafe48add7d1")
	)
	(label "AR133_TxD_RS232"
		(at 13.97 156.21 0)
		(fields_autoplaced yes)
		(effects
			(font
				(size 1.27 1.27)
			)
			(justify left bottom)
		)
		(uuid "5af0d34e-e7de-471c-9ab2-d523884c9627")
	)
	(label "AR133_OUT_ATT"
		(at 66.04 176.53 180)
		(fields_autoplaced yes)
		(effects
			(font
				(size 1.27 1.27)
			)
			(justify right bottom)
		)
		(uuid "748c4d19-12d2-4439-a244-c0954b5d585d")
	)
	(label "AR133_1PPS_in"
		(at 13.97 173.99 0)
		(fields_autoplaced yes)
		(effects
			(font
				(size 1.27 1.27)
			)
			(justify left bottom)
		)
		(uuid "74d3c2f0-e531-4d54-aaff-1ecee82e4ed9")
	)
	(label "~{AR133_LOCK}"
		(at 66.04 146.05 180)
		(fields_autoplaced yes)
		(effects
			(font
				(size 1.27 1.27)
			)
			(justify right bottom)
		)
		(uuid "83002ab0-c952-4953-aa32-6b80ddfe955e")
	)
	(label "AR133_TxD_RS232"
		(at 13.97 41.91 0)
		(fields_autoplaced yes)
		(effects
			(font
				(size 1.27 1.27)
			)
			(justify left bottom)
		)
		(uuid "8f8f7970-4881-45a3-a52b-fc510413cf94")
	)
	(label "AR133_+15V"
		(at 13.97 39.37 0)
		(fields_autoplaced yes)
		(effects
			(font
				(size 1.27 1.27)
			)
			(justify left bottom)
		)
		(uuid "91647479-a1fd-4ce3-a974-9ad6b554f471")
	)
	(label "AR133_RxD_RS232"
		(at 13.97 57.15 0)
		(fields_autoplaced yes)
		(effects
			(font
				(size 1.27 1.27)
			)
			(justify left bottom)
		)
		(uuid "a541e717-d65a-4966-9f36-ab0f0ddb98c0")
	)
	(label "AR133_RxD_RS232"
		(at 13.97 153.67 0)
		(fields_autoplaced yes)
		(effects
			(font
				(size 1.27 1.27)
			)
			(justify left bottom)
		)
		(uuid "b2f626f8-fe90-45b1-98e3-706873fbcc40")
	)
	(label "AR133_OUT"
		(at 111.76 20.32 180)
		(fields_autoplaced yes)
		(effects
			(font
				(size 1.27 1.27)
			)
			(justify right bottom)
		)
		(uuid "b6c00e22-00cd-4229-9300-ea716ea7d96b")
	)
	(label "AR133_+15V"
		(at 66.04 138.43 180)
		(fields_autoplaced yes)
		(effects
			(font
				(size 1.27 1.27)
			)
			(justify right bottom)
		)
		(uuid "b9b0d1d3-696c-47b1-bf9e-658ab6daf34c")
	)
	(label "AR133_OUT_ATT"
		(at 149.86 20.32 180)
		(fields_autoplaced yes)
		(effects
			(font
				(size 1.27 1.27)
			)
			(justify right bottom)
		)
		(uuid "b9b4d13c-a8e7-47a8-a0df-5b342e7aa61a")
	)
	(label "AR133_1PPS_out"
		(at 66.04 148.59 180)
		(fields_autoplaced yes)
		(effects
			(font
				(size 1.27 1.27)
			)
			(justify right bottom)
		)
		(uuid "e1c9fe2f-d132-45e8-8be0-6cd55fcf501a")
	)
	(label "AR133_+15V"
		(at 13.97 186.69 0)
		(fields_autoplaced yes)
		(effects
			(font
				(size 1.27 1.27)
			)
			(justify left bottom)
		)
		(uuid "e449894b-49d3-4e7f-b931-e8121c91e22d")
	)
	(label "~{AR133_LOCK}"
		(at 13.97 49.53 0)
		(fields_autoplaced yes)
		(effects
			(font
				(size 1.27 1.27)
			)
			(justify left bottom)
		)
		(uuid "f4201992-db2e-42ab-8829-a8bf40789d28")
	)
	(symbol
		(lib_id "rfs_adapters-rescue:DB9_Female_MountingHoles-Connector")
		(at 44.45 49.53 0)
		(unit 1)
		(exclude_from_sim no)
		(in_bom yes)
		(on_board yes)
		(dnp no)
		(uuid "00000000-0000-0000-0000-000061b48fe3")
		(property "Reference" "J502"
			(at 49.022 49.4792 0)
			(effects
				(font
					(size 1.27 1.27)
				)
				(justify left)
			)
		)
		(property "Value" "DB9_Female_MountingHoles"
			(at 49.022 51.7906 0)
			(effects
				(font
					(size 1.27 1.27)
				)
				(justify left)
			)
		)
		(property "Footprint" "Connector_Dsub:DSUB-9_Female_Vertical_P2.77x2.84mm_MountingHoles"
			(at 44.45 49.53 0)
			(effects
				(font
					(size 1.27 1.27)
				)
				(hide yes)
			)
		)
		(property "Datasheet" " ~"
			(at 44.45 49.53 0)
			(effects
				(font
					(size 1.27 1.27)
				)
				(hide yes)
			)
		)
		(property "Description" ""
			(at 44.45 49.53 0)
			(effects
				(font
					(size 1.27 1.27)
				)
				(hide yes)
			)
		)
		(property "Place" "NO"
			(at 44.45 49.53 0)
			(effects
				(font
					(size 1.27 1.27)
				)
				(hide yes)
			)
		)
		(property "Provided" "NO"
			(at 44.45 49.53 0)
			(effects
				(font
					(size 1.27 1.27)
				)
				(hide yes)
			)
		)
		(pin "0"
			(uuid "d475ea6d-b19c-4e8c-b210-41315b38042c")
		)
		(pin "1"
			(uuid "bd93d218-b0f6-4679-9110-45a2b2b62cdd")
		)
		(pin "2"
			(uuid "ff42933b-079c-4d72-9c75-0cac5e482312")
		)
		(pin "3"
			(uuid "fb308f3c-70fd-430f-9111-899e999d990e")
		)
		(pin "4"
			(uuid "3c841d09-9e65-4042-be6a-9ec43b4e00ee")
		)
		(pin "5"
			(uuid "e8c17162-1616-4de4-a106-fdb7813c9f81")
		)
		(pin "6"
			(uuid "b2be33ad-c49c-4a45-8208-69afae5ae201")
		)
		(pin "7"
			(uuid "8613084d-11fb-42d9-8377-a1ff5ac98a7f")
		)
		(pin "8"
			(uuid "54b7828c-5df8-4930-83cc-24b1bd2f9f0d")
		)
		(pin "9"
			(uuid "b23ccf1f-d58d-400a-92ae-705e999ffc5d")
		)
		(instances
			(project "rfs_adapters"
				(path "/71d243da-e0b0-4f37-9617-4e4cc8f13378"
					(reference "J?")
					(unit 1)
				)
				(path "/71d243da-e0b0-4f37-9617-4e4cc8f13378/00000000-0000-0000-0000-000061ae0bd9"
					(reference "J502")
					(unit 1)
				)
			)
			(project "Accubeat_AR133"
				(path "/f7ab4b9e-e91e-4b9a-b33a-4d142488718e"
					(reference "J502")
					(unit 1)
				)
			)
		)
	)
	(symbol
		(lib_id "power:Earth")
		(at 44.45 64.77 0)
		(unit 1)
		(exclude_from_sim no)
		(in_bom yes)
		(on_board yes)
		(dnp no)
		(uuid "00000000-0000-0000-0000-000061b48fe9")
		(property "Reference" "#PWR0504"
			(at 44.45 71.12 0)
			(effects
				(font
					(size 1.27 1.27)
				)
				(hide yes)
			)
		)
		(property "Value" "Earth"
			(at 44.45 68.58 0)
			(effects
				(font
					(size 1.27 1.27)
				)
				(hide yes)
			)
		)
		(property "Footprint" ""
			(at 44.45 64.77 0)
			(effects
				(font
					(size 1.27 1.27)
				)
				(hide yes)
			)
		)
		(property "Datasheet" "~"
			(at 44.45 64.77 0)
			(effects
				(font
					(size 1.27 1.27)
				)
				(hide yes)
			)
		)
		(property "Description" ""
			(at 44.45 64.77 0)
			(effects
				(font
					(size 1.27 1.27)
				)
				(hide yes)
			)
		)
		(pin "1"
			(uuid "a9a93048-00e0-423d-91ef-f0606b49e172")
		)
		(instances
			(project "rfs_adapters"
				(path "/71d243da-e0b0-4f37-9617-4e4cc8f13378"
					(reference "#PWR?")
					(unit 1)
				)
				(path "/71d243da-e0b0-4f37-9617-4e4cc8f13378/00000000-0000-0000-0000-000061ae0bd9"
					(reference "#PWR0504")
					(unit 1)
				)
			)
			(project "Accubeat_AR133"
				(path "/f7ab4b9e-e91e-4b9a-b33a-4d142488718e"
					(reference "#PWR0504")
					(unit 1)
				)
			)
		)
	)
	(symbol
		(lib_id "power:GND")
		(at 34.29 64.77 0)
		(unit 1)
		(exclude_from_sim no)
		(in_bom yes)
		(on_board yes)
		(dnp no)
		(uuid "00000000-0000-0000-0000-000061b48fef")
		(property "Reference" "#PWR0503"
			(at 34.29 71.12 0)
			(effects
				(font
					(size 1.27 1.27)
				)
				(hide yes)
			)
		)
		(property "Value" "GND"
			(at 34.417 69.1642 0)
			(effects
				(font
					(size 1.27 1.27)
				)
			)
		)
		(property "Footprint" ""
			(at 34.29 64.77 0)
			(effects
				(font
					(size 1.27 1.27)
				)
				(hide yes)
			)
		)
		(property "Datasheet" ""
			(at 34.29 64.77 0)
			(effects
				(font
					(size 1.27 1.27)
				)
				(hide yes)
			)
		)
		(property "Description" ""
			(at 34.29 64.77 0)
			(effects
				(font
					(size 1.27 1.27)
				)
				(hide yes)
			)
		)
		(pin "1"
			(uuid "6ecd6bab-aedc-4c5f-a5c3-8765b713d059")
		)
		(instances
			(project "rfs_adapters"
				(path "/71d243da-e0b0-4f37-9617-4e4cc8f13378"
					(reference "#PWR?")
					(unit 1)
				)
				(path "/71d243da-e0b0-4f37-9617-4e4cc8f13378/00000000-0000-0000-0000-000061ae0bd9"
					(reference "#PWR0503")
					(unit 1)
				)
			)
			(project "Accubeat_AR133"
				(path "/f7ab4b9e-e91e-4b9a-b33a-4d142488718e"
					(reference "#PWR0503")
					(unit 1)
				)
			)
		)
	)
	(symbol
		(lib_id "power:GND")
		(at 93.98 25.4 0)
		(mirror y)
		(unit 1)
		(exclude_from_sim no)
		(in_bom yes)
		(on_board yes)
		(dnp no)
		(uuid "00000000-0000-0000-0000-000061b49024")
		(property "Reference" "#PWR0501"
			(at 93.98 31.75 0)
			(effects
				(font
					(size 1.27 1.27)
				)
				(hide yes)
			)
		)
		(property "Value" "GND"
			(at 93.853 29.7942 0)
			(effects
				(font
					(size 1.27 1.27)
				)
			)
		)
		(property "Footprint" ""
			(at 93.98 25.4 0)
			(effects
				(font
					(size 1.27 1.27)
				)
				(hide yes)
			)
		)
		(property "Datasheet" ""
			(at 93.98 25.4 0)
			(effects
				(font
					(size 1.27 1.27)
				)
				(hide yes)
			)
		)
		(property "Description" ""
			(at 93.98 25.4 0)
			(effects
				(font
					(size 1.27 1.27)
				)
				(hide yes)
			)
		)
		(pin "1"
			(uuid "fad701b2-87bd-4adf-896d-b1f6160057c5")
		)
		(instances
			(project "rfs_adapters"
				(path "/71d243da-e0b0-4f37-9617-4e4cc8f13378"
					(reference "#PWR?")
					(unit 1)
				)
				(path "/71d243da-e0b0-4f37-9617-4e4cc8f13378/00000000-0000-0000-0000-000061ae0bd9"
					(reference "#PWR0501")
					(unit 1)
				)
			)
			(project "Accubeat_AR133"
				(path "/f7ab4b9e-e91e-4b9a-b33a-4d142488718e"
					(reference "#PWR0501")
					(unit 1)
				)
			)
		)
	)
	(symbol
		(lib_id "RF:PAT1220-C-6DB")
		(at 123.19 22.86 0)
		(unit 1)
		(exclude_from_sim no)
		(in_bom yes)
		(on_board yes)
		(dnp no)
		(uuid "00000000-0000-0000-0000-000061b4902c")
		(property "Reference" "U501"
			(at 123.19 13.5382 0)
			(effects
				(font
					(size 1.27 1.27)
				)
			)
		)
		(property "Value" "PAT1220-C-6DB"
			(at 123.19 15.8496 0)
			(effects
				(font
					(size 1.27 1.27)
				)
			)
		)
		(property "Footprint" "LibreTimeBase:RF_Attenuator_Susumu_PAT1220"
			(at 123.19 22.86 0)
			(effects
				(font
					(size 1.27 1.27)
				)
				(hide yes)
			)
		)
		(property "Datasheet" "https://www.susumu.co.jp/common/pdf/n_catalog_partition16_en.pdf"
			(at 116.84 16.51 0)
			(effects
				(font
					(size 1.27 1.27)
				)
				(hide yes)
			)
		)
		(property "Description" ""
			(at 123.19 22.86 0)
			(effects
				(font
					(size 1.27 1.27)
				)
				(hide yes)
			)
		)
		(property "Place" "YES"
			(at 123.19 22.86 0)
			(effects
				(font
					(size 1.27 1.27)
				)
				(hide yes)
			)
		)
		(property "Provided" "NO"
			(at 123.19 22.86 0)
			(effects
				(font
					(size 1.27 1.27)
				)
				(hide yes)
			)
		)
		(property "Mouser" "754-PAT1220C-6DBT5"
			(at 123.19 22.86 0)
			(effects
				(font
					(size 1.27 1.27)
				)
				(hide yes)
			)
		)
		(pin "3"
			(uuid "c02e37c1-7b8e-4e19-8043-3fa1046a4311")
		)
		(pin "1"
			(uuid "43223b26-935e-462a-98aa-95547a7bd695")
		)
		(pin "2"
			(uuid "1d42e6ea-7c5b-43f4-bce7-039e5f7a9813")
		)
		(instances
			(project "rfs_adapters"
				(path "/71d243da-e0b0-4f37-9617-4e4cc8f13378"
					(reference "U?")
					(unit 1)
				)
				(path "/71d243da-e0b0-4f37-9617-4e4cc8f13378/00000000-0000-0000-0000-000061ae0bd9"
					(reference "U501")
					(unit 1)
				)
			)
			(project "Accubeat_AR133"
				(path "/f7ab4b9e-e91e-4b9a-b33a-4d142488718e"
					(reference "U501")
					(unit 1)
				)
			)
		)
	)
	(symbol
		(lib_id "power:GND")
		(at 123.19 31.75 0)
		(unit 1)
		(exclude_from_sim no)
		(in_bom yes)
		(on_board yes)
		(dnp no)
		(uuid "00000000-0000-0000-0000-000061b49034")
		(property "Reference" "#PWR0502"
			(at 123.19 38.1 0)
			(effects
				(font
					(size 1.27 1.27)
				)
				(hide yes)
			)
		)
		(property "Value" "GND"
			(at 123.317 36.1442 0)
			(effects
				(font
					(size 1.27 1.27)
				)
			)
		)
		(property "Footprint" ""
			(at 123.19 31.75 0)
			(effects
				(font
					(size 1.27 1.27)
				)
				(hide yes)
			)
		)
		(property "Datasheet" ""
			(at 123.19 31.75 0)
			(effects
				(font
					(size 1.27 1.27)
				)
				(hide yes)
			)
		)
		(property "Description" ""
			(at 123.19 31.75 0)
			(effects
				(font
					(size 1.27 1.27)
				)
				(hide yes)
			)
		)
		(pin "1"
			(uuid "d98f3aea-10bd-4f1f-9c7f-c45ad33585fc")
		)
		(instances
			(project "rfs_adapters"
				(path "/71d243da-e0b0-4f37-9617-4e4cc8f13378"
					(reference "#PWR?")
					(unit 1)
				)
				(path "/71d243da-e0b0-4f37-9617-4e4cc8f13378/00000000-0000-0000-0000-000061ae0bd9"
					(reference "#PWR0502")
					(unit 1)
				)
			)
			(project "Accubeat_AR133"
				(path "/f7ab4b9e-e91e-4b9a-b33a-4d142488718e"
					(reference "#PWR0502")
					(unit 1)
				)
			)
		)
	)
	(symbol
		(lib_id "Device:R")
		(at 50.8 153.67 0)
		(mirror y)
		(unit 1)
		(exclude_from_sim no)
		(in_bom yes)
		(on_board yes)
		(dnp no)
		(uuid "00000000-0000-0000-0000-000061b49074")
		(property "Reference" "R501"
			(at 52.578 154.8384 0)
			(effects
				(font
					(size 1.27 1.27)
				)
				(justify right)
			)
		)
		(property "Value" "49.9"
			(at 52.578 152.527 0)
			(effects
				(font
					(size 1.27 1.27)
				)
				(justify right)
			)
		)
		(property "Footprint" "Resistor_SMD:R_0805_2012Metric"
			(at 52.578 153.67 90)
			(effects
				(font
					(size 1.27 1.27)
				)
				(hide yes)
			)
		)
		(property "Datasheet" "~"
			(at 50.8 153.67 0)
			(effects
				(font
					(size 1.27 1.27)
				)
				(hide yes)
			)
		)
		(property "Description" ""
			(at 50.8 153.67 0)
			(effects
				(font
					(size 1.27 1.27)
				)
				(hide yes)
			)
		)
		(property "Place" "YES"
			(at 50.8 153.67 0)
			(effects
				(font
					(size 1.27 1.27)
				)
				(hide yes)
			)
		)
		(property "Provided" "NO"
			(at 50.8 153.67 0)
			(effects
				(font
					(size 1.27 1.27)
				)
				(hide yes)
			)
		)
		(pin "1"
			(uuid "cb3416f5-8d3b-40b7-aadf-a25bd012053a")
		)
		(pin "2"
			(uuid "a4678249-5b0b-49c4-8ba8-a2d6c8c87f87")
		)
		(instances
			(project "rfs_adapters"
				(path "/71d243da-e0b0-4f37-9617-4e4cc8f13378"
					(reference "R?")
					(unit 1)
				)
				(path "/71d243da-e0b0-4f37-9617-4e4cc8f13378/00000000-0000-0000-0000-000061ae0bd9"
					(reference "R501")
					(unit 1)
				)
			)
			(project "Accubeat_AR133"
				(path "/f7ab4b9e-e91e-4b9a-b33a-4d142488718e"
					(reference "R501")
					(unit 1)
				)
			)
		)
	)
	(symbol
		(lib_id "Connector:Conn_Coaxial")
		(at 93.98 20.32 0)
		(mirror y)
		(unit 1)
		(exclude_from_sim no)
		(in_bom yes)
		(on_board yes)
		(dnp no)
		(uuid "00000000-0000-0000-0000-000061baa2ac")
		(property "Reference" "J?"
			(at 91.44 20.955 0)
			(effects
				(font
					(size 1.27 1.27)
				)
				(justify left)
			)
		)
		(property "Value" "Amphenol 132289"
			(at 91.44 23.2664 0)
			(effects
				(font
					(size 1.27 1.27)
				)
				(justify left)
			)
		)
		(property "Footprint" "Connector_Coaxial:SMA_Amphenol_132291-12_Vertical"
			(at 93.98 20.32 0)
			(effects
				(font
					(size 1.27 1.27)
				)
				(hide yes)
			)
		)
		(property "Datasheet" " ~"
			(at 93.98 20.32 0)
			(effects
				(font
					(size 1.27 1.27)
				)
				(hide yes)
			)
		)
		(property "Description" ""
			(at 93.98 20.32 0)
			(effects
				(font
					(size 1.27 1.27)
				)
				(hide yes)
			)
		)
		(property "Place" "NO"
			(at 93.98 20.32 0)
			(effects
				(font
					(size 1.27 1.27)
				)
				(hide yes)
			)
		)
		(property "Provided" "NO"
			(at 93.98 20.32 0)
			(effects
				(font
					(size 1.27 1.27)
				)
				(hide yes)
			)
		)
		(property "Mouser" "523-132289"
			(at 93.98 20.32 0)
			(effects
				(font
					(size 1.27 1.27)
				)
				(hide yes)
			)
		)
		(property "TME" "132289"
			(at 93.98 20.32 0)
			(effects
				(font
					(size 1.27 1.27)
				)
				(hide yes)
			)
		)
		(pin "1"
			(uuid "ee92ac60-2661-4fe7-89b0-49c7d05f9876")
		)
		(pin "2"
			(uuid "76a91e40-22de-4bcb-96e9-f3b6052c5ef9")
		)
		(instances
			(project "rfs_adapters"
				(path "/71d243da-e0b0-4f37-9617-4e4cc8f13378"
					(reference "J?")
					(unit 1)
				)
				(path "/71d243da-e0b0-4f37-9617-4e4cc8f13378/00000000-0000-0000-0000-000061ae0bd9"
					(reference "J501")
					(unit 1)
				)
			)
			(project "Accubeat_AR133"
				(path "/f7ab4b9e-e91e-4b9a-b33a-4d142488718e"
					(reference "J501")
					(unit 1)
				)
			)
		)
	)
	(symbol
		(lib_id "Connector_Generic:Conn_02x20_Odd_Even")
		(at 39.37 161.29 0)
		(unit 1)
		(exclude_from_sim no)
		(in_bom yes)
		(on_board yes)
		(dnp no)
		(uuid "00000000-0000-0000-0000-000062899ce4")
		(property "Reference" "J503"
			(at 40.64 132.9182 0)
			(effects
				(font
					(size 1.27 1.27)
				)
			)
		)
		(property "Value" "MEC8-120-02-L-DV-A"
			(at 40.64 135.2296 0)
			(effects
				(font
					(size 1.27 1.27)
				)
			)
		)
		(property "Footprint" "LibreTimeBase:MEC8-120-02"
			(at 39.37 161.29 0)
			(effects
				(font
					(size 1.27 1.27)
				)
				(hide yes)
			)
		)
		(property "Datasheet" "https://suddendocs.samtec.com/prints/mec8-1xx-xx-xx-dv-xx-x-xx-mkt.pdf"
			(at 39.37 161.29 0)
			(effects
				(font
					(size 1.27 1.27)
				)
				(hide yes)
			)
		)
		(property "Description" ""
			(at 39.37 161.29 0)
			(effects
				(font
					(size 1.27 1.27)
				)
				(hide yes)
			)
		)
		(property "Place" "NO"
			(at 39.37 161.29 0)
			(effects
				(font
					(size 1.27 1.27)
				)
				(hide yes)
			)
		)
		(property "Provided" "NO"
			(at 39.37 161.29 0)
			(effects
				(font
					(size 1.27 1.27)
				)
				(hide yes)
			)
		)
		(pin "1"
			(uuid "5c70c40f-170b-4f53-9d3a-70f10cb62bc6")
		)
		(pin "10"
			(uuid "70e8c7f9-ea59-4ff3-a4c2-88a60de37a9a")
		)
		(pin "11"
			(uuid "7784270f-3c3e-4f30-a319-6aeca646e066")
		)
		(pin "12"
			(uuid "f3e46634-d8e5-4884-b64a-46f9881f17ca")
		)
		(pin "13"
			(uuid "76a67ccf-6454-4069-bf18-2ddccfae9333")
		)
		(pin "14"
			(uuid "6b8b65ed-25b7-462a-a22f-4a2ed5fb3842")
		)
		(pin "15"
			(uuid "b4909ef3-0ae1-4a49-8a7d-ed7bc73aa5f1")
		)
		(pin "16"
			(uuid "00de8738-e353-4faf-88bf-2d73bda34f46")
		)
		(pin "17"
			(uuid "50078173-90fe-4ea0-afb7-483bc72aafee")
		)
		(pin "18"
			(uuid "15536170-da74-4ef9-ac72-d73666962195")
		)
		(pin "19"
			(uuid "1f5ecc87-a5e5-492d-ae00-9d9fa80288c2")
		)
		(pin "2"
			(uuid "f4ac3464-84e3-41e7-bee0-c6364e12015e")
		)
		(pin "20"
			(uuid "f710a9d7-a34d-466d-9e7a-8122ee3e2f49")
		)
		(pin "21"
			(uuid "5088c3ec-0160-439e-b24a-29c9aa29e3ea")
		)
		(pin "22"
			(uuid "12e4bbbc-a24c-4153-a0f5-f1300c1f342e")
		)
		(pin "23"
			(uuid "7fdcf6fd-1cac-437c-85cb-b9f46398ee27")
		)
		(pin "24"
			(uuid "95697184-4e6f-4d3b-b3da-506d7744a519")
		)
		(pin "25"
			(uuid "7d61ef88-eb09-46e6-b710-f30de42add2c")
		)
		(pin "26"
			(uuid "1187bcc5-75df-4380-91f7-7a76d40da919")
		)
		(pin "27"
			(uuid "0519f6bd-8da4-48b1-8eb7-28ad62266523")
		)
		(pin "28"
			(uuid "74ba2ef4-712a-4ade-92b5-bd7559e2ad25")
		)
		(pin "29"
			(uuid "c459006e-ce63-4905-bb8a-ba4de5935b30")
		)
		(pin "3"
			(uuid "64c4bdaa-0217-4bab-9e4b-c872068ad2c5")
		)
		(pin "30"
			(uuid "b1fbab09-ac6a-4bf9-aa39-bd1cbf11d4d5")
		)
		(pin "31"
			(uuid "05c59ec6-69bb-48c1-84ae-e508aa259dac")
		)
		(pin "32"
			(uuid "1eac22b9-aa47-4e76-8978-ad9ff05aa202")
		)
		(pin "33"
			(uuid "a1d38f61-441a-4b7e-a0fc-6dacaf08d27f")
		)
		(pin "34"
			(uuid "0286b1bd-6a43-4bed-9cd9-bd1ab4ede012")
		)
		(pin "35"
			(uuid "a388ca8c-d3ac-4f95-a1e3-2a049147ad35")
		)
		(pin "36"
			(uuid "be83b390-7a83-4fdc-b11c-97b7ce7b4e62")
		)
		(pin "37"
			(uuid "f60db076-0725-4961-a208-3532bd4160fb")
		)
		(pin "38"
			(uuid "1da7de17-016f-474d-a4fb-6008ce81bafe")
		)
		(pin "39"
			(uuid "60fa3e2b-108d-4621-a09f-278cdc092c44")
		)
		(pin "4"
			(uuid "ce77ee60-ea7c-4b28-adc4-598747bc3b17")
		)
		(pin "40"
			(uuid "61d1cd3a-48dd-474d-89a6-2aa0c55a7053")
		)
		(pin "5"
			(uuid "c9fb7b4e-1827-43da-8ab9-663e3ce3c7a8")
		)
		(pin "6"
			(uuid "03c91d8f-14cb-4c0f-80f4-f66403da9f2d")
		)
		(pin "7"
			(uuid "18ca00a0-5dea-4b60-a681-7d0fdfe57626")
		)
		(pin "8"
			(uuid "f130fe1d-702d-4258-828f-1feda6ff6565")
		)
		(pin "9"
			(uuid "50113d1d-245b-4c82-8ee0-b037a1335dfa")
		)
		(instances
			(project "rfs_adapters"
				(path "/71d243da-e0b0-4f37-9617-4e4cc8f13378/00000000-0000-0000-0000-000061ae0bd9"
					(reference "J503")
					(unit 1)
				)
			)
			(project "Accubeat_AR133"
				(path "/f7ab4b9e-e91e-4b9a-b33a-4d142488718e"
					(reference "J503")
					(unit 1)
				)
			)
		)
	)
	(symbol
		(lib_id "power:GND")
		(at 48.26 191.77 0)
		(mirror y)
		(unit 1)
		(exclude_from_sim no)
		(in_bom yes)
		(on_board yes)
		(dnp no)
		(uuid "00000000-0000-0000-0000-000062899cfc")
		(property "Reference" "#PWR0507"
			(at 48.26 198.12 0)
			(effects
				(font
					(size 1.27 1.27)
				)
				(hide yes)
			)
		)
		(property "Value" "GND"
			(at 48.133 196.1642 0)
			(effects
				(font
					(size 1.27 1.27)
				)
			)
		)
		(property "Footprint" ""
			(at 48.26 191.77 0)
			(effects
				(font
					(size 1.27 1.27)
				)
				(hide yes)
			)
		)
		(property "Datasheet" ""
			(at 48.26 191.77 0)
			(effects
				(font
					(size 1.27 1.27)
				)
				(hide yes)
			)
		)
		(property "Description" ""
			(at 48.26 191.77 0)
			(effects
				(font
					(size 1.27 1.27)
				)
				(hide yes)
			)
		)
		(pin "1"
			(uuid "9b5be157-cc64-40bd-b435-0e7b2693f9ed")
		)
		(instances
			(project "rfs_adapters"
				(path "/71d243da-e0b0-4f37-9617-4e4cc8f13378"
					(reference "#PWR?")
					(unit 1)
				)
				(path "/71d243da-e0b0-4f37-9617-4e4cc8f13378/00000000-0000-0000-0000-000061ae0bd9"
					(reference "#PWR0507")
					(unit 1)
				)
			)
			(project "Accubeat_AR133"
				(path "/f7ab4b9e-e91e-4b9a-b33a-4d142488718e"
					(reference "#PWR0507")
					(unit 1)
				)
			)
		)
	)
	(symbol
		(lib_id "power:Earth")
		(at 52.07 191.77 0)
		(mirror y)
		(unit 1)
		(exclude_from_sim no)
		(in_bom yes)
		(on_board yes)
		(dnp no)
		(uuid "00000000-0000-0000-0000-000062899d03")
		(property "Reference" "#PWR0508"
			(at 52.07 198.12 0)
			(effects
				(font
					(size 1.27 1.27)
				)
				(hide yes)
			)
		)
		(property "Value" "Earth"
			(at 52.07 195.58 0)
			(effects
				(font
					(size 1.27 1.27)
				)
				(hide yes)
			)
		)
		(property "Footprint" ""
			(at 52.07 191.77 0)
			(effects
				(font
					(size 1.27 1.27)
				)
				(hide yes)
			)
		)
		(property "Datasheet" "~"
			(at 52.07 191.77 0)
			(effects
				(font
					(size 1.27 1.27)
				)
				(hide yes)
			)
		)
		(property "Description" ""
			(at 52.07 191.77 0)
			(effects
				(font
					(size 1.27 1.27)
				)
				(hide yes)
			)
		)
		(pin "1"
			(uuid "5f91c0f8-34cd-40db-85fc-10523d5d58c3")
		)
		(instances
			(project "rfs_adapters"
				(path "/71d243da-e0b0-4f37-9617-4e4cc8f13378"
					(reference "#PWR?")
					(unit 1)
				)
				(path "/71d243da-e0b0-4f37-9617-4e4cc8f13378/00000000-0000-0000-0000-000061ae0bd9"
					(reference "#PWR0508")
					(unit 1)
				)
			)
			(project "Accubeat_AR133"
				(path "/f7ab4b9e-e91e-4b9a-b33a-4d142488718e"
					(reference "#PWR0508")
					(unit 1)
				)
			)
		)
	)
	(symbol
		(lib_id "power:GND")
		(at 33.02 133.35 0)
		(mirror x)
		(unit 1)
		(exclude_from_sim no)
		(in_bom yes)
		(on_board yes)
		(dnp no)
		(uuid "00000000-0000-0000-0000-000062899d1b")
		(property "Reference" "#PWR0506"
			(at 33.02 127 0)
			(effects
				(font
					(size 1.27 1.27)
				)
				(hide yes)
			)
		)
		(property "Value" "GND"
			(at 33.147 128.9558 0)
			(effects
				(font
					(size 1.27 1.27)
				)
			)
		)
		(property "Footprint" ""
			(at 33.02 133.35 0)
			(effects
				(font
					(size 1.27 1.27)
				)
				(hide yes)
			)
		)
		(property "Datasheet" ""
			(at 33.02 133.35 0)
			(effects
				(font
					(size 1.27 1.27)
				)
				(hide yes)
			)
		)
		(property "Description" ""
			(at 33.02 133.35 0)
			(effects
				(font
					(size 1.27 1.27)
				)
				(hide yes)
			)
		)
		(pin "1"
			(uuid "e3899dbc-0eb4-4389-8db2-ee91c946ff93")
		)
		(instances
			(project "rfs_adapters"
				(path "/71d243da-e0b0-4f37-9617-4e4cc8f13378"
					(reference "#PWR?")
					(unit 1)
				)
				(path "/71d243da-e0b0-4f37-9617-4e4cc8f13378/00000000-0000-0000-0000-000061ae0bd9"
					(reference "#PWR0506")
					(unit 1)
				)
			)
			(project "Accubeat_AR133"
				(path "/f7ab4b9e-e91e-4b9a-b33a-4d142488718e"
					(reference "#PWR0506")
					(unit 1)
				)
			)
		)
	)
	(symbol
		(lib_id "power:Earth")
		(at 29.21 133.35 0)
		(mirror x)
		(unit 1)
		(exclude_from_sim no)
		(in_bom yes)
		(on_board yes)
		(dnp no)
		(uuid "00000000-0000-0000-0000-000062899d27")
		(property "Reference" "#PWR0505"
			(at 29.21 127 0)
			(effects
				(font
					(size 1.27 1.27)
				)
				(hide yes)
			)
		)
		(property "Value" "Earth"
			(at 29.21 129.54 0)
			(effects
				(font
					(size 1.27 1.27)
				)
				(hide yes)
			)
		)
		(property "Footprint" ""
			(at 29.21 133.35 0)
			(effects
				(font
					(size 1.27 1.27)
				)
				(hide yes)
			)
		)
		(property "Datasheet" "~"
			(at 29.21 133.35 0)
			(effects
				(font
					(size 1.27 1.27)
				)
				(hide yes)
			)
		)
		(property "Description" ""
			(at 29.21 133.35 0)
			(effects
				(font
					(size 1.27 1.27)
				)
				(hide yes)
			)
		)
		(pin "1"
			(uuid "f03b54af-5120-44aa-abf9-666fa7393c08")
		)
		(instances
			(project "rfs_adapters"
				(path "/71d243da-e0b0-4f37-9617-4e4cc8f13378"
					(reference "#PWR?")
					(unit 1)
				)
				(path "/71d243da-e0b0-4f37-9617-4e4cc8f13378/00000000-0000-0000-0000-000061ae0bd9"
					(reference "#PWR0505")
					(unit 1)
				)
			)
			(project "Accubeat_AR133"
				(path "/f7ab4b9e-e91e-4b9a-b33a-4d142488718e"
					(reference "#PWR0505")
					(unit 1)
				)
			)
		)
	)
	(sheet_instances
		(path "/"
			(page "1")
		)
	)
)
