(kicad_sch
	(version 20231120)
	(generator "eeschema")
	(generator_version "8.0")
	(uuid "cd69ec6b-d45e-4686-b1ac-53f48c313b89")
	(paper "A4")
	(lib_symbols
		(symbol "Connector_Generic:Conn_02x05_Odd_Even"
			(pin_names
				(offset 1.016) hide)
			(exclude_from_sim no)
			(in_bom yes)
			(on_board yes)
			(property "Reference" "J"
				(at 1.27 7.62 0)
				(effects
					(font
						(size 1.27 1.27)
					)
				)
			)
			(property "Value" "Conn_02x05_Odd_Even"
				(at 1.27 -7.62 0)
				(effects
					(font
						(size 1.27 1.27)
					)
				)
			)
			(property "Footprint" ""
				(at 0 0 0)
				(effects
					(font
						(size 1.27 1.27)
					)
					(hide yes)
				)
			)
			(property "Datasheet" "~"
				(at 0 0 0)
				(effects
					(font
						(size 1.27 1.27)
					)
					(hide yes)
				)
			)
			(property "Description" "Generic connector, double row, 02x05, odd/even pin numbering scheme (row 1 odd numbers, row 2 even numbers), script generated (kicad-library-utils/schlib/autogen/connector/)"
				(at 0 0 0)
				(effects
					(font
						(size 1.27 1.27)
					)
					(hide yes)
				)
			)
			(property "ki_keywords" "connector"
				(at 0 0 0)
				(effects
					(font
						(size 1.27 1.27)
					)
					(hide yes)
				)
			)
			(property "ki_fp_filters" "Connector*:*_2x??_*"
				(at 0 0 0)
				(effects
					(font
						(size 1.27 1.27)
					)
					(hide yes)
				)
			)
			(symbol "Conn_02x05_Odd_Even_1_1"
				(rectangle
					(start -1.27 -4.953)
					(end 0 -5.207)
					(stroke
						(width 0.1524)
						(type default)
					)
					(fill
						(type none)
					)
				)
				(rectangle
					(start -1.27 -2.413)
					(end 0 -2.667)
					(stroke
						(width 0.1524)
						(type default)
					)
					(fill
						(type none)
					)
				)
				(rectangle
					(start -1.27 0.127)
					(end 0 -0.127)
					(stroke
						(width 0.1524)
						(type default)
					)
					(fill
						(type none)
					)
				)
				(rectangle
					(start -1.27 2.667)
					(end 0 2.413)
					(stroke
						(width 0.1524)
						(type default)
					)
					(fill
						(type none)
					)
				)
				(rectangle
					(start -1.27 5.207)
					(end 0 4.953)
					(stroke
						(width 0.1524)
						(type default)
					)
					(fill
						(type none)
					)
				)
				(rectangle
					(start -1.27 6.35)
					(end 3.81 -6.35)
					(stroke
						(width 0.254)
						(type default)
					)
					(fill
						(type background)
					)
				)
				(rectangle
					(start 3.81 -4.953)
					(end 2.54 -5.207)
					(stroke
						(width 0.1524)
						(type default)
					)
					(fill
						(type none)
					)
				)
				(rectangle
					(start 3.81 -2.413)
					(end 2.54 -2.667)
					(stroke
						(width 0.1524)
						(type default)
					)
					(fill
						(type none)
					)
				)
				(rectangle
					(start 3.81 0.127)
					(end 2.54 -0.127)
					(stroke
						(width 0.1524)
						(type default)
					)
					(fill
						(type none)
					)
				)
				(rectangle
					(start 3.81 2.667)
					(end 2.54 2.413)
					(stroke
						(width 0.1524)
						(type default)
					)
					(fill
						(type none)
					)
				)
				(rectangle
					(start 3.81 5.207)
					(end 2.54 4.953)
					(stroke
						(width 0.1524)
						(type default)
					)
					(fill
						(type none)
					)
				)
				(pin passive line
					(at -5.08 5.08 0)
					(length 3.81)
					(name "Pin_1"
						(effects
							(font
								(size 1.27 1.27)
							)
						)
					)
					(number "1"
						(effects
							(font
								(size 1.27 1.27)
							)
						)
					)
				)
				(pin passive line
					(at 7.62 -5.08 180)
					(length 3.81)
					(name "Pin_10"
						(effects
							(font
								(size 1.27 1.27)
							)
						)
					)
					(number "10"
						(effects
							(font
								(size 1.27 1.27)
							)
						)
					)
				)
				(pin passive line
					(at 7.62 5.08 180)
					(length 3.81)
					(name "Pin_2"
						(effects
							(font
								(size 1.27 1.27)
							)
						)
					)
					(number "2"
						(effects
							(font
								(size 1.27 1.27)
							)
						)
					)
				)
				(pin passive line
					(at -5.08 2.54 0)
					(length 3.81)
					(name "Pin_3"
						(effects
							(font
								(size 1.27 1.27)
							)
						)
					)
					(number "3"
						(effects
							(font
								(size 1.27 1.27)
							)
						)
					)
				)
				(pin passive line
					(at 7.62 2.54 180)
					(length 3.81)
					(name "Pin_4"
						(effects
							(font
								(size 1.27 1.27)
							)
						)
					)
					(number "4"
						(effects
							(font
								(size 1.27 1.27)
							)
						)
					)
				)
				(pin passive line
					(at -5.08 0 0)
					(length 3.81)
					(name "Pin_5"
						(effects
							(font
								(size 1.27 1.27)
							)
						)
					)
					(number "5"
						(effects
							(font
								(size 1.27 1.27)
							)
						)
					)
				)
				(pin passive line
					(at 7.62 0 180)
					(length 3.81)
					(name "Pin_6"
						(effects
							(font
								(size 1.27 1.27)
							)
						)
					)
					(number "6"
						(effects
							(font
								(size 1.27 1.27)
							)
						)
					)
				)
				(pin passive line
					(at -5.08 -2.54 0)
					(length 3.81)
					(name "Pin_7"
						(effects
							(font
								(size 1.27 1.27)
							)
						)
					)
					(number "7"
						(effects
							(font
								(size 1.27 1.27)
							)
						)
					)
				)
				(pin passive line
					(at 7.62 -2.54 180)
					(length 3.81)
					(name "Pin_8"
						(effects
							(font
								(size 1.27 1.27)
							)
						)
					)
					(number "8"
						(effects
							(font
								(size 1.27 1.27)
							)
						)
					)
				)
				(pin passive line
					(at -5.08 -5.08 0)
					(length 3.81)
					(name "Pin_9"
						(effects
							(font
								(size 1.27 1.27)
							)
						)
					)
					(number "9"
						(effects
							(font
								(size 1.27 1.27)
							)
						)
					)
				)
			)
		)
		(symbol "Connector_Generic:Conn_02x20_Odd_Even"
			(pin_names
				(offset 1.016) hide)
			(exclude_from_sim no)
			(in_bom yes)
			(on_board yes)
			(property "Reference" "J"
				(at 1.27 25.4 0)
				(effects
					(font
						(size 1.27 1.27)
					)
				)
			)
			(property "Value" "Conn_02x20_Odd_Even"
				(at 1.27 -27.94 0)
				(effects
					(font
						(size 1.27 1.27)
					)
				)
			)
			(property "Footprint" ""
				(at 0 0 0)
				(effects
					(font
						(size 1.27 1.27)
					)
					(hide yes)
				)
			)
			(property "Datasheet" "~"
				(at 0 0 0)
				(effects
					(font
						(size 1.27 1.27)
					)
					(hide yes)
				)
			)
			(property "Description" "Generic connector, double row, 02x20, odd/even pin numbering scheme (row 1 odd numbers, row 2 even numbers), script generated (kicad-library-utils/schlib/autogen/connector/)"
				(at 0 0 0)
				(effects
					(font
						(size 1.27 1.27)
					)
					(hide yes)
				)
			)
			(property "ki_keywords" "connector"
				(at 0 0 0)
				(effects
					(font
						(size 1.27 1.27)
					)
					(hide yes)
				)
			)
			(property "ki_fp_filters" "Connector*:*_2x??_*"
				(at 0 0 0)
				(effects
					(font
						(size 1.27 1.27)
					)
					(hide yes)
				)
			)
			(symbol "Conn_02x20_Odd_Even_1_1"
				(rectangle
					(start -1.27 -25.273)
					(end 0 -25.527)
					(stroke
						(width 0.1524)
						(type default)
					)
					(fill
						(type none)
					)
				)
				(rectangle
					(start -1.27 -22.733)
					(end 0 -22.987)
					(stroke
						(width 0.1524)
						(type default)
					)
					(fill
						(type none)
					)
				)
				(rectangle
					(start -1.27 -20.193)
					(end 0 -20.447)
					(stroke
						(width 0.1524)
						(type default)
					)
					(fill
						(type none)
					)
				)
				(rectangle
					(start -1.27 -17.653)
					(end 0 -17.907)
					(stroke
						(width 0.1524)
						(type default)
					)
					(fill
						(type none)
					)
				)
				(rectangle
					(start -1.27 -15.113)
					(end 0 -15.367)
					(stroke
						(width 0.1524)
						(type default)
					)
					(fill
						(type none)
					)
				)
				(rectangle
					(start -1.27 -12.573)
					(end 0 -12.827)
					(stroke
						(width 0.1524)
						(type default)
					)
					(fill
						(type none)
					)
				)
				(rectangle
					(start -1.27 -10.033)
					(end 0 -10.287)
					(stroke
						(width 0.1524)
						(type default)
					)
					(fill
						(type none)
					)
				)
				(rectangle
					(start -1.27 -7.493)
					(end 0 -7.747)
					(stroke
						(width 0.1524)
						(type default)
					)
					(fill
						(type none)
					)
				)
				(rectangle
					(start -1.27 -4.953)
					(end 0 -5.207)
					(stroke
						(width 0.1524)
						(type default)
					)
					(fill
						(type none)
					)
				)
				(rectangle
					(start -1.27 -2.413)
					(end 0 -2.667)
					(stroke
						(width 0.1524)
						(type default)
					)
					(fill
						(type none)
					)
				)
				(rectangle
					(start -1.27 0.127)
					(end 0 -0.127)
					(stroke
						(width 0.1524)
						(type default)
					)
					(fill
						(type none)
					)
				)
				(rectangle
					(start -1.27 2.667)
					(end 0 2.413)
					(stroke
						(width 0.1524)
						(type default)
					)
					(fill
						(type none)
					)
				)
				(rectangle
					(start -1.27 5.207)
					(end 0 4.953)
					(stroke
						(width 0.1524)
						(type default)
					)
					(fill
						(type none)
					)
				)
				(rectangle
					(start -1.27 7.747)
					(end 0 7.493)
					(stroke
						(width 0.1524)
						(type default)
					)
					(fill
						(type none)
					)
				)
				(rectangle
					(start -1.27 10.287)
					(end 0 10.033)
					(stroke
						(width 0.1524)
						(type default)
					)
					(fill
						(type none)
					)
				)
				(rectangle
					(start -1.27 12.827)
					(end 0 12.573)
					(stroke
						(width 0.1524)
						(type default)
					)
					(fill
						(type none)
					)
				)
				(rectangle
					(start -1.27 15.367)
					(end 0 15.113)
					(stroke
						(width 0.1524)
						(type default)
					)
					(fill
						(type none)
					)
				)
				(rectangle
					(start -1.27 17.907)
					(end 0 17.653)
					(stroke
						(width 0.1524)
						(type default)
					)
					(fill
						(type none)
					)
				)
				(rectangle
					(start -1.27 20.447)
					(end 0 20.193)
					(stroke
						(width 0.1524)
						(type default)
					)
					(fill
						(type none)
					)
				)
				(rectangle
					(start -1.27 22.987)
					(end 0 22.733)
					(stroke
						(width 0.1524)
						(type default)
					)
					(fill
						(type none)
					)
				)
				(rectangle
					(start -1.27 24.13)
					(end 3.81 -26.67)
					(stroke
						(width 0.254)
						(type default)
					)
					(fill
						(type background)
					)
				)
				(rectangle
					(start 3.81 -25.273)
					(end 2.54 -25.527)
					(stroke
						(width 0.1524)
						(type default)
					)
					(fill
						(type none)
					)
				)
				(rectangle
					(start 3.81 -22.733)
					(end 2.54 -22.987)
					(stroke
						(width 0.1524)
						(type default)
					)
					(fill
						(type none)
					)
				)
				(rectangle
					(start 3.81 -20.193)
					(end 2.54 -20.447)
					(stroke
						(width 0.1524)
						(type default)
					)
					(fill
						(type none)
					)
				)
				(rectangle
					(start 3.81 -17.653)
					(end 2.54 -17.907)
					(stroke
						(width 0.1524)
						(type default)
					)
					(fill
						(type none)
					)
				)
				(rectangle
					(start 3.81 -15.113)
					(end 2.54 -15.367)
					(stroke
						(width 0.1524)
						(type default)
					)
					(fill
						(type none)
					)
				)
				(rectangle
					(start 3.81 -12.573)
					(end 2.54 -12.827)
					(stroke
						(width 0.1524)
						(type default)
					)
					(fill
						(type none)
					)
				)
				(rectangle
					(start 3.81 -10.033)
					(end 2.54 -10.287)
					(stroke
						(width 0.1524)
						(type default)
					)
					(fill
						(type none)
					)
				)
				(rectangle
					(start 3.81 -7.493)
					(end 2.54 -7.747)
					(stroke
						(width 0.1524)
						(type default)
					)
					(fill
						(type none)
					)
				)
				(rectangle
					(start 3.81 -4.953)
					(end 2.54 -5.207)
					(stroke
						(width 0.1524)
						(type default)
					)
					(fill
						(type none)
					)
				)
				(rectangle
					(start 3.81 -2.413)
					(end 2.54 -2.667)
					(stroke
						(width 0.1524)
						(type default)
					)
					(fill
						(type none)
					)
				)
				(rectangle
					(start 3.81 0.127)
					(end 2.54 -0.127)
					(stroke
						(width 0.1524)
						(type default)
					)
					(fill
						(type none)
					)
				)
				(rectangle
					(start 3.81 2.667)
					(end 2.54 2.413)
					(stroke
						(width 0.1524)
						(type default)
					)
					(fill
						(type none)
					)
				)
				(rectangle
					(start 3.81 5.207)
					(end 2.54 4.953)
					(stroke
						(width 0.1524)
						(type default)
					)
					(fill
						(type none)
					)
				)
				(rectangle
					(start 3.81 7.747)
					(end 2.54 7.493)
					(stroke
						(width 0.1524)
						(type default)
					)
					(fill
						(type none)
					)
				)
				(rectangle
					(start 3.81 10.287)
					(end 2.54 10.033)
					(stroke
						(width 0.1524)
						(type default)
					)
					(fill
						(type none)
					)
				)
				(rectangle
					(start 3.81 12.827)
					(end 2.54 12.573)
					(stroke
						(width 0.1524)
						(type default)
					)
					(fill
						(type none)
					)
				)
				(rectangle
					(start 3.81 15.367)
					(end 2.54 15.113)
					(stroke
						(width 0.1524)
						(type default)
					)
					(fill
						(type none)
					)
				)
				(rectangle
					(start 3.81 17.907)
					(end 2.54 17.653)
					(stroke
						(width 0.1524)
						(type default)
					)
					(fill
						(type none)
					)
				)
				(rectangle
					(start 3.81 20.447)
					(end 2.54 20.193)
					(stroke
						(width 0.1524)
						(type default)
					)
					(fill
						(type none)
					)
				)
				(rectangle
					(start 3.81 22.987)
					(end 2.54 22.733)
					(stroke
						(width 0.1524)
						(type default)
					)
					(fill
						(type none)
					)
				)
				(pin passive line
					(at -5.08 22.86 0)
					(length 3.81)
					(name "Pin_1"
						(effects
							(font
								(size 1.27 1.27)
							)
						)
					)
					(number "1"
						(effects
							(font
								(size 1.27 1.27)
							)
						)
					)
				)
				(pin passive line
					(at 7.62 12.7 180)
					(length 3.81)
					(name "Pin_10"
						(effects
							(font
								(size 1.27 1.27)
							)
						)
					)
					(number "10"
						(effects
							(font
								(size 1.27 1.27)
							)
						)
					)
				)
				(pin passive line
					(at -5.08 10.16 0)
					(length 3.81)
					(name "Pin_11"
						(effects
							(font
								(size 1.27 1.27)
							)
						)
					)
					(number "11"
						(effects
							(font
								(size 1.27 1.27)
							)
						)
					)
				)
				(pin passive line
					(at 7.62 10.16 180)
					(length 3.81)
					(name "Pin_12"
						(effects
							(font
								(size 1.27 1.27)
							)
						)
					)
					(number "12"
						(effects
							(font
								(size 1.27 1.27)
							)
						)
					)
				)
				(pin passive line
					(at -5.08 7.62 0)
					(length 3.81)
					(name "Pin_13"
						(effects
							(font
								(size 1.27 1.27)
							)
						)
					)
					(number "13"
						(effects
							(font
								(size 1.27 1.27)
							)
						)
					)
				)
				(pin passive line
					(at 7.62 7.62 180)
					(length 3.81)
					(name "Pin_14"
						(effects
							(font
								(size 1.27 1.27)
							)
						)
					)
					(number "14"
						(effects
							(font
								(size 1.27 1.27)
							)
						)
					)
				)
				(pin passive line
					(at -5.08 5.08 0)
					(length 3.81)
					(name "Pin_15"
						(effects
							(font
								(size 1.27 1.27)
							)
						)
					)
					(number "15"
						(effects
							(font
								(size 1.27 1.27)
							)
						)
					)
				)
				(pin passive line
					(at 7.62 5.08 180)
					(length 3.81)
					(name "Pin_16"
						(effects
							(font
								(size 1.27 1.27)
							)
						)
					)
					(number "16"
						(effects
							(font
								(size 1.27 1.27)
							)
						)
					)
				)
				(pin passive line
					(at -5.08 2.54 0)
					(length 3.81)
					(name "Pin_17"
						(effects
							(font
								(size 1.27 1.27)
							)
						)
					)
					(number "17"
						(effects
							(font
								(size 1.27 1.27)
							)
						)
					)
				)
				(pin passive line
					(at 7.62 2.54 180)
					(length 3.81)
					(name "Pin_18"
						(effects
							(font
								(size 1.27 1.27)
							)
						)
					)
					(number "18"
						(effects
							(font
								(size 1.27 1.27)
							)
						)
					)
				)
				(pin passive line
					(at -5.08 0 0)
					(length 3.81)
					(name "Pin_19"
						(effects
							(font
								(size 1.27 1.27)
							)
						)
					)
					(number "19"
						(effects
							(font
								(size 1.27 1.27)
							)
						)
					)
				)
				(pin passive line
					(at 7.62 22.86 180)
					(length 3.81)
					(name "Pin_2"
						(effects
							(font
								(size 1.27 1.27)
							)
						)
					)
					(number "2"
						(effects
							(font
								(size 1.27 1.27)
							)
						)
					)
				)
				(pin passive line
					(at 7.62 0 180)
					(length 3.81)
					(name "Pin_20"
						(effects
							(font
								(size 1.27 1.27)
							)
						)
					)
					(number "20"
						(effects
							(font
								(size 1.27 1.27)
							)
						)
					)
				)
				(pin passive line
					(at -5.08 -2.54 0)
					(length 3.81)
					(name "Pin_21"
						(effects
							(font
								(size 1.27 1.27)
							)
						)
					)
					(number "21"
						(effects
							(font
								(size 1.27 1.27)
							)
						)
					)
				)
				(pin passive line
					(at 7.62 -2.54 180)
					(length 3.81)
					(name "Pin_22"
						(effects
							(font
								(size 1.27 1.27)
							)
						)
					)
					(number "22"
						(effects
							(font
								(size 1.27 1.27)
							)
						)
					)
				)
				(pin passive line
					(at -5.08 -5.08 0)
					(length 3.81)
					(name "Pin_23"
						(effects
							(font
								(size 1.27 1.27)
							)
						)
					)
					(number "23"
						(effects
							(font
								(size 1.27 1.27)
							)
						)
					)
				)
				(pin passive line
					(at 7.62 -5.08 180)
					(length 3.81)
					(name "Pin_24"
						(effects
							(font
								(size 1.27 1.27)
							)
						)
					)
					(number "24"
						(effects
							(font
								(size 1.27 1.27)
							)
						)
					)
				)
				(pin passive line
					(at -5.08 -7.62 0)
					(length 3.81)
					(name "Pin_25"
						(effects
							(font
								(size 1.27 1.27)
							)
						)
					)
					(number "25"
						(effects
							(font
								(size 1.27 1.27)
							)
						)
					)
				)
				(pin passive line
					(at 7.62 -7.62 180)
					(length 3.81)
					(name "Pin_26"
						(effects
							(font
								(size 1.27 1.27)
							)
						)
					)
					(number "26"
						(effects
							(font
								(size 1.27 1.27)
							)
						)
					)
				)
				(pin passive line
					(at -5.08 -10.16 0)
					(length 3.81)
					(name "Pin_27"
						(effects
							(font
								(size 1.27 1.27)
							)
						)
					)
					(number "27"
						(effects
							(font
								(size 1.27 1.27)
							)
						)
					)
				)
				(pin passive line
					(at 7.62 -10.16 180)
					(length 3.81)
					(name "Pin_28"
						(effects
							(font
								(size 1.27 1.27)
							)
						)
					)
					(number "28"
						(effects
							(font
								(size 1.27 1.27)
							)
						)
					)
				)
				(pin passive line
					(at -5.08 -12.7 0)
					(length 3.81)
					(name "Pin_29"
						(effects
							(font
								(size 1.27 1.27)
							)
						)
					)
					(number "29"
						(effects
							(font
								(size 1.27 1.27)
							)
						)
					)
				)
				(pin passive line
					(at -5.08 20.32 0)
					(length 3.81)
					(name "Pin_3"
						(effects
							(font
								(size 1.27 1.27)
							)
						)
					)
					(number "3"
						(effects
							(font
								(size 1.27 1.27)
							)
						)
					)
				)
				(pin passive line
					(at 7.62 -12.7 180)
					(length 3.81)
					(name "Pin_30"
						(effects
							(font
								(size 1.27 1.27)
							)
						)
					)
					(number "30"
						(effects
							(font
								(size 1.27 1.27)
							)
						)
					)
				)
				(pin passive line
					(at -5.08 -15.24 0)
					(length 3.81)
					(name "Pin_31"
						(effects
							(font
								(size 1.27 1.27)
							)
						)
					)
					(number "31"
						(effects
							(font
								(size 1.27 1.27)
							)
						)
					)
				)
				(pin passive line
					(at 7.62 -15.24 180)
					(length 3.81)
					(name "Pin_32"
						(effects
							(font
								(size 1.27 1.27)
							)
						)
					)
					(number "32"
						(effects
							(font
								(size 1.27 1.27)
							)
						)
					)
				)
				(pin passive line
					(at -5.08 -17.78 0)
					(length 3.81)
					(name "Pin_33"
						(effects
							(font
								(size 1.27 1.27)
							)
						)
					)
					(number "33"
						(effects
							(font
								(size 1.27 1.27)
							)
						)
					)
				)
				(pin passive line
					(at 7.62 -17.78 180)
					(length 3.81)
					(name "Pin_34"
						(effects
							(font
								(size 1.27 1.27)
							)
						)
					)
					(number "34"
						(effects
							(font
								(size 1.27 1.27)
							)
						)
					)
				)
				(pin passive line
					(at -5.08 -20.32 0)
					(length 3.81)
					(name "Pin_35"
						(effects
							(font
								(size 1.27 1.27)
							)
						)
					)
					(number "35"
						(effects
							(font
								(size 1.27 1.27)
							)
						)
					)
				)
				(pin passive line
					(at 7.62 -20.32 180)
					(length 3.81)
					(name "Pin_36"
						(effects
							(font
								(size 1.27 1.27)
							)
						)
					)
					(number "36"
						(effects
							(font
								(size 1.27 1.27)
							)
						)
					)
				)
				(pin passive line
					(at -5.08 -22.86 0)
					(length 3.81)
					(name "Pin_37"
						(effects
							(font
								(size 1.27 1.27)
							)
						)
					)
					(number "37"
						(effects
							(font
								(size 1.27 1.27)
							)
						)
					)
				)
				(pin passive line
					(at 7.62 -22.86 180)
					(length 3.81)
					(name "Pin_38"
						(effects
							(font
								(size 1.27 1.27)
							)
						)
					)
					(number "38"
						(effects
							(font
								(size 1.27 1.27)
							)
						)
					)
				)
				(pin passive line
					(at -5.08 -25.4 0)
					(length 3.81)
					(name "Pin_39"
						(effects
							(font
								(size 1.27 1.27)
							)
						)
					)
					(number "39"
						(effects
							(font
								(size 1.27 1.27)
							)
						)
					)
				)
				(pin passive line
					(at 7.62 20.32 180)
					(length 3.81)
					(name "Pin_4"
						(effects
							(font
								(size 1.27 1.27)
							)
						)
					)
					(number "4"
						(effects
							(font
								(size 1.27 1.27)
							)
						)
					)
				)
				(pin passive line
					(at 7.62 -25.4 180)
					(length 3.81)
					(name "Pin_40"
						(effects
							(font
								(size 1.27 1.27)
							)
						)
					)
					(number "40"
						(effects
							(font
								(size 1.27 1.27)
							)
						)
					)
				)
				(pin passive line
					(at -5.08 17.78 0)
					(length 3.81)
					(name "Pin_5"
						(effects
							(font
								(size 1.27 1.27)
							)
						)
					)
					(number "5"
						(effects
							(font
								(size 1.27 1.27)
							)
						)
					)
				)
				(pin passive line
					(at 7.62 17.78 180)
					(length 3.81)
					(name "Pin_6"
						(effects
							(font
								(size 1.27 1.27)
							)
						)
					)
					(number "6"
						(effects
							(font
								(size 1.27 1.27)
							)
						)
					)
				)
				(pin passive line
					(at -5.08 15.24 0)
					(length 3.81)
					(name "Pin_7"
						(effects
							(font
								(size 1.27 1.27)
							)
						)
					)
					(number "7"
						(effects
							(font
								(size 1.27 1.27)
							)
						)
					)
				)
				(pin passive line
					(at 7.62 15.24 180)
					(length 3.81)
					(name "Pin_8"
						(effects
							(font
								(size 1.27 1.27)
							)
						)
					)
					(number "8"
						(effects
							(font
								(size 1.27 1.27)
							)
						)
					)
				)
				(pin passive line
					(at -5.08 12.7 0)
					(length 3.81)
					(name "Pin_9"
						(effects
							(font
								(size 1.27 1.27)
							)
						)
					)
					(number "9"
						(effects
							(font
								(size 1.27 1.27)
							)
						)
					)
				)
			)
		)
		(symbol "Device:R"
			(pin_numbers hide)
			(pin_names
				(offset 0)
			)
			(exclude_from_sim no)
			(in_bom yes)
			(on_board yes)
			(property "Reference" "R"
				(at 2.032 0 90)
				(effects
					(font
						(size 1.27 1.27)
					)
				)
			)
			(property "Value" "R"
				(at 0 0 90)
				(effects
					(font
						(size 1.27 1.27)
					)
				)
			)
			(property "Footprint" ""
				(at -1.778 0 90)
				(effects
					(font
						(size 1.27 1.27)
					)
					(hide yes)
				)
			)
			(property "Datasheet" "~"
				(at 0 0 0)
				(effects
					(font
						(size 1.27 1.27)
					)
					(hide yes)
				)
			)
			(property "Description" "Resistor"
				(at 0 0 0)
				(effects
					(font
						(size 1.27 1.27)
					)
					(hide yes)
				)
			)
			(property "ki_keywords" "R res resistor"
				(at 0 0 0)
				(effects
					(font
						(size 1.27 1.27)
					)
					(hide yes)
				)
			)
			(property "ki_fp_filters" "R_*"
				(at 0 0 0)
				(effects
					(font
						(size 1.27 1.27)
					)
					(hide yes)
				)
			)
			(symbol "R_0_1"
				(rectangle
					(start -1.016 -2.54)
					(end 1.016 2.54)
					(stroke
						(width 0.254)
						(type default)
					)
					(fill
						(type none)
					)
				)
			)
			(symbol "R_1_1"
				(pin passive line
					(at 0 3.81 270)
					(length 1.27)
					(name "~"
						(effects
							(font
								(size 1.27 1.27)
							)
						)
					)
					(number "1"
						(effects
							(font
								(size 1.27 1.27)
							)
						)
					)
				)
				(pin passive line
					(at 0 -3.81 90)
					(length 1.27)
					(name "~"
						(effects
							(font
								(size 1.27 1.27)
							)
						)
					)
					(number "2"
						(effects
							(font
								(size 1.27 1.27)
							)
						)
					)
				)
			)
		)
		(symbol "power:Earth"
			(power)
			(pin_names
				(offset 0)
			)
			(exclude_from_sim no)
			(in_bom yes)
			(on_board yes)
			(property "Reference" "#PWR"
				(at 0 -6.35 0)
				(effects
					(font
						(size 1.27 1.27)
					)
					(hide yes)
				)
			)
			(property "Value" "Earth"
				(at 0 -3.81 0)
				(effects
					(font
						(size 1.27 1.27)
					)
					(hide yes)
				)
			)
			(property "Footprint" ""
				(at 0 0 0)
				(effects
					(font
						(size 1.27 1.27)
					)
					(hide yes)
				)
			)
			(property "Datasheet" "~"
				(at 0 0 0)
				(effects
					(font
						(size 1.27 1.27)
					)
					(hide yes)
				)
			)
			(property "Description" "Power symbol creates a global label with name \"Earth\""
				(at 0 0 0)
				(effects
					(font
						(size 1.27 1.27)
					)
					(hide yes)
				)
			)
			(property "ki_keywords" "global ground gnd"
				(at 0 0 0)
				(effects
					(font
						(size 1.27 1.27)
					)
					(hide yes)
				)
			)
			(symbol "Earth_0_1"
				(polyline
					(pts
						(xy -0.635 -1.905) (xy 0.635 -1.905)
					)
					(stroke
						(width 0)
						(type default)
					)
					(fill
						(type none)
					)
				)
				(polyline
					(pts
						(xy -0.127 -2.54) (xy 0.127 -2.54)
					)
					(stroke
						(width 0)
						(type default)
					)
					(fill
						(type none)
					)
				)
				(polyline
					(pts
						(xy 0 -1.27) (xy 0 0)
					)
					(stroke
						(width 0)
						(type default)
					)
					(fill
						(type none)
					)
				)
				(polyline
					(pts
						(xy 1.27 -1.27) (xy -1.27 -1.27)
					)
					(stroke
						(width 0)
						(type default)
					)
					(fill
						(type none)
					)
				)
			)
			(symbol "Earth_1_1"
				(pin power_in line
					(at 0 0 270)
					(length 0) hide
					(name "Earth"
						(effects
							(font
								(size 1.27 1.27)
							)
						)
					)
					(number "1"
						(effects
							(font
								(size 1.27 1.27)
							)
						)
					)
				)
			)
		)
		(symbol "power:GND"
			(power)
			(pin_names
				(offset 0)
			)
			(exclude_from_sim no)
			(in_bom yes)
			(on_board yes)
			(property "Reference" "#PWR"
				(at 0 -6.35 0)
				(effects
					(font
						(size 1.27 1.27)
					)
					(hide yes)
				)
			)
			(property "Value" "GND"
				(at 0 -3.81 0)
				(effects
					(font
						(size 1.27 1.27)
					)
				)
			)
			(property "Footprint" ""
				(at 0 0 0)
				(effects
					(font
						(size 1.27 1.27)
					)
					(hide yes)
				)
			)
			(property "Datasheet" ""
				(at 0 0 0)
				(effects
					(font
						(size 1.27 1.27)
					)
					(hide yes)
				)
			)
			(property "Description" "Power symbol creates a global label with name \"GND\" , ground"
				(at 0 0 0)
				(effects
					(font
						(size 1.27 1.27)
					)
					(hide yes)
				)
			)
			(property "ki_keywords" "global power"
				(at 0 0 0)
				(effects
					(font
						(size 1.27 1.27)
					)
					(hide yes)
				)
			)
			(symbol "GND_0_1"
				(polyline
					(pts
						(xy 0 0) (xy 0 -1.27) (xy 1.27 -1.27) (xy 0 -2.54) (xy -1.27 -1.27) (xy 0 -1.27)
					)
					(stroke
						(width 0)
						(type default)
					)
					(fill
						(type none)
					)
				)
			)
			(symbol "GND_1_1"
				(pin power_in line
					(at 0 0 270)
					(length 0) hide
					(name "GND"
						(effects
							(font
								(size 1.27 1.27)
							)
						)
					)
					(number "1"
						(effects
							(font
								(size 1.27 1.27)
							)
						)
					)
				)
			)
		)
	)
	(junction
		(at 41.91 96.52)
		(diameter 0)
		(color 0 0 0 0)
		(uuid "0f585b9b-e03c-4ae0-aff4-cb53e10029b3")
	)
	(junction
		(at 57.15 104.14)
		(diameter 0)
		(color 0 0 0 0)
		(uuid "16a026ea-f20a-4e2e-87da-0b6dc64c953b")
	)
	(junction
		(at 41.91 132.08)
		(diameter 0)
		(color 0 0 0 0)
		(uuid "3d41f3ca-a224-4e72-8fc6-a794c7c346a5")
	)
	(junction
		(at 57.15 114.3)
		(diameter 0)
		(color 0 0 0 0)
		(uuid "41ba41c0-7786-416a-8509-379fa1be0f6c")
	)
	(junction
		(at 41.91 83.82)
		(diameter 0)
		(color 0 0 0 0)
		(uuid "588bb7b9-299d-49d5-85e2-1d9491b92f81")
	)
	(junction
		(at 93.98 45.72)
		(diameter 0)
		(color 0 0 0 0)
		(uuid "5fe231e0-15c7-4f1c-9130-7ab2b46db3b9")
	)
	(junction
		(at 41.91 129.54)
		(diameter 0)
		(color 0 0 0 0)
		(uuid "60077a82-c3e8-4b54-92db-c39196f9cf8c")
	)
	(junction
		(at 57.15 86.36)
		(diameter 0)
		(color 0 0 0 0)
		(uuid "63660857-0ba5-4e84-ab6b-f32788fb746b")
	)
	(junction
		(at 57.15 132.08)
		(diameter 0)
		(color 0 0 0 0)
		(uuid "6672906c-9041-48e7-969c-ad9d77a732c9")
	)
	(junction
		(at 41.91 91.44)
		(diameter 0)
		(color 0 0 0 0)
		(uuid "66e65169-3af8-4cbe-b623-d70d5d5cfdf3")
	)
	(junction
		(at 57.15 129.54)
		(diameter 0)
		(color 0 0 0 0)
		(uuid "6eaa3fbf-3800-4fc7-9e63-35d915f7573b")
	)
	(junction
		(at 58.42 53.34)
		(diameter 0)
		(color 0 0 0 0)
		(uuid "8aab0b3d-db45-486f-bfba-96f658b69f8d")
	)
	(junction
		(at 57.15 111.76)
		(diameter 0)
		(color 0 0 0 0)
		(uuid "980af32c-53e4-4f0f-baff-810cd5aed273")
	)
	(junction
		(at 41.91 104.14)
		(diameter 0)
		(color 0 0 0 0)
		(uuid "9e67ba97-e488-4462-a806-821fc2ebd79b")
	)
	(junction
		(at 57.15 119.38)
		(diameter 0)
		(color 0 0 0 0)
		(uuid "a26c18d2-b94c-4dae-abdf-4214c1df7dba")
	)
	(junction
		(at 93.98 64.77)
		(diameter 0)
		(color 0 0 0 0)
		(uuid "a2ba89bc-7e28-47e9-945c-d87d613bf87c")
	)
	(junction
		(at 40.64 55.88)
		(diameter 0)
		(color 0 0 0 0)
		(uuid "a45447d9-6c3e-492b-977c-7c8ec4570f3b")
	)
	(junction
		(at 57.15 83.82)
		(diameter 0)
		(color 0 0 0 0)
		(uuid "ad2b20c2-da6f-469f-91c4-d10031c6d0fd")
	)
	(junction
		(at 41.91 86.36)
		(diameter 0)
		(color 0 0 0 0)
		(uuid "ca8ee17f-c9fc-4506-8cb6-45a7af1662b1")
	)
	(junction
		(at 57.15 124.46)
		(diameter 0)
		(color 0 0 0 0)
		(uuid "d2165dec-59c4-4c91-9205-f180ecedb616")
	)
	(no_connect
		(at 43.18 114.3)
		(uuid "00bb9da1-e866-4230-a8e9-7b832d76bc3a")
	)
	(no_connect
		(at 43.18 99.06)
		(uuid "3a4f2499-61a2-4f0a-8b47-cba5b3282923")
	)
	(no_connect
		(at 55.88 96.52)
		(uuid "4404cd78-988b-40c4-a86c-bf2ce077ca06")
	)
	(no_connect
		(at 43.18 121.92)
		(uuid "65d163f6-123c-4ea2-946e-4785262660d0")
	)
	(no_connect
		(at 55.88 93.98)
		(uuid "6a7853a1-941a-40b1-b19b-5a1274ecd972")
	)
	(no_connect
		(at 43.18 119.38)
		(uuid "6dfef40f-f469-4edb-b895-da6e460c5708")
	)
	(no_connect
		(at 55.88 116.84)
		(uuid "75456a83-ee30-4fab-9df9-71dc28c48226")
	)
	(no_connect
		(at 43.18 101.6)
		(uuid "a55394d9-ab10-448a-b7a8-2ac2b93dc8cc")
	)
	(no_connect
		(at 43.18 93.98)
		(uuid "c90c8419-a53c-41c1-b7fb-2775105a6525")
	)
	(no_connect
		(at 43.18 124.46)
		(uuid "ca364ec9-b540-46d3-9f24-da5d11e5bbde")
	)
	(no_connect
		(at 43.18 109.22)
		(uuid "d59e1e13-aed4-40f0-a66f-5b027284311f")
	)
	(no_connect
		(at 55.88 101.6)
		(uuid "e64d8d00-f10c-4904-913a-e89a79dd03b8")
	)
	(no_connect
		(at 43.18 116.84)
		(uuid "f996ec74-abdf-4df5-bea1-9e162251a188")
	)
	(wire
		(pts
			(xy 55.88 106.68) (xy 83.82 106.68)
		)
		(stroke
			(width 0)
			(type default)
		)
		(uuid "1324a4b5-b7ec-412d-8342-0f49c5a21b1e")
	)
	(wire
		(pts
			(xy 41.91 132.08) (xy 15.24 132.08)
		)
		(stroke
			(width 0)
			(type default)
		)
		(uuid "1a9aeda1-5b68-4a6e-a901-d628413ef7e9")
	)
	(wire
		(pts
			(xy 57.15 88.9) (xy 57.15 86.36)
		)
		(stroke
			(width 0)
			(type default)
		)
		(uuid "1bb018e2-a204-46f2-b8ca-872618b91c5e")
	)
	(wire
		(pts
			(xy 43.18 88.9) (xy 38.1 88.9)
		)
		(stroke
			(width 0)
			(type default)
		)
		(uuid "1e1b14aa-a1a9-48cf-902c-2ff5aa97bed3")
	)
	(wire
		(pts
			(xy 57.15 99.06) (xy 55.88 99.06)
		)
		(stroke
			(width 0)
			(type default)
		)
		(uuid "1ead897f-e6f3-4d8d-95cb-dfece353b85a")
	)
	(wire
		(pts
			(xy 55.88 88.9) (xy 57.15 88.9)
		)
		(stroke
			(width 0)
			(type default)
		)
		(uuid "2190f2b3-4724-4b70-a3db-40fa61cbf8bf")
	)
	(wire
		(pts
			(xy 41.91 86.36) (xy 41.91 83.82)
		)
		(stroke
			(width 0)
			(type default)
		)
		(uuid "25a413f2-ba68-4eb6-aaec-fa263809fbcf")
	)
	(wire
		(pts
			(xy 93.98 73.66) (xy 93.98 74.93)
		)
		(stroke
			(width 0)
			(type default)
		)
		(uuid "25d1d760-961d-4938-bca3-677de936aabc")
	)
	(wire
		(pts
			(xy 93.98 54.61) (xy 93.98 55.88)
		)
		(stroke
			(width 0)
			(type default)
		)
		(uuid "282792be-66d0-41d8-b4a6-349c5c4c2e4c")
	)
	(wire
		(pts
			(xy 41.91 83.82) (xy 41.91 78.74)
		)
		(stroke
			(width 0)
			(type default)
		)
		(uuid "3040c1db-269e-4732-8a11-6c0fd79d587a")
	)
	(wire
		(pts
			(xy 41.91 129.54) (xy 41.91 132.08)
		)
		(stroke
			(width 0)
			(type default)
		)
		(uuid "321b9fba-22f2-4e97-9914-a20b3d94165a")
	)
	(wire
		(pts
			(xy 43.18 132.08) (xy 41.91 132.08)
		)
		(stroke
			(width 0)
			(type default)
		)
		(uuid "34f29c3e-5df8-4308-9435-98c369afe7dc")
	)
	(wire
		(pts
			(xy 55.88 86.36) (xy 57.15 86.36)
		)
		(stroke
			(width 0)
			(type default)
		)
		(uuid "357119fa-96ba-496f-b131-71dbb15bce29")
	)
	(wire
		(pts
			(xy 41.91 96.52) (xy 41.91 91.44)
		)
		(stroke
			(width 0)
			(type default)
		)
		(uuid "3621be20-92ed-47b9-9e8c-d0d535ebc099")
	)
	(wire
		(pts
			(xy 57.15 114.3) (xy 57.15 119.38)
		)
		(stroke
			(width 0)
			(type default)
		)
		(uuid "3663d2d2-1906-45c5-a0c8-fddd07560c7e")
	)
	(wire
		(pts
			(xy 57.15 119.38) (xy 55.88 119.38)
		)
		(stroke
			(width 0)
			(type default)
		)
		(uuid "3841fc44-6d77-40a6-83ca-3ca7df11a0c7")
	)
	(wire
		(pts
			(xy 58.42 58.42) (xy 58.42 53.34)
		)
		(stroke
			(width 0)
			(type default)
		)
		(uuid "3b1adb2d-086b-4ae0-af74-ae40c579a761")
	)
	(wire
		(pts
			(xy 43.18 45.72) (xy 22.86 45.72)
		)
		(stroke
			(width 0)
			(type default)
		)
		(uuid "3fe23882-4f6b-41df-bef8-313586f3ece3")
	)
	(wire
		(pts
			(xy 55.88 127) (xy 60.96 127)
		)
		(stroke
			(width 0)
			(type default)
		)
		(uuid "43744182-d3f5-4e63-9015-9992fc4ceb27")
	)
	(wire
		(pts
			(xy 43.18 129.54) (xy 41.91 129.54)
		)
		(stroke
			(width 0)
			(type default)
		)
		(uuid "439e2c3f-64b7-4512-9e1c-6e1e15b66e78")
	)
	(wire
		(pts
			(xy 43.18 83.82) (xy 41.91 83.82)
		)
		(stroke
			(width 0)
			(type default)
		)
		(uuid "43acc98f-7828-4a9f-b0f7-b8350c4bff7d")
	)
	(wire
		(pts
			(xy 40.64 58.42) (xy 40.64 55.88)
		)
		(stroke
			(width 0)
			(type default)
		)
		(uuid "46c0db7f-4b4c-4935-b157-9a1db6d66b4b")
	)
	(wire
		(pts
			(xy 41.91 127) (xy 41.91 129.54)
		)
		(stroke
			(width 0)
			(type default)
		)
		(uuid "4a2ff28b-6db2-4117-84d4-9076bf603d32")
	)
	(wire
		(pts
			(xy 40.64 48.26) (xy 40.64 38.1)
		)
		(stroke
			(width 0)
			(type default)
		)
		(uuid "4d7bec3a-856c-4b4b-8979-573d4bf809fb")
	)
	(wire
		(pts
			(xy 55.88 50.8) (xy 82.55 50.8)
		)
		(stroke
			(width 0)
			(type default)
		)
		(uuid "504f5866-deaf-4872-8ccf-3f420c7037d7")
	)
	(wire
		(pts
			(xy 57.15 129.54) (xy 57.15 132.08)
		)
		(stroke
			(width 0)
			(type default)
		)
		(uuid "5662f273-2622-4f6f-8864-f31888b5e9b3")
	)
	(wire
		(pts
			(xy 57.15 104.14) (xy 57.15 99.06)
		)
		(stroke
			(width 0)
			(type default)
		)
		(uuid "58da0326-df79-4750-93a3-55209b4fd33c")
	)
	(wire
		(pts
			(xy 55.88 111.76) (xy 57.15 111.76)
		)
		(stroke
			(width 0)
			(type default)
		)
		(uuid "5bbcf9aa-c31b-41bc-99cb-989f486557fc")
	)
	(wire
		(pts
			(xy 93.98 64.77) (xy 93.98 66.04)
		)
		(stroke
			(width 0)
			(type default)
		)
		(uuid "5e9a3896-a067-411f-bf19-439a94f46b1b")
	)
	(wire
		(pts
			(xy 43.18 96.52) (xy 41.91 96.52)
		)
		(stroke
			(width 0)
			(type default)
		)
		(uuid "61abeeb3-f993-46eb-af09-bc5e852b4c9c")
	)
	(wire
		(pts
			(xy 93.98 45.72) (xy 121.92 45.72)
		)
		(stroke
			(width 0)
			(type default)
		)
		(uuid "6373ec4a-9a03-4b63-8926-5381a871c2ee")
	)
	(wire
		(pts
			(xy 38.1 78.74) (xy 38.1 88.9)
		)
		(stroke
			(width 0)
			(type default)
		)
		(uuid "63d6a0ba-9401-41d4-9597-4ed202ec34d4")
	)
	(wire
		(pts
			(xy 43.18 53.34) (xy 40.64 53.34)
		)
		(stroke
			(width 0)
			(type default)
		)
		(uuid "6673fc33-059d-415c-b621-b1747770e4f6")
	)
	(wire
		(pts
			(xy 57.15 137.16) (xy 57.15 132.08)
		)
		(stroke
			(width 0)
			(type default)
		)
		(uuid "68b84065-27b0-48ee-b9f3-44de92c1cd9b")
	)
	(wire
		(pts
			(xy 41.91 104.14) (xy 41.91 96.52)
		)
		(stroke
			(width 0)
			(type default)
		)
		(uuid "68fafded-2ddd-47d7-9b87-ab097fee22e3")
	)
	(wire
		(pts
			(xy 43.18 48.26) (xy 40.64 48.26)
		)
		(stroke
			(width 0)
			(type default)
		)
		(uuid "6c2e73ae-a441-4e7c-acdb-1409c8cf3d89")
	)
	(wire
		(pts
			(xy 91.44 45.72) (xy 93.98 45.72)
		)
		(stroke
			(width 0)
			(type default)
		)
		(uuid "6ee9abb7-b539-4076-a332-1cd148d1f6ab")
	)
	(wire
		(pts
			(xy 58.42 53.34) (xy 55.88 53.34)
		)
		(stroke
			(width 0)
			(type default)
		)
		(uuid "6f308987-70df-4309-80a1-51b66b5f1dc2")
	)
	(wire
		(pts
			(xy 57.15 124.46) (xy 57.15 119.38)
		)
		(stroke
			(width 0)
			(type default)
		)
		(uuid "6f3c474c-d12b-414a-aae2-182f046368d6")
	)
	(wire
		(pts
			(xy 57.15 83.82) (xy 55.88 83.82)
		)
		(stroke
			(width 0)
			(type default)
		)
		(uuid "73a921c5-7285-410b-8aa0-29ea8cd67140")
	)
	(wire
		(pts
			(xy 60.96 137.16) (xy 60.96 127)
		)
		(stroke
			(width 0)
			(type default)
		)
		(uuid "73e9e8e3-189c-460c-907e-f54485075e19")
	)
	(wire
		(pts
			(xy 55.88 48.26) (xy 80.01 48.26)
		)
		(stroke
			(width 0)
			(type default)
		)
		(uuid "7cfd5b50-f05e-4f6f-96db-d56be2c3bab4")
	)
	(wire
		(pts
			(xy 43.18 91.44) (xy 41.91 91.44)
		)
		(stroke
			(width 0)
			(type default)
		)
		(uuid "7e28e5e9-8e0c-4b24-8c7a-5821b703b141")
	)
	(wire
		(pts
			(xy 55.88 114.3) (xy 57.15 114.3)
		)
		(stroke
			(width 0)
			(type default)
		)
		(uuid "7e5df70f-10bc-4bf9-9072-ddbbc747ef01")
	)
	(wire
		(pts
			(xy 41.91 91.44) (xy 41.91 86.36)
		)
		(stroke
			(width 0)
			(type default)
		)
		(uuid "878bf2a9-0010-4a7b-bbdf-b842a9315e96")
	)
	(wire
		(pts
			(xy 40.64 38.1) (xy 58.42 38.1)
		)
		(stroke
			(width 0)
			(type default)
		)
		(uuid "8b97f9c7-c7de-4b21-9daf-e585a63cc464")
	)
	(wire
		(pts
			(xy 93.98 64.77) (xy 121.92 64.77)
		)
		(stroke
			(width 0)
			(type default)
		)
		(uuid "8c041792-a202-4265-9e70-d868eaced3a3")
	)
	(wire
		(pts
			(xy 43.18 111.76) (xy 41.91 111.76)
		)
		(stroke
			(width 0)
			(type default)
		)
		(uuid "a64ac9fc-20d8-42fe-8a30-4484e85b4245")
	)
	(wire
		(pts
			(xy 93.98 45.72) (xy 93.98 46.99)
		)
		(stroke
			(width 0)
			(type default)
		)
		(uuid "a83f742e-06b4-4f18-8338-fc9062173db5")
	)
	(wire
		(pts
			(xy 55.88 132.08) (xy 57.15 132.08)
		)
		(stroke
			(width 0)
			(type default)
		)
		(uuid "a8db33eb-21b7-462b-ae30-6ec92e98c001")
	)
	(wire
		(pts
			(xy 55.88 121.92) (xy 83.82 121.92)
		)
		(stroke
			(width 0)
			(type default)
		)
		(uuid "aa0e9cd1-2091-43b3-b491-c640c5591f9e")
	)
	(wire
		(pts
			(xy 43.18 50.8) (xy 22.86 50.8)
		)
		(stroke
			(width 0)
			(type default)
		)
		(uuid "ade65e1f-e2d3-4c8f-be49-9ce688d79076")
	)
	(wire
		(pts
			(xy 41.91 111.76) (xy 41.91 104.14)
		)
		(stroke
			(width 0)
			(type default)
		)
		(uuid "af8a749f-3ffe-4497-8aa2-7f6d1c8863e9")
	)
	(wire
		(pts
			(xy 43.18 104.14) (xy 41.91 104.14)
		)
		(stroke
			(width 0)
			(type default)
		)
		(uuid "b27e156c-c4c7-43aa-a75c-1806541ae6a4")
	)
	(wire
		(pts
			(xy 57.15 129.54) (xy 57.15 124.46)
		)
		(stroke
			(width 0)
			(type default)
		)
		(uuid "b4308bda-0382-471d-bf8e-fe88f443b4c5")
	)
	(wire
		(pts
			(xy 57.15 114.3) (xy 57.15 111.76)
		)
		(stroke
			(width 0)
			(type default)
		)
		(uuid "bbce3705-13bc-4968-b55f-69efff11ed01")
	)
	(wire
		(pts
			(xy 40.64 55.88) (xy 43.18 55.88)
		)
		(stroke
			(width 0)
			(type default)
		)
		(uuid "bca460d2-fc61-48e0-aaa8-ddcf191f768d")
	)
	(wire
		(pts
			(xy 57.15 86.36) (xy 57.15 83.82)
		)
		(stroke
			(width 0)
			(type default)
		)
		(uuid "c1abef5c-e160-486d-b714-ec59555fd3c3")
	)
	(wire
		(pts
			(xy 58.42 38.1) (xy 58.42 53.34)
		)
		(stroke
			(width 0)
			(type default)
		)
		(uuid "c4fce2ae-ee05-47ff-bde3-7c82789cb280")
	)
	(wire
		(pts
			(xy 40.64 53.34) (xy 40.64 55.88)
		)
		(stroke
			(width 0)
			(type default)
		)
		(uuid "c590cdf0-878b-40bb-9e01-392c3414a619")
	)
	(wire
		(pts
			(xy 43.18 86.36) (xy 41.91 86.36)
		)
		(stroke
			(width 0)
			(type default)
		)
		(uuid "c94968ee-e425-49b5-805e-6f28312e353e")
	)
	(wire
		(pts
			(xy 83.82 83.82) (xy 57.15 83.82)
		)
		(stroke
			(width 0)
			(type default)
		)
		(uuid "ce02b705-f972-4e46-8a2f-b1066ea05e0c")
	)
	(wire
		(pts
			(xy 55.88 45.72) (xy 83.82 45.72)
		)
		(stroke
			(width 0)
			(type default)
		)
		(uuid "d1daa70e-3ea2-4dd0-afc4-0ff69dcff17d")
	)
	(wire
		(pts
			(xy 55.88 109.22) (xy 83.82 109.22)
		)
		(stroke
			(width 0)
			(type default)
		)
		(uuid "d6371855-1280-4e34-9a9b-47dfb493e3b1")
	)
	(wire
		(pts
			(xy 43.18 127) (xy 41.91 127)
		)
		(stroke
			(width 0)
			(type default)
		)
		(uuid "da8ec3ce-a61a-4cea-bcc3-63d9675d5479")
	)
	(wire
		(pts
			(xy 55.88 124.46) (xy 57.15 124.46)
		)
		(stroke
			(width 0)
			(type default)
		)
		(uuid "dcafdb77-8ff9-41d4-9a43-125f07031051")
	)
	(wire
		(pts
			(xy 55.88 104.14) (xy 57.15 104.14)
		)
		(stroke
			(width 0)
			(type default)
		)
		(uuid "dd3e0eb9-8ad8-46c2-a56b-0f9426b13ae1")
	)
	(wire
		(pts
			(xy 91.44 64.77) (xy 93.98 64.77)
		)
		(stroke
			(width 0)
			(type default)
		)
		(uuid "e4808f18-7d55-400c-a633-2963bad499c2")
	)
	(wire
		(pts
			(xy 55.88 55.88) (xy 80.01 55.88)
		)
		(stroke
			(width 0)
			(type default)
		)
		(uuid "e9db1aab-9f53-4c39-bd30-960c4f2acb67")
	)
	(wire
		(pts
			(xy 15.24 106.68) (xy 43.18 106.68)
		)
		(stroke
			(width 0)
			(type default)
		)
		(uuid "ee1cd249-c1e9-423e-9643-c66074ef6586")
	)
	(wire
		(pts
			(xy 83.82 64.77) (xy 82.55 64.77)
		)
		(stroke
			(width 0)
			(type default)
		)
		(uuid "f02f5125-7804-41f3-95e7-175e1588a3ef")
	)
	(wire
		(pts
			(xy 55.88 129.54) (xy 57.15 129.54)
		)
		(stroke
			(width 0)
			(type default)
		)
		(uuid "f7bf9528-6c25-48de-95d9-b007045bfe8b")
	)
	(wire
		(pts
			(xy 82.55 64.77) (xy 82.55 50.8)
		)
		(stroke
			(width 0)
			(type default)
		)
		(uuid "f889a9e2-c29a-487b-9e9a-5afc751d4199")
	)
	(wire
		(pts
			(xy 57.15 111.76) (xy 57.15 104.14)
		)
		(stroke
			(width 0)
			(type default)
		)
		(uuid "f98474b8-4ccd-4498-8201-5d90a9b27a6a")
	)
	(wire
		(pts
			(xy 55.88 91.44) (xy 83.82 91.44)
		)
		(stroke
			(width 0)
			(type default)
		)
		(uuid "fc426c87-3383-4122-be60-e2790f4cace1")
	)
	(text "divide down to 0...3.3V"
		(exclude_from_sim no)
		(at 99.06 55.88 0)
		(effects
			(font
				(size 1.27 1.27)
			)
			(justify left bottom)
		)
		(uuid "7b27a788-7388-4eef-baae-9625fd518231")
	)
	(text "reverse protection"
		(exclude_from_sim no)
		(at 55.88 135.89 0)
		(effects
			(font
				(size 1.27 1.27)
			)
			(justify right bottom)
		)
		(uuid "c5937a99-c82d-4c71-bb23-c55e5dcc0909")
	)
	(text "Efratom / Datum / ... LPRO-101\n1    RF OUT\n2    CHASSIS GND\n3    RF RTN (CHASSIS GND)\n4    CHASSIS GND\n5    LAMP VOLTS\n6    LOCK (Built-in test quipment)\n7    EXT. C-FIELD VOLTAGE ADJ\n8    +24 V RTN\n9    CRYSTAL VOLTS MONITOR\n10   POWER +24 V"
		(exclude_from_sim no)
		(at 22.86 36.83 0)
		(effects
			(font
				(size 1.27 1.27)
			)
			(justify left bottom)
		)
		(uuid "d1544321-96c9-4365-b24d-b3557b3de072")
	)
	(label "~{LPRO-101_LOCK}"
		(at 83.82 91.44 180)
		(fields_autoplaced yes)
		(effects
			(font
				(size 1.27 1.27)
			)
			(justify right bottom)
		)
		(uuid "04d5c06e-37af-42c6-a4ae-2d811e888f38")
	)
	(label "LPRO-101_OUT"
		(at 83.82 121.92 180)
		(fields_autoplaced yes)
		(effects
			(font
				(size 1.27 1.27)
			)
			(justify right bottom)
		)
		(uuid "09f642b3-c647-481d-b055-a5ad4946e5db")
	)
	(label "LPRO-101_OUT"
		(at 80.01 55.88 180)
		(fields_autoplaced yes)
		(effects
			(font
				(size 1.27 1.27)
			)
			(justify right bottom)
		)
		(uuid "130a07c9-7393-4fec-9019-58b4c7a285d4")
	)
	(label "LPRO-101_+24V"
		(at 22.86 45.72 0)
		(fields_autoplaced yes)
		(effects
			(font
				(size 1.27 1.27)
			)
			(justify left bottom)
		)
		(uuid "29153971-e695-4d04-875a-5dc1237bc2da")
	)
	(label "LPRO-101_LAMP_VOLTS"
		(at 80.01 50.8 180)
		(fields_autoplaced yes)
		(effects
			(font
				(size 1.27 1.27)
			)
			(justify right bottom)
		)
		(uuid "3c9faaf6-14cb-4d49-8d17-977026789049")
	)
	(label "LPRO-101_+24V"
		(at 83.82 83.82 180)
		(fields_autoplaced yes)
		(effects
			(font
				(size 1.27 1.27)
			)
			(justify right bottom)
		)
		(uuid "4a4b72b5-ff83-4d6e-863b-7042473cdac8")
	)
	(label "LPRO-101_XTAL_VOLTS_div"
		(at 15.24 106.68 0)
		(fields_autoplaced yes)
		(effects
			(font
				(size 1.27 1.27)
			)
			(justify left bottom)
		)
		(uuid "5ea16afb-ce85-486f-973d-df1f3d3765ef")
	)
	(label "~{LPRO-101_LOCK}"
		(at 22.86 50.8 0)
		(fields_autoplaced yes)
		(effects
			(font
				(size 1.27 1.27)
			)
			(justify left bottom)
		)
		(uuid "60db7b55-dbc8-4527-94fc-b22a6b1ed710")
	)
	(label "LPRO-101_LAMP_VOLTS_div"
		(at 83.82 109.22 180)
		(fields_autoplaced yes)
		(effects
			(font
				(size 1.27 1.27)
			)
			(justify right bottom)
		)
		(uuid "684603f4-ab7c-4629-b3be-684e02673e91")
	)
	(label "LPRO-101_LAMP_VOLTS_div"
		(at 121.92 64.77 180)
		(fields_autoplaced yes)
		(effects
			(font
				(size 1.27 1.27)
			)
			(justify right bottom)
		)
		(uuid "76fdfc7e-b593-4276-a019-c4c7a647368d")
	)
	(label "LPRO-101_+24V"
		(at 15.24 132.08 0)
		(fields_autoplaced yes)
		(effects
			(font
				(size 1.27 1.27)
			)
			(justify left bottom)
		)
		(uuid "c6653e0f-6cf6-40f2-9edd-ab50f5808eba")
	)
	(label "LPRO-101_f_Adj"
		(at 80.01 48.26 180)
		(fields_autoplaced yes)
		(effects
			(font
				(size 1.27 1.27)
			)
			(justify right bottom)
		)
		(uuid "cc01df27-6b04-4675-992f-259df8136a5a")
	)
	(label "LPRO-101_XTAL_VOLTS_div"
		(at 121.92 45.72 180)
		(fields_autoplaced yes)
		(effects
			(font
				(size 1.27 1.27)
			)
			(justify right bottom)
		)
		(uuid "dfe83b59-2a56-4239-a5fe-1a72d80d27ac")
	)
	(label "LPRO-101_f_Adj"
		(at 83.82 106.68 180)
		(fields_autoplaced yes)
		(effects
			(font
				(size 1.27 1.27)
			)
			(justify right bottom)
		)
		(uuid "f11ed269-b154-40b0-b74c-a745c5716f52")
	)
	(label "LPRO-101_XTAL_VOLTS"
		(at 80.01 45.72 180)
		(fields_autoplaced yes)
		(effects
			(font
				(size 1.27 1.27)
			)
			(justify right bottom)
		)
		(uuid "fa0770e0-64b1-4747-88ad-7979e11ef54a")
	)
	(symbol
		(lib_id "power:GND")
		(at 41.91 78.74 0)
		(mirror x)
		(unit 1)
		(exclude_from_sim no)
		(in_bom yes)
		(on_board yes)
		(dnp no)
		(uuid "22599d57-85af-4eee-93c5-fe8c471b95d3")
		(property "Reference" "#PWR0106"
			(at 41.91 72.39 0)
			(effects
				(font
					(size 1.27 1.27)
				)
				(hide yes)
			)
		)
		(property "Value" "GND"
			(at 42.037 74.3458 0)
			(effects
				(font
					(size 1.27 1.27)
				)
			)
		)
		(property "Footprint" ""
			(at 41.91 78.74 0)
			(effects
				(font
					(size 1.27 1.27)
				)
				(hide yes)
			)
		)
		(property "Datasheet" ""
			(at 41.91 78.74 0)
			(effects
				(font
					(size 1.27 1.27)
				)
				(hide yes)
			)
		)
		(property "Description" ""
			(at 41.91 78.74 0)
			(effects
				(font
					(size 1.27 1.27)
				)
				(hide yes)
			)
		)
		(pin "1"
			(uuid "73d6a0c2-dbaf-431d-94ea-c43aab415785")
		)
		(instances
			(project "rfs_adapters"
				(path "/71d243da-e0b0-4f37-9617-4e4cc8f13378"
					(reference "#PWR0106")
					(unit 1)
				)
				(path "/71d243da-e0b0-4f37-9617-4e4cc8f13378/03fbb6de-d0c3-4521-9644-a1770e591c45"
					(reference "#PWR0706")
					(unit 1)
				)
			)
		)
	)
	(symbol
		(lib_id "Connector_Generic:Conn_02x20_Odd_Even")
		(at 48.26 106.68 0)
		(unit 1)
		(exclude_from_sim no)
		(in_bom yes)
		(on_board yes)
		(dnp no)
		(uuid "37be7c68-56ff-49b7-9844-163aeb1c667d")
		(property "Reference" "J102"
			(at 49.53 78.3082 0)
			(effects
				(font
					(size 1.27 1.27)
				)
			)
		)
		(property "Value" "MEC8-120-02-L-DV-A"
			(at 49.53 80.6196 0)
			(effects
				(font
					(size 1.27 1.27)
				)
			)
		)
		(property "Footprint" "LibreTimeBase:MEC8-120-02"
			(at 48.26 106.68 0)
			(effects
				(font
					(size 1.27 1.27)
				)
				(hide yes)
			)
		)
		(property "Datasheet" "https://suddendocs.samtec.com/prints/mec8-1xx-xx-xx-dv-xx-x-xx-mkt.pdf"
			(at 48.26 106.68 0)
			(effects
				(font
					(size 1.27 1.27)
				)
				(hide yes)
			)
		)
		(property "Description" ""
			(at 48.26 106.68 0)
			(effects
				(font
					(size 1.27 1.27)
				)
				(hide yes)
			)
		)
		(property "Place" "NO"
			(at 48.26 106.68 0)
			(effects
				(font
					(size 1.27 1.27)
				)
				(hide yes)
			)
		)
		(property "Provided" "NO"
			(at 48.26 106.68 0)
			(effects
				(font
					(size 1.27 1.27)
				)
				(hide yes)
			)
		)
		(pin "1"
			(uuid "db331c82-1a5e-4adb-90be-288d5a85f8b3")
		)
		(pin "10"
			(uuid "84ae8dde-5aaa-4c34-8d4d-4cf15c631893")
		)
		(pin "11"
			(uuid "0aa82632-daab-4c80-b5e4-d090c5e29d86")
		)
		(pin "12"
			(uuid "d9b5727e-9334-4138-8dde-ffad81022c19")
		)
		(pin "13"
			(uuid "b0d81b3a-8d49-456d-b408-dcaf28b47e01")
		)
		(pin "14"
			(uuid "adf0670a-1b36-4821-b5b1-468b19c3f43e")
		)
		(pin "15"
			(uuid "4060c2c4-7a62-49ad-8ad8-e89209ac6965")
		)
		(pin "16"
			(uuid "4b503fa3-1ec6-4f8a-b664-e05b2fbce08d")
		)
		(pin "17"
			(uuid "0880052f-f75e-4af6-ac38-e8377af64027")
		)
		(pin "18"
			(uuid "69cbe675-70a4-40d7-b9e6-e23f0f126db4")
		)
		(pin "19"
			(uuid "4d9272d5-7716-4ec6-8df6-f19ce7782068")
		)
		(pin "2"
			(uuid "64e853f8-b245-4c76-8754-c08551824574")
		)
		(pin "20"
			(uuid "09538c98-ab3a-4c96-b549-baa3d2f18e59")
		)
		(pin "21"
			(uuid "0ba30f6e-3a13-45d4-acc5-21032c1bb307")
		)
		(pin "22"
			(uuid "7389a65d-1682-4295-a7b9-cd80f6ca4489")
		)
		(pin "23"
			(uuid "5b531538-e3e2-4e5b-a571-7a642d28e929")
		)
		(pin "24"
			(uuid "bd6b2041-9cf0-4395-b7f6-be4b6744f542")
		)
		(pin "25"
			(uuid "4c8b2f1f-c13e-40a4-b275-779e01bdb42d")
		)
		(pin "26"
			(uuid "16b34bf1-e97b-4397-a521-45ce3c7b0eab")
		)
		(pin "27"
			(uuid "69075b0e-6462-4607-a7c2-45f554f8d804")
		)
		(pin "28"
			(uuid "b3575d22-32e7-43f6-858c-180fca0fabea")
		)
		(pin "29"
			(uuid "4526d67a-b5c5-4216-b574-0572d0c6d2b5")
		)
		(pin "3"
			(uuid "259ad912-01d4-4a38-b4b2-14ca5fb349b9")
		)
		(pin "30"
			(uuid "7df6c175-6663-4339-b656-79d97e13f7ce")
		)
		(pin "31"
			(uuid "b7c2a350-6a44-42b0-9611-00c4060e5cf2")
		)
		(pin "32"
			(uuid "4a28fa80-88e7-4421-8e9e-0bc03b5b69ef")
		)
		(pin "33"
			(uuid "f168c366-4de1-4f81-b53f-f08c7c5832fd")
		)
		(pin "34"
			(uuid "d25d5599-56c8-4538-93e7-85403dfd5e13")
		)
		(pin "35"
			(uuid "5c1d5b22-052a-4c68-b882-ffdb58c93f5b")
		)
		(pin "36"
			(uuid "45b71bb3-62da-4448-b538-0f30ba79b2e1")
		)
		(pin "37"
			(uuid "e1d02572-b739-488d-a519-274aaa5bfa91")
		)
		(pin "38"
			(uuid "4c6fce3f-3f85-4af6-96a4-2e03373a5253")
		)
		(pin "39"
			(uuid "d8f6de78-9276-4dbd-82a4-d2c33d21476c")
		)
		(pin "4"
			(uuid "7a7896fc-c38f-4f1e-a58a-9c03feb87d82")
		)
		(pin "40"
			(uuid "5ba9b040-7fbb-47a5-b7ad-bb28b53a5f02")
		)
		(pin "5"
			(uuid "b2fdd8e3-7355-4509-8a58-6686c3b77698")
		)
		(pin "6"
			(uuid "0fd9179b-866c-433e-bf66-e01c42a8de87")
		)
		(pin "7"
			(uuid "a159a923-b34a-49d0-95c1-c6b718b56825")
		)
		(pin "8"
			(uuid "4b169159-5467-4ce9-87bb-fdfc08e34fb3")
		)
		(pin "9"
			(uuid "d659ccc8-dcb6-45ef-b419-44fe5f1eb692")
		)
		(instances
			(project "rfs_adapters"
				(path "/71d243da-e0b0-4f37-9617-4e4cc8f13378"
					(reference "J102")
					(unit 1)
				)
				(path "/71d243da-e0b0-4f37-9617-4e4cc8f13378/03fbb6de-d0c3-4521-9644-a1770e591c45"
					(reference "J702")
					(unit 1)
				)
			)
		)
	)
	(symbol
		(lib_id "power:GND")
		(at 93.98 55.88 0)
		(unit 1)
		(exclude_from_sim no)
		(in_bom yes)
		(on_board yes)
		(dnp no)
		(uuid "523aec39-638a-4cd3-9834-3aa045fee978")
		(property "Reference" "#PWR0101"
			(at 93.98 62.23 0)
			(effects
				(font
					(size 1.27 1.27)
				)
				(hide yes)
			)
		)
		(property "Value" "GND"
			(at 94.107 60.2742 0)
			(effects
				(font
					(size 1.27 1.27)
				)
			)
		)
		(property "Footprint" ""
			(at 93.98 55.88 0)
			(effects
				(font
					(size 1.27 1.27)
				)
				(hide yes)
			)
		)
		(property "Datasheet" ""
			(at 93.98 55.88 0)
			(effects
				(font
					(size 1.27 1.27)
				)
				(hide yes)
			)
		)
		(property "Description" ""
			(at 93.98 55.88 0)
			(effects
				(font
					(size 1.27 1.27)
				)
				(hide yes)
			)
		)
		(pin "1"
			(uuid "87767395-387e-487e-b8c7-6d8753cc6a79")
		)
		(instances
			(project "rfs_adapters"
				(path "/71d243da-e0b0-4f37-9617-4e4cc8f13378"
					(reference "#PWR0101")
					(unit 1)
				)
				(path "/71d243da-e0b0-4f37-9617-4e4cc8f13378/03fbb6de-d0c3-4521-9644-a1770e591c45"
					(reference "#PWR0701")
					(unit 1)
				)
			)
		)
	)
	(symbol
		(lib_id "power:Earth")
		(at 38.1 78.74 0)
		(mirror x)
		(unit 1)
		(exclude_from_sim no)
		(in_bom yes)
		(on_board yes)
		(dnp no)
		(uuid "64466b4b-dbd2-4c0a-ae94-d9eeac0643c8")
		(property "Reference" "#PWR0105"
			(at 38.1 72.39 0)
			(effects
				(font
					(size 1.27 1.27)
				)
				(hide yes)
			)
		)
		(property "Value" "Earth"
			(at 38.1 74.93 0)
			(effects
				(font
					(size 1.27 1.27)
				)
				(hide yes)
			)
		)
		(property "Footprint" ""
			(at 38.1 78.74 0)
			(effects
				(font
					(size 1.27 1.27)
				)
				(hide yes)
			)
		)
		(property "Datasheet" "~"
			(at 38.1 78.74 0)
			(effects
				(font
					(size 1.27 1.27)
				)
				(hide yes)
			)
		)
		(property "Description" ""
			(at 38.1 78.74 0)
			(effects
				(font
					(size 1.27 1.27)
				)
				(hide yes)
			)
		)
		(pin "1"
			(uuid "97c621e9-fedc-4041-bbf1-f6cbeb3814e5")
		)
		(instances
			(project "rfs_adapters"
				(path "/71d243da-e0b0-4f37-9617-4e4cc8f13378"
					(reference "#PWR0105")
					(unit 1)
				)
				(path "/71d243da-e0b0-4f37-9617-4e4cc8f13378/03fbb6de-d0c3-4521-9644-a1770e591c45"
					(reference "#PWR0705")
					(unit 1)
				)
			)
		)
	)
	(symbol
		(lib_id "power:GND")
		(at 93.98 74.93 0)
		(unit 1)
		(exclude_from_sim no)
		(in_bom yes)
		(on_board yes)
		(dnp no)
		(uuid "758cf711-b13f-4a7a-b031-dc81143c40e5")
		(property "Reference" "#PWR0104"
			(at 93.98 81.28 0)
			(effects
				(font
					(size 1.27 1.27)
				)
				(hide yes)
			)
		)
		(property "Value" "GND"
			(at 94.107 79.3242 0)
			(effects
				(font
					(size 1.27 1.27)
				)
			)
		)
		(property "Footprint" ""
			(at 93.98 74.93 0)
			(effects
				(font
					(size 1.27 1.27)
				)
				(hide yes)
			)
		)
		(property "Datasheet" ""
			(at 93.98 74.93 0)
			(effects
				(font
					(size 1.27 1.27)
				)
				(hide yes)
			)
		)
		(property "Description" ""
			(at 93.98 74.93 0)
			(effects
				(font
					(size 1.27 1.27)
				)
				(hide yes)
			)
		)
		(pin "1"
			(uuid "36a16ebb-f0df-48a0-a389-56573284fcf0")
		)
		(instances
			(project "rfs_adapters"
				(path "/71d243da-e0b0-4f37-9617-4e4cc8f13378"
					(reference "#PWR0104")
					(unit 1)
				)
				(path "/71d243da-e0b0-4f37-9617-4e4cc8f13378/03fbb6de-d0c3-4521-9644-a1770e591c45"
					(reference "#PWR0704")
					(unit 1)
				)
			)
		)
	)
	(symbol
		(lib_id "Device:R")
		(at 87.63 45.72 270)
		(unit 1)
		(exclude_from_sim no)
		(in_bom yes)
		(on_board yes)
		(dnp no)
		(uuid "7ec3c782-e663-485a-b7e5-345f5b20bc43")
		(property "Reference" "R101"
			(at 87.63 40.4622 90)
			(effects
				(font
					(size 1.27 1.27)
				)
			)
		)
		(property "Value" "3.3k"
			(at 87.63 42.7736 90)
			(effects
				(font
					(size 1.27 1.27)
				)
			)
		)
		(property "Footprint" "Resistor_SMD:R_0603_1608Metric"
			(at 87.63 43.942 90)
			(effects
				(font
					(size 1.27 1.27)
				)
				(hide yes)
			)
		)
		(property "Datasheet" "~"
			(at 87.63 45.72 0)
			(effects
				(font
					(size 1.27 1.27)
				)
				(hide yes)
			)
		)
		(property "Description" ""
			(at 87.63 45.72 0)
			(effects
				(font
					(size 1.27 1.27)
				)
				(hide yes)
			)
		)
		(property "Place" "YES"
			(at 87.63 45.72 0)
			(effects
				(font
					(size 1.27 1.27)
				)
				(hide yes)
			)
		)
		(property "Provided" "NO"
			(at 87.63 45.72 0)
			(effects
				(font
					(size 1.27 1.27)
				)
				(hide yes)
			)
		)
		(pin "1"
			(uuid "c9328404-4773-4371-9d49-829f99e07506")
		)
		(pin "2"
			(uuid "844ca6ff-f2d2-46e3-828c-bd8622f72246")
		)
		(instances
			(project "rfs_adapters"
				(path "/71d243da-e0b0-4f37-9617-4e4cc8f13378"
					(reference "R101")
					(unit 1)
				)
				(path "/71d243da-e0b0-4f37-9617-4e4cc8f13378/03fbb6de-d0c3-4521-9644-a1770e591c45"
					(reference "R701")
					(unit 1)
				)
			)
		)
	)
	(symbol
		(lib_id "power:Earth")
		(at 60.96 137.16 0)
		(mirror y)
		(unit 1)
		(exclude_from_sim no)
		(in_bom yes)
		(on_board yes)
		(dnp no)
		(uuid "9935584a-f167-423e-8f10-dbda655cf711")
		(property "Reference" "#PWR0112"
			(at 60.96 143.51 0)
			(effects
				(font
					(size 1.27 1.27)
				)
				(hide yes)
			)
		)
		(property "Value" "Earth"
			(at 60.96 140.97 0)
			(effects
				(font
					(size 1.27 1.27)
				)
				(hide yes)
			)
		)
		(property "Footprint" ""
			(at 60.96 137.16 0)
			(effects
				(font
					(size 1.27 1.27)
				)
				(hide yes)
			)
		)
		(property "Datasheet" "~"
			(at 60.96 137.16 0)
			(effects
				(font
					(size 1.27 1.27)
				)
				(hide yes)
			)
		)
		(property "Description" ""
			(at 60.96 137.16 0)
			(effects
				(font
					(size 1.27 1.27)
				)
				(hide yes)
			)
		)
		(pin "1"
			(uuid "46abbfbb-efb9-43f0-b98a-a0899f011ceb")
		)
		(instances
			(project "rfs_adapters"
				(path "/71d243da-e0b0-4f37-9617-4e4cc8f13378"
					(reference "#PWR0112")
					(unit 1)
				)
				(path "/71d243da-e0b0-4f37-9617-4e4cc8f13378/03fbb6de-d0c3-4521-9644-a1770e591c45"
					(reference "#PWR0708")
					(unit 1)
				)
			)
		)
	)
	(symbol
		(lib_id "power:Earth")
		(at 40.64 58.42 0)
		(unit 1)
		(exclude_from_sim no)
		(in_bom yes)
		(on_board yes)
		(dnp no)
		(uuid "a32fcb5f-71a0-433e-8ff0-ba6ef7b59574")
		(property "Reference" "#PWR0102"
			(at 40.64 64.77 0)
			(effects
				(font
					(size 1.27 1.27)
				)
				(hide yes)
			)
		)
		(property "Value" "Earth"
			(at 40.64 62.23 0)
			(effects
				(font
					(size 1.27 1.27)
				)
				(hide yes)
			)
		)
		(property "Footprint" ""
			(at 40.64 58.42 0)
			(effects
				(font
					(size 1.27 1.27)
				)
				(hide yes)
			)
		)
		(property "Datasheet" "~"
			(at 40.64 58.42 0)
			(effects
				(font
					(size 1.27 1.27)
				)
				(hide yes)
			)
		)
		(property "Description" ""
			(at 40.64 58.42 0)
			(effects
				(font
					(size 1.27 1.27)
				)
				(hide yes)
			)
		)
		(pin "1"
			(uuid "36a3edd6-10e7-4b50-a4b0-95b0b4720b5a")
		)
		(instances
			(project "rfs_adapters"
				(path "/71d243da-e0b0-4f37-9617-4e4cc8f13378"
					(reference "#PWR0102")
					(unit 1)
				)
				(path "/71d243da-e0b0-4f37-9617-4e4cc8f13378/03fbb6de-d0c3-4521-9644-a1770e591c45"
					(reference "#PWR0702")
					(unit 1)
				)
			)
		)
	)
	(symbol
		(lib_id "power:GND")
		(at 57.15 137.16 0)
		(mirror y)
		(unit 1)
		(exclude_from_sim no)
		(in_bom yes)
		(on_board yes)
		(dnp no)
		(uuid "b1fd12bf-ae2a-4a9c-9a67-7af43bcdc0fe")
		(property "Reference" "#PWR0111"
			(at 57.15 143.51 0)
			(effects
				(font
					(size 1.27 1.27)
				)
				(hide yes)
			)
		)
		(property "Value" "GND"
			(at 57.023 141.5542 0)
			(effects
				(font
					(size 1.27 1.27)
				)
			)
		)
		(property "Footprint" ""
			(at 57.15 137.16 0)
			(effects
				(font
					(size 1.27 1.27)
				)
				(hide yes)
			)
		)
		(property "Datasheet" ""
			(at 57.15 137.16 0)
			(effects
				(font
					(size 1.27 1.27)
				)
				(hide yes)
			)
		)
		(property "Description" ""
			(at 57.15 137.16 0)
			(effects
				(font
					(size 1.27 1.27)
				)
				(hide yes)
			)
		)
		(pin "1"
			(uuid "b8514da4-7acf-4d2c-84a4-f8deeca66c8b")
		)
		(instances
			(project "rfs_adapters"
				(path "/71d243da-e0b0-4f37-9617-4e4cc8f13378"
					(reference "#PWR0111")
					(unit 1)
				)
				(path "/71d243da-e0b0-4f37-9617-4e4cc8f13378/03fbb6de-d0c3-4521-9644-a1770e591c45"
					(reference "#PWR0707")
					(unit 1)
				)
			)
		)
	)
	(symbol
		(lib_id "Device:R")
		(at 93.98 69.85 0)
		(unit 1)
		(exclude_from_sim no)
		(in_bom yes)
		(on_board yes)
		(dnp no)
		(uuid "b3c50590-e5b8-4f4a-b25e-5dc70d06f8c5")
		(property "Reference" "R104"
			(at 95.758 68.6816 0)
			(effects
				(font
					(size 1.27 1.27)
				)
				(justify left)
			)
		)
		(property "Value" "1k"
			(at 95.758 70.993 0)
			(effects
				(font
					(size 1.27 1.27)
				)
				(justify left)
			)
		)
		(property "Footprint" "Resistor_SMD:R_0603_1608Metric"
			(at 92.202 69.85 90)
			(effects
				(font
					(size 1.27 1.27)
				)
				(hide yes)
			)
		)
		(property "Datasheet" "~"
			(at 93.98 69.85 0)
			(effects
				(font
					(size 1.27 1.27)
				)
				(hide yes)
			)
		)
		(property "Description" ""
			(at 93.98 69.85 0)
			(effects
				(font
					(size 1.27 1.27)
				)
				(hide yes)
			)
		)
		(property "Place" "YES"
			(at 93.98 69.85 0)
			(effects
				(font
					(size 1.27 1.27)
				)
				(hide yes)
			)
		)
		(property "Provided" "NO"
			(at 93.98 69.85 0)
			(effects
				(font
					(size 1.27 1.27)
				)
				(hide yes)
			)
		)
		(pin "1"
			(uuid "add82194-33d9-4034-86e5-536bf271a04b")
		)
		(pin "2"
			(uuid "15b3b451-2d7b-4c67-946e-5afbf11b2543")
		)
		(instances
			(project "rfs_adapters"
				(path "/71d243da-e0b0-4f37-9617-4e4cc8f13378"
					(reference "R104")
					(unit 1)
				)
				(path "/71d243da-e0b0-4f37-9617-4e4cc8f13378/03fbb6de-d0c3-4521-9644-a1770e591c45"
					(reference "R704")
					(unit 1)
				)
			)
		)
	)
	(symbol
		(lib_id "power:GND")
		(at 58.42 58.42 0)
		(unit 1)
		(exclude_from_sim no)
		(in_bom yes)
		(on_board yes)
		(dnp no)
		(uuid "b87d6a41-5af6-43b4-9cf4-3a3c2bcfec66")
		(property "Reference" "#PWR0103"
			(at 58.42 64.77 0)
			(effects
				(font
					(size 1.27 1.27)
				)
				(hide yes)
			)
		)
		(property "Value" "GND"
			(at 58.547 62.8142 0)
			(effects
				(font
					(size 1.27 1.27)
				)
			)
		)
		(property "Footprint" ""
			(at 58.42 58.42 0)
			(effects
				(font
					(size 1.27 1.27)
				)
				(hide yes)
			)
		)
		(property "Datasheet" ""
			(at 58.42 58.42 0)
			(effects
				(font
					(size 1.27 1.27)
				)
				(hide yes)
			)
		)
		(property "Description" ""
			(at 58.42 58.42 0)
			(effects
				(font
					(size 1.27 1.27)
				)
				(hide yes)
			)
		)
		(pin "1"
			(uuid "cf7485a2-0de9-4142-a588-7cb8dda45bf6")
		)
		(instances
			(project "rfs_adapters"
				(path "/71d243da-e0b0-4f37-9617-4e4cc8f13378"
					(reference "#PWR0103")
					(unit 1)
				)
				(path "/71d243da-e0b0-4f37-9617-4e4cc8f13378/03fbb6de-d0c3-4521-9644-a1770e591c45"
					(reference "#PWR0703")
					(unit 1)
				)
			)
		)
	)
	(symbol
		(lib_id "Device:R")
		(at 87.63 64.77 270)
		(unit 1)
		(exclude_from_sim no)
		(in_bom yes)
		(on_board yes)
		(dnp no)
		(uuid "c0a21596-3409-4947-a37f-b3c104695ef4")
		(property "Reference" "R103"
			(at 87.63 59.5122 90)
			(effects
				(font
					(size 1.27 1.27)
				)
			)
		)
		(property "Value" "3.3k"
			(at 87.63 61.8236 90)
			(effects
				(font
					(size 1.27 1.27)
				)
			)
		)
		(property "Footprint" "Resistor_SMD:R_0603_1608Metric"
			(at 87.63 62.992 90)
			(effects
				(font
					(size 1.27 1.27)
				)
				(hide yes)
			)
		)
		(property "Datasheet" "~"
			(at 87.63 64.77 0)
			(effects
				(font
					(size 1.27 1.27)
				)
				(hide yes)
			)
		)
		(property "Description" ""
			(at 87.63 64.77 0)
			(effects
				(font
					(size 1.27 1.27)
				)
				(hide yes)
			)
		)
		(property "Place" "YES"
			(at 87.63 64.77 0)
			(effects
				(font
					(size 1.27 1.27)
				)
				(hide yes)
			)
		)
		(property "Provided" "NO"
			(at 87.63 64.77 0)
			(effects
				(font
					(size 1.27 1.27)
				)
				(hide yes)
			)
		)
		(pin "1"
			(uuid "d453a483-9994-49c1-b82e-70cb7fbd4a0a")
		)
		(pin "2"
			(uuid "bdc90719-6faa-4f72-9102-d8524eece620")
		)
		(instances
			(project "rfs_adapters"
				(path "/71d243da-e0b0-4f37-9617-4e4cc8f13378"
					(reference "R103")
					(unit 1)
				)
				(path "/71d243da-e0b0-4f37-9617-4e4cc8f13378/03fbb6de-d0c3-4521-9644-a1770e591c45"
					(reference "R703")
					(unit 1)
				)
			)
		)
	)
	(symbol
		(lib_id "Device:R")
		(at 93.98 50.8 0)
		(unit 1)
		(exclude_from_sim no)
		(in_bom yes)
		(on_board yes)
		(dnp no)
		(uuid "c2047a1c-8129-4028-aa87-0558906e9113")
		(property "Reference" "R102"
			(at 95.758 49.6316 0)
			(effects
				(font
					(size 1.27 1.27)
				)
				(justify left)
			)
		)
		(property "Value" "1k"
			(at 95.758 51.943 0)
			(effects
				(font
					(size 1.27 1.27)
				)
				(justify left)
			)
		)
		(property "Footprint" "Resistor_SMD:R_0603_1608Metric"
			(at 92.202 50.8 90)
			(effects
				(font
					(size 1.27 1.27)
				)
				(hide yes)
			)
		)
		(property "Datasheet" "~"
			(at 93.98 50.8 0)
			(effects
				(font
					(size 1.27 1.27)
				)
				(hide yes)
			)
		)
		(property "Description" ""
			(at 93.98 50.8 0)
			(effects
				(font
					(size 1.27 1.27)
				)
				(hide yes)
			)
		)
		(property "Place" "YES"
			(at 93.98 50.8 0)
			(effects
				(font
					(size 1.27 1.27)
				)
				(hide yes)
			)
		)
		(property "Provided" "NO"
			(at 93.98 50.8 0)
			(effects
				(font
					(size 1.27 1.27)
				)
				(hide yes)
			)
		)
		(pin "1"
			(uuid "ad7fb863-a2b3-49a2-bfa2-305656fab268")
		)
		(pin "2"
			(uuid "057a17d4-736f-4851-852d-99a0ef63f27e")
		)
		(instances
			(project "rfs_adapters"
				(path "/71d243da-e0b0-4f37-9617-4e4cc8f13378"
					(reference "R102")
					(unit 1)
				)
				(path "/71d243da-e0b0-4f37-9617-4e4cc8f13378/03fbb6de-d0c3-4521-9644-a1770e591c45"
					(reference "R702")
					(unit 1)
				)
			)
		)
	)
	(symbol
		(lib_id "Connector_Generic:Conn_02x05_Odd_Even")
		(at 50.8 50.8 180)
		(unit 1)
		(exclude_from_sim no)
		(in_bom yes)
		(on_board yes)
		(dnp no)
		(uuid "f50b89f5-31ce-4fa9-9f20-f7313bf2a677")
		(property "Reference" "J101"
			(at 49.53 40.005 0)
			(effects
				(font
					(size 1.27 1.27)
				)
			)
		)
		(property "Value" "Conn_02x05_Odd_Even"
			(at 49.53 42.3164 0)
			(effects
				(font
					(size 1.27 1.27)
				)
			)
		)
		(property "Footprint" "Connector_PinSocket_2.54mm:PinSocket_2x05_P2.54mm_Vertical"
			(at 50.8 50.8 0)
			(effects
				(font
					(size 1.27 1.27)
				)
				(hide yes)
			)
		)
		(property "Datasheet" "~"
			(at 50.8 50.8 0)
			(effects
				(font
					(size 1.27 1.27)
				)
				(hide yes)
			)
		)
		(property "Description" ""
			(at 50.8 50.8 0)
			(effects
				(font
					(size 1.27 1.27)
				)
				(hide yes)
			)
		)
		(property "Place" "NO"
			(at 50.8 50.8 0)
			(effects
				(font
					(size 1.27 1.27)
				)
				(hide yes)
			)
		)
		(property "Provided" "NO"
			(at 50.8 50.8 0)
			(effects
				(font
					(size 1.27 1.27)
				)
				(hide yes)
			)
		)
		(pin "1"
			(uuid "b09ed96b-91b0-4ade-a4a0-8f0031777e19")
		)
		(pin "10"
			(uuid "3e8d1d1b-807b-43f1-8e71-63ac907a1d17")
		)
		(pin "2"
			(uuid "ae45c15c-0e08-4f9b-853f-7d1f7fd7871f")
		)
		(pin "3"
			(uuid "c02d4790-50a5-4779-b483-6d366613ddd1")
		)
		(pin "4"
			(uuid "463e3346-f9a8-4851-b067-8be6f7430de9")
		)
		(pin "5"
			(uuid "677161df-e4d7-44e8-91c7-c624824452b9")
		)
		(pin "6"
			(uuid "7ede88a2-e592-4519-a843-a2b337d835a1")
		)
		(pin "7"
			(uuid "89732103-3498-4481-9744-b50c08a92799")
		)
		(pin "8"
			(uuid "c9ebac22-28ee-46f0-a0f2-487aef98c2b0")
		)
		(pin "9"
			(uuid "930832f4-b2a5-422b-9d43-8576ea65b9b4")
		)
		(instances
			(project "rfs_adapters"
				(path "/71d243da-e0b0-4f37-9617-4e4cc8f13378"
					(reference "J101")
					(unit 1)
				)
				(path "/71d243da-e0b0-4f37-9617-4e4cc8f13378/03fbb6de-d0c3-4521-9644-a1770e591c45"
					(reference "J701")
					(unit 1)
				)
			)
		)
	)
	(sheet_instances
		(path "/"
			(page "1")
		)
	)
)
