(kicad_sch (version 20230121) (generator eeschema)

  (uuid 71d243da-e0b0-4f37-9617-4e4cc8f13378)

  (paper "A4")

  (lib_symbols
  )


  (polyline (pts (xy 254 115.57) (xy 248.92 115.57))
    (stroke (width 0) (type default))
    (uuid 2b87d4c9-8697-48cb-a171-71b155058954)
  )
  (polyline (pts (xy 254 165.1) (xy 248.92 165.1))
    (stroke (width 0) (type default))
    (uuid c04a2885-361c-4abc-b81f-8143ae5a24ed)
  )
  (polyline (pts (xy 254 165.1) (xy 254 115.57))
    (stroke (width 0) (type default))
    (uuid c3211142-a3bd-4a55-8657-53c15ce8e5cb)
  )
  (polyline (pts (xy 248.92 165.1) (xy 248.92 115.57))
    (stroke (width 0) (type default))
    (uuid c6f1875e-1c84-47ce-a5e2-892f588c2c57)
  )

  (text "GND" (at 247.65 116.84 0)
    (effects (font (size 1.27 1.27)) (justify right bottom))
    (uuid 05796f5d-700a-48ba-a2b3-4d2f6c0c4c57)
  )
  (text "NC" (at 247.65 157.48 0)
    (effects (font (size 1.27 1.27)) (justify right bottom))
    (uuid 08e9c3da-e6cb-41c8-9586-8893405eadb2)
  )
  (text "GND" (at 247.65 129.54 0)
    (effects (font (size 1.27 1.27)) (justify right bottom))
    (uuid 0ec62201-7b0f-4311-bcf7-74253fc351fe)
  )
  (text "GND" (at 255.27 162.56 0)
    (effects (font (size 1.27 1.27)) (justify left bottom))
    (uuid 153cc9af-74e9-4446-96d3-48a3fe46a5fd)
  )
  (text "uC_UART_Rx_RS232" (at 247.65 134.62 0)
    (effects (font (size 1.27 1.27)) (justify right bottom))
    (uuid 1ad8f24d-5d6e-46ef-a6f9-15f5021b78df)
  )
  (text "NC" (at 255.27 129.54 0)
    (effects (font (size 1.27 1.27)) (justify left bottom))
    (uuid 2a3a63bf-488a-4d97-a725-f49f4de90cfb)
  )
  (text "EARTH" (at 247.65 121.92 0)
    (effects (font (size 1.27 1.27)) (justify right bottom))
    (uuid 2dd4b44f-e8f6-4228-be22-fe672779ed15)
  )
  (text "NC" (at 247.65 154.94 0)
    (effects (font (size 1.27 1.27)) (justify right bottom))
    (uuid 2e734817-003c-4d52-b51d-b7db2d82497c)
  )
  (text "GND" (at 247.65 137.16 0)
    (effects (font (size 1.27 1.27)) (justify right bottom))
    (uuid 308c0a7f-d4f3-4b54-a8ac-11b41d958a53)
  )
  (text "VDD1" (at 247.65 165.1 0)
    (effects (font (size 1.27 1.27)) (justify right bottom))
    (uuid 35875f0e-245e-4a97-97a4-c206ced5b4fc)
  )
  (text "VREF_0" (at 247.65 139.7 0)
    (effects (font (size 1.27 1.27)) (justify right bottom))
    (uuid 358f42de-0603-4b0f-a9af-2df1bf659206)
  )
  (text "VDD0" (at 255.27 121.92 0)
    (effects (font (size 1.27 1.27)) (justify left bottom))
    (uuid 3adb34c5-d8b3-4306-be91-8816796755a9)
  )
  (text "NC" (at 255.27 149.86 0)
    (effects (font (size 1.27 1.27)) (justify left bottom))
    (uuid 3b669546-161e-42a1-bbad-678dc28ccd9b)
  )
  (text "EARTH" (at 255.27 160.02 0)
    (effects (font (size 1.27 1.27)) (justify left bottom))
    (uuid 3f918602-5786-4df6-9793-a9612035d772)
  )
  (text "uC_UART_Tx_RS232" (at 247.65 132.08 0)
    (effects (font (size 1.27 1.27)) (justify right bottom))
    (uuid 4233f658-ff3b-4514-869e-19cff607a13d)
  )
  (text "GND" (at 255.27 144.78 0)
    (effects (font (size 1.27 1.27)) (justify left bottom))
    (uuid 42bcd730-4f55-451c-8482-1bcf94d6a3c8)
  )
  (text "GND" (at 255.27 165.1 0)
    (effects (font (size 1.27 1.27)) (justify left bottom))
    (uuid 4a303bd1-0602-43e1-9ffc-d5b1baaf469b)
  )
  (text "VDD0" (at 255.27 116.84 0)
    (effects (font (size 1.27 1.27)) (justify left bottom))
    (uuid 4f1cfbc0-8ea4-41f7-9d10-31a35fd95bcf)
  )
  (text "uC_UART_Tx" (at 247.65 147.32 0)
    (effects (font (size 1.27 1.27)) (justify right bottom))
    (uuid 58323822-1c6f-466a-9f85-dbf86d4ed62f)
  )
  (text "GND" (at 255.27 157.48 0)
    (effects (font (size 1.27 1.27)) (justify left bottom))
    (uuid 5e96d3c2-0bf9-4182-a058-8da42c2822b8)
  )
  (text "1PPS_IN" (at 247.65 152.4 0)
    (effects (font (size 1.27 1.27)) (justify right bottom))
    (uuid 5f668615-1b23-4b33-8e65-1f651195a35c)
  )
  (text "RFS_OUT" (at 255.27 154.94 0)
    (effects (font (size 1.27 1.27)) (justify left bottom))
    (uuid 68bca39f-3d30-4b66-bf18-30f070a05209)
  )
  (text "NC" (at 255.27 134.62 0)
    (effects (font (size 1.27 1.27)) (justify left bottom))
    (uuid 6afd31b3-7b9f-482c-8b4b-575521de4db0)
  )
  (text "NC" (at 247.65 127 0)
    (effects (font (size 1.27 1.27)) (justify right bottom))
    (uuid 7b680398-6985-4304-8505-21ce885a8e48)
  )
  (text "1PPS_OUT" (at 255.27 127 0)
    (effects (font (size 1.27 1.27)) (justify left bottom))
    (uuid 7cd28a83-0edd-4293-91e2-563980082337)
  )
  (text "LOCK_INDICATOR" (at 255.27 124.46 0)
    (effects (font (size 1.27 1.27)) (justify left bottom))
    (uuid 7e99a7c6-61f0-4c60-b98c-a8bef2b4fee5)
  )
  (text "VREF_1" (at 255.27 142.24 0)
    (effects (font (size 1.27 1.27)) (justify left bottom))
    (uuid 7fd1fd3c-bfdf-4b9d-bedb-811e0464281d)
  )
  (text "VDD0" (at 255.27 119.38 0)
    (effects (font (size 1.27 1.27)) (justify left bottom))
    (uuid 8032310f-583d-49c1-b0bf-66f0711f9a07)
  )
  (text "DAC_RFU" (at 238.76 142.24 0)
    (effects (font (size 1.27 1.27)) (justify left bottom))
    (uuid 84850724-fa8c-419e-b7bd-2c032e89f661)
  )
  (text "uC_UART_Rx" (at 247.65 149.86 0)
    (effects (font (size 1.27 1.27)) (justify right bottom))
    (uuid 87d56d3b-6ddb-4b9e-af9f-0c08e939803b)
  )
  (text "VDD1" (at 247.65 160.02 0)
    (effects (font (size 1.27 1.27)) (justify right bottom))
    (uuid 9ed4dae5-7b83-4f98-8efa-d277add6cc94)
  )
  (text "GND" (at 247.65 119.38 0)
    (effects (font (size 1.27 1.27)) (justify right bottom))
    (uuid 9f8cc6cb-eaac-49ef-9048-492311ee2bf9)
  )
  (text "VDD1" (at 247.65 162.56 0)
    (effects (font (size 1.27 1.27)) (justify right bottom))
    (uuid a2d82465-c0ca-4e30-8cc4-fa9676e55745)
  )
  (text "GND" (at 255.27 132.08 0)
    (effects (font (size 1.27 1.27)) (justify left bottom))
    (uuid aaa8449e-910a-49e5-bb17-4cc02e7ddd61)
  )
  (text "EFC_IN" (at 255.27 139.7 0)
    (effects (font (size 1.27 1.27)) (justify left bottom))
    (uuid aca7e973-9034-46d8-ba66-35d680990610)
  )
  (text "Adapters / Riser Cards for Rubidium \nFrequency Standards"
    (at 179.07 175.26 0)
    (effects (font (size 2.54 2.54)) (justify left bottom))
    (uuid b1d2cc49-9329-4d04-8e1b-a82ffede2530)
  )
  (text "RFS_OUT max 10dBm" (at 264.16 165.1 0)
    (effects (font (size 1.27 1.27)) (justify left bottom))
    (uuid b91965ca-bd5a-440d-844c-da56cfde1bc8)
  )
  (text "GND" (at 255.27 137.16 0)
    (effects (font (size 1.27 1.27)) (justify left bottom))
    (uuid c2dbf5f6-3262-4782-b9df-07029efa027c)
  )
  (text "GND" (at 247.65 124.46 0)
    (effects (font (size 1.27 1.27)) (justify right bottom))
    (uuid d7fd7de2-829f-4913-bef9-6b6fa3c7e5f4)
  )
  (text "GND" (at 255.27 147.32 0)
    (effects (font (size 1.27 1.27)) (justify left bottom))
    (uuid d8267ef7-cc46-4bfd-9d5a-55dbdeb490d6)
  )
  (text "GND" (at 247.65 144.78 0)
    (effects (font (size 1.27 1.27)) (justify right bottom))
    (uuid e21173a6-4d93-4c3c-a6f7-d8ed12fc74b6)
  )
  (text "GND" (at 255.27 152.4 0)
    (effects (font (size 1.27 1.27)) (justify left bottom))
    (uuid f83b880c-8dd8-4955-be61-bb019b5d2dbd)
  )

  (sheet (at 15.24 15.24) (size 69.85 59.69) (fields_autoplaced)
    (stroke (width 0) (type solid))
    (fill (color 0 0 0 0.0000))
    (uuid 00000000-0000-0000-0000-000061adfcbd)
    (property "Sheetname" "Accubeat AR40A" (at 15.24 14.5284 0)
      (effects (font (size 1.27 1.27)) (justify left bottom))
    )
    (property "Sheetfile" "Accubeat_AR40A.kicad_sch" (at 15.24 75.5146 0)
      (effects (font (size 1.27 1.27)) (justify left top))
    )
    (instances
      (project "rfs_adapters"
        (path "/71d243da-e0b0-4f37-9617-4e4cc8f13378" (page "3"))
      )
    )
  )

  (sheet (at 91.44 15.24) (size 69.85 59.69) (fields_autoplaced)
    (stroke (width 0) (type solid))
    (fill (color 0 0 0 0.0000))
    (uuid 00000000-0000-0000-0000-000061ae0437)
    (property "Sheetname" "Accubeat AR60A" (at 91.44 14.5284 0)
      (effects (font (size 1.27 1.27)) (justify left bottom))
    )
    (property "Sheetfile" "Accubeat_AR60A.kicad_sch" (at 91.44 75.5146 0)
      (effects (font (size 1.27 1.27)) (justify left top))
    )
    (instances
      (project "rfs_adapters"
        (path "/71d243da-e0b0-4f37-9617-4e4cc8f13378" (page "4"))
      )
    )
  )

  (sheet (at 167.64 15.24) (size 69.85 59.69) (fields_autoplaced)
    (stroke (width 0) (type solid))
    (fill (color 0 0 0 0.0000))
    (uuid 00000000-0000-0000-0000-000061ae0bd9)
    (property "Sheetname" "Accubeat AR133" (at 167.64 14.5284 0)
      (effects (font (size 1.27 1.27)) (justify left bottom))
    )
    (property "Sheetfile" "Accubeat_AR133.kicad_sch" (at 167.64 75.5146 0)
      (effects (font (size 1.27 1.27)) (justify left top))
    )
    (instances
      (project "rfs_adapters"
        (path "/71d243da-e0b0-4f37-9617-4e4cc8f13378" (page "5"))
      )
    )
  )

  (sheet (at 15.24 151.13) (size 69.85 43.18) (fields_autoplaced)
    (stroke (width 0.1524) (type solid))
    (fill (color 0 0 0 0.0000))
    (uuid 010305f5-e23a-4d75-ac1b-cc17f59a65c2)
    (property "Sheetname" "SRS_PRS10" (at 15.24 150.4184 0)
      (effects (font (size 1.27 1.27)) (justify left bottom))
    )
    (property "Sheetfile" "SRS_PRS10.kicad_sch" (at 15.24 194.8946 0)
      (effects (font (size 1.27 1.27)) (justify left top))
    )
    (instances
      (project "rfs_adapters"
        (path "/71d243da-e0b0-4f37-9617-4e4cc8f13378" (page "2"))
      )
    )
  )

  (sheet (at 91.44 87.63) (size 69.85 49.53) (fields_autoplaced)
    (stroke (width 0.1524) (type solid))
    (fill (color 0 0 0 0.0000))
    (uuid 03fbb6de-d0c3-4521-9644-a1770e591c45)
    (property "Sheetname" "Datum_LPRO-101" (at 91.44 86.9184 0)
      (effects (font (size 1.27 1.27)) (justify left bottom))
    )
    (property "Sheetfile" "Datum_LPRO-101.kicad_sch" (at 91.44 137.7446 0)
      (effects (font (size 1.27 1.27)) (justify left top))
    )
    (instances
      (project "rfs_adapters"
        (path "/71d243da-e0b0-4f37-9617-4e4cc8f13378" (page "7"))
      )
    )
  )

  (sheet (at 15.24 86.36) (size 69.85 50.8) (fields_autoplaced)
    (stroke (width 0.1524) (type solid))
    (fill (color 0 0 0 0.0000))
    (uuid 5e3a5183-0d1f-4400-a633-2bb65aab7d9f)
    (property "Sheetname" "FEI_FE5680A" (at 15.24 85.6484 0)
      (effects (font (size 1.27 1.27)) (justify left bottom))
    )
    (property "Sheetfile" "FEI_FE5680A.kicad_sch" (at 15.24 137.7446 0)
      (effects (font (size 1.27 1.27)) (justify left top))
    )
    (instances
      (project "rfs_adapters"
        (path "/71d243da-e0b0-4f37-9617-4e4cc8f13378" (page "6"))
      )
    )
  )

  (sheet (at 91.44 151.13) (size 69.85 43.18) (fields_autoplaced)
    (stroke (width 0.1524) (type solid))
    (fill (color 0 0 0 0.0000))
    (uuid 7832b845-bf6c-4bd4-9543-2d01ba5d4f0a)
    (property "Sheetname" "Debug" (at 91.44 150.4184 0)
      (effects (font (size 1.27 1.27)) (justify left bottom))
    )
    (property "Sheetfile" "Debug.kicad_sch" (at 91.44 194.8946 0)
      (effects (font (size 1.27 1.27)) (justify left top))
    )
    (instances
      (project "rfs_adapters"
        (path "/71d243da-e0b0-4f37-9617-4e4cc8f13378" (page "8"))
      )
    )
  )

  (sheet_instances
    (path "/" (page "1"))
  )
)
